EESchema Schematic File Version 4
LIBS:Micro18_V3.2-cache
EELAYER 26 0
EELAYER END
$Descr A4 11693 8268
encoding utf-8
Sheet 1 1
Title "Microcontroller"
Date "2018-08-08"
Rev "V3"
Comp "Cure Mannheim e.V."
Comment1 "Autor: Lukas Neumann"
Comment2 ""
Comment3 ""
Comment4 ""
$EndDescr
$Comp
L power:GND #PWR013
U 1 1 5B6B1193
P 3550 4800
F 0 "#PWR013" H 3550 4550 50  0001 C CNN
F 1 "GND" H 3550 4650 50  0000 C CNN
F 2 "" H 3550 4800 50  0001 C CNN
F 3 "" H 3550 4800 50  0001 C CNN
	1    3550 4800
	1    0    0    -1  
$EndComp
$Comp
L power:GND #PWR019
U 1 1 5B6B11B4
P 6300 6450
F 0 "#PWR019" H 6300 6200 50  0001 C CNN
F 1 "GND" H 6300 6300 50  0000 C CNN
F 2 "" H 6300 6450 50  0001 C CNN
F 3 "" H 6300 6450 50  0001 C CNN
	1    6300 6450
	1    0    0    -1  
$EndComp
$Comp
L power:GND #PWR015
U 1 1 5B6B11E8
P 4800 2600
F 0 "#PWR015" H 4800 2350 50  0001 C CNN
F 1 "GND" H 4800 2450 50  0000 C CNN
F 2 "" H 4800 2600 50  0001 C CNN
F 3 "" H 4800 2600 50  0001 C CNN
	1    4800 2600
	1    0    0    -1  
$EndComp
$Comp
L power:+3.3V #PWR020
U 1 1 5B6B12BB
P 6700 3800
F 0 "#PWR020" H 6700 3650 50  0001 C CNN
F 1 "+3.3V" H 6700 3940 50  0000 C CNN
F 2 "" H 6700 3800 50  0001 C CNN
F 3 "" H 6700 3800 50  0001 C CNN
	1    6700 3800
	1    0    0    -1  
$EndComp
$Comp
L power:+3.3V #PWR016
U 1 1 5B6B12DC
P 4800 3200
F 0 "#PWR016" H 4800 3050 50  0001 C CNN
F 1 "+3.3V" H 4800 3340 50  0000 C CNN
F 2 "" H 4800 3200 50  0001 C CNN
F 3 "" H 4800 3200 50  0001 C CNN
	1    4800 3200
	1    0    0    -1  
$EndComp
$Comp
L power:+3.3V #PWR014
U 1 1 5B6B12F6
P 3950 4950
F 0 "#PWR014" H 3950 4800 50  0001 C CNN
F 1 "+3.3V" H 3950 5090 50  0000 C CNN
F 2 "" H 3950 4950 50  0001 C CNN
F 3 "" H 3950 4950 50  0001 C CNN
	1    3950 4950
	1    0    0    -1  
$EndComp
$Comp
L power:+3.3V #PWR021
U 1 1 5B6B1310
P 6700 5850
F 0 "#PWR021" H 6700 5700 50  0001 C CNN
F 1 "+3.3V" H 6700 5990 50  0000 C CNN
F 2 "" H 6700 5850 50  0001 C CNN
F 3 "" H 6700 5850 50  0001 C CNN
	1    6700 5850
	1    0    0    -1  
$EndComp
$Comp
L Micro18_V3-rescue:FC-135_32.7680KA-AC Y1
U 1 1 5B6B1512
P 1850 2750
F 0 "Y1" H 2200 2900 50  0000 C CNN
F 1 "FC-135_32.7680KA-AC" H 2200 2600 50  0000 C CNN
F 2 "FC-135_32.7680KA-AC:FC-135_1" H 2200 2500 50  0001 C CNN
F 3 "http://www5.epsondevice.com/en/products/khz_range/fc135.html - .pdf" H 2200 2400 50  0001 C CNN
F 4 "Crystals 32.768KHz 9pF 20ppm" H 2200 2300 50  0001 C CNN "Description"
F 5 "RS" H 2200 2200 50  0001 C CNN "Supplier_Name"
F 6 "" H 2200 2100 50  0001 C CNN "RS Part Number"
F 7 "Epson Timing" H 2200 2000 50  0001 C CNN "Manufacturer_Name"
F 8 "FC-135 32.7680KA-AC" H 2200 1900 50  0001 C CNN "Manufacturer_Part_Number"
F 9 "" H 2200 1800 50  0001 C CNN "Allied_Number"
F 10 "" H 2200 1700 50  0001 C CNN "Other Part Number"
F 11 "" H 2400 1600 50  0001 C CNN "Height"
	1    1850 2750
	0    1    1    0   
$EndComp
Text GLabel 2700 2750 2    51   Input ~ 0
OSC32_IN
Text GLabel 4900 4150 0    51   Input ~ 0
OSC32_IN
Text GLabel 2700 3450 2    51   Input ~ 0
OSC32_OUT
Text GLabel 4900 4250 0    51   Input ~ 0
OSC32_OUT
$Comp
L power:GND #PWR02
U 1 1 5B6B1D43
P 700 4250
F 0 "#PWR02" H 700 4000 50  0001 C CNN
F 1 "GND" H 700 4100 50  0000 C CNN
F 2 "" H 700 4250 50  0001 C CNN
F 3 "" H 700 4250 50  0001 C CNN
	1    700  4250
	1    0    0    -1  
$EndComp
$Comp
L power:GND #PWR01
U 1 1 5B6B1D72
P 700 3050
F 0 "#PWR01" H 700 2800 50  0001 C CNN
F 1 "GND" H 700 2900 50  0000 C CNN
F 2 "" H 700 3050 50  0001 C CNN
F 3 "" H 700 3050 50  0001 C CNN
	1    700  3050
	1    0    0    -1  
$EndComp
Text GLabel 2700 4600 2    51   Input ~ 0
OSC8_OUT
Text GLabel 4900 4450 0    51   Input ~ 0
OSC8_OUT
Text GLabel 2700 3900 2    51   Input ~ 0
OSC8_IN
Text GLabel 4900 4350 0    51   Input ~ 0
OSC8_IN
$Comp
L Micro18_V3-rescue:RT9193-33GB IC2
U 1 1 5B6B2228
P 4600 1300
F 0 "IC2" H 5100 1450 50  0000 C CNN
F 1 "RT9193-33GB" H 5100 950 50  0000 C CNN
F 2 "RT9193-33GB:SOT94P279X130-5N" H 5100 850 50  0001 C CNN
F 3 "http://www.richtek.com/assets/product_file/RT9193/DS9193-17.pdf" H 5100 750 50  0001 C CNN
F 4 "300mA, Ultra-Low Noise, Ultra-Fast CMOS LDO Regulator" H 5100 650 50  0001 C CNN "Description"
F 5 "RS" H 5100 550 50  0001 C CNN "Supplier_Name"
F 6 "" H 5100 450 50  0001 C CNN "RS Part Number"
F 7 "Richtek USA Inc." H 5100 350 50  0001 C CNN "Manufacturer_Name"
F 8 "RT9193-33GB" H 5100 250 50  0001 C CNN "Manufacturer_Part_Number"
F 9 "" H 5100 150 50  0001 C CNN "Allied_Number"
F 10 "" H 5100 50  50  0001 C CNN "Other Part Number"
F 11 "1.295" H 5450 -50 50  0001 C CNN "Height"
	1    4600 1300
	1    0    0    -1  
$EndComp
$Comp
L power:+5V #PWR011
U 1 1 5B6B2529
P 4000 1100
F 0 "#PWR011" H 4000 950 50  0001 C CNN
F 1 "+5V" H 4000 1240 50  0000 C CNN
F 2 "" H 4000 1100 50  0001 C CNN
F 3 "" H 4000 1100 50  0001 C CNN
	1    4000 1100
	1    0    0    -1  
$EndComp
$Comp
L power:GND #PWR012
U 1 1 5B6B261B
P 4000 1950
F 0 "#PWR012" H 4000 1700 50  0001 C CNN
F 1 "GND" H 4000 1800 50  0000 C CNN
F 2 "" H 4000 1950 50  0001 C CNN
F 3 "" H 4000 1950 50  0001 C CNN
	1    4000 1950
	1    0    0    -1  
$EndComp
$Comp
L power:GND #PWR018
U 1 1 5B6B29F4
P 5800 2050
F 0 "#PWR018" H 5800 1800 50  0001 C CNN
F 1 "GND" H 5800 1900 50  0000 C CNN
F 2 "" H 5800 2050 50  0001 C CNN
F 3 "" H 5800 2050 50  0001 C CNN
	1    5800 2050
	1    0    0    -1  
$EndComp
$Comp
L power:+3.3V #PWR017
U 1 1 5B6B2BA4
P 5700 1150
F 0 "#PWR017" H 5700 1000 50  0001 C CNN
F 1 "+3.3V" H 5700 1290 50  0000 C CNN
F 2 "" H 5700 1150 50  0001 C CNN
F 3 "" H 5700 1150 50  0001 C CNN
	1    5700 1150
	1    0    0    -1  
$EndComp
Text GLabel 5400 3250 1    51   Input ~ 0
CAN_TX
Text GLabel 7750 1200 0    51   Input ~ 0
CAN_TX
Text GLabel 7750 1300 0    51   Input ~ 0
CAN_RX
Text GLabel 5500 3250 1    51   Input ~ 0
CAN_RX
$Comp
L Micro18_V3-rescue:MCP2551-I_SN U1
U 1 1 5B6B3958
P 8250 1400
F 0 "U1" H 7850 1750 50  0000 L CNN
F 1 "MCP2551-I/SN" H 8350 1750 50  0000 L CNN
F 2 "MCP2551-I_SN:SOIC127P600X175-8N" H 8250 900 50  0001 C CIN
F 3 "" H 8250 1400 50  0001 C CNN
	1    8250 1400
	1    0    0    -1  
$EndComp
$Comp
L power:+5V #PWR023
U 1 1 5B6B39A7
P 8250 850
F 0 "#PWR023" H 8250 700 50  0001 C CNN
F 1 "+5V" H 8250 990 50  0000 C CNN
F 2 "" H 8250 850 50  0001 C CNN
F 3 "" H 8250 850 50  0001 C CNN
	1    8250 850 
	1    0    0    -1  
$EndComp
$Comp
L power:GND #PWR024
U 1 1 5B6B39FD
P 8250 2400
F 0 "#PWR024" H 8250 2150 50  0001 C CNN
F 1 "GND" H 8250 2250 50  0000 C CNN
F 2 "" H 8250 2400 50  0001 C CNN
F 3 "" H 8250 2400 50  0001 C CNN
	1    8250 2400
	1    0    0    -1  
$EndComp
Text GLabel 10550 1350 2    51   Input ~ 0
CANH
Text GLabel 10550 1450 2    51   Input ~ 0
CANL
$Comp
L Micro18_V3-rescue:SML-D13DWT86A LED2
U 1 1 5B6B466A
P 1600 6450
F 0 "LED2" H 1850 6250 50  0000 L BNN
F 1 "SML-D13DWT86A" H 1600 6700 50  0000 L BNN
F 2 "SML-D13DWT86A:LEDC1608X65N" H 2100 6600 50  0001 L BNN
F 3 "https://docs-emea.rs-online.com/webdocs/156b/0900766b8156b2c9.pdf" H 2100 6500 50  0001 L BNN
F 4 "ROHM SML-D13DWT86A, SML 608 nm Orange LED, 1608 (0603) Milky White SMD package" H 2100 6400 50  0001 L BNN "Description"
F 5 "0.65" H 2100 6300 50  0001 L BNN "Height"
F 6 "ROHM Semiconductor" H 2100 6200 50  0001 L BNN "Manufacturer_Name"
F 7 "SML-D13DWT86A" H 2100 6100 50  0001 L BNN "Manufacturer_Part_Number"
F 8 "1332873P" H 2100 6000 50  0001 L BNN "RS Part Number"
F 9 "http://uk.rs-online.com/web/p/products/1332873P" H 2100 5900 50  0001 L BNN "RS Price/Stock"
F 10 "SML-D13DWT86A" H 2100 5800 50  0001 L BNN "Arrow Part Number"
F 11 "http://uk.rs-online.com/web/p/products/1332873P" H 2100 5700 50  0001 L BNN "Arrow Price/Stock"
	1    1600 6450
	0    -1   -1   0   
$EndComp
$Comp
L Micro18_V3-rescue:SML-D13FWT86 LED1
U 1 1 5B6B4745
P 950 6450
F 0 "LED1" H 1200 6250 50  0000 L BNN
F 1 "SML-D13FWT86" H 950 6700 50  0000 L BNN
F 2 "SML-D13FWT86:SMLD15YWT86" H 1450 6600 50  0001 L BNN
F 3 "http://www.rohm.com/web/global/datasheet/SML-D13FW/sml-d13x-e" H 1450 6500 50  0001 L BNN
F 4 "ROHM SML-D13FWT86, SML 566 nm Green LED, 1608 (0603) Milky White SMD package" H 1450 6400 50  0001 L BNN "Description"
F 5 "" H 1450 6300 50  0001 L BNN "Height"
F 6 "ROHM Semiconductor" H 1450 6200 50  0001 L BNN "Manufacturer_Name"
F 7 "SML-D13FWT86" H 1450 6100 50  0001 L BNN "Manufacturer_Part_Number"
F 8 "1332874P" H 1450 6000 50  0001 L BNN "RS Part Number"
F 9 "http://uk.rs-online.com/web/p/products/1332874P" H 1450 5900 50  0001 L BNN "RS Price/Stock"
F 10 "SML-D13FWT86" H 1450 5800 50  0001 L BNN "Arrow Part Number"
F 11 "http://uk.rs-online.com/web/p/products/1332874P" H 1450 5700 50  0001 L BNN "Arrow Price/Stock"
	1    950  6450
	0    -1   -1   0   
$EndComp
$Comp
L power:+3.3V #PWR05
U 1 1 5B6B5121
P 950 5700
F 0 "#PWR05" H 950 5550 50  0001 C CNN
F 1 "+3.3V" H 950 5840 50  0000 C CNN
F 2 "" H 950 5700 50  0001 C CNN
F 3 "" H 950 5700 50  0001 C CNN
	1    950  5700
	1    0    0    -1  
$EndComp
$Comp
L power:GND #PWR06
U 1 1 5B6B51E0
P 950 7400
F 0 "#PWR06" H 950 7150 50  0001 C CNN
F 1 "GND" H 950 7250 50  0000 C CNN
F 2 "" H 950 7400 50  0001 C CNN
F 3 "" H 950 7400 50  0001 C CNN
	1    950  7400
	1    0    0    -1  
$EndComp
Text GLabel 1600 5700 1    51   Input ~ 0
PC13-LED
Text GLabel 4900 4050 0    51   Input ~ 0
PC13-LED
Text GLabel 6600 4150 2    51   Input ~ 0
SWDIO
Text GLabel 6300 3250 1    51   Input ~ 0
SWCLK
$Comp
L power:+3.3V #PWR09
U 1 1 5B6B604D
P 2800 5750
F 0 "#PWR09" H 2800 5600 50  0001 C CNN
F 1 "+3.3V" H 2800 5890 50  0000 C CNN
F 2 "" H 2800 5750 50  0001 C CNN
F 3 "" H 2800 5750 50  0001 C CNN
	1    2800 5750
	1    0    0    -1  
$EndComp
$Comp
L power:GND #PWR010
U 1 1 5B6B61F4
P 2800 7450
F 0 "#PWR010" H 2800 7200 50  0001 C CNN
F 1 "GND" H 2800 7300 50  0000 C CNN
F 2 "" H 2800 7450 50  0001 C CNN
F 3 "" H 2800 7450 50  0001 C CNN
	1    2800 7450
	1    0    0    -1  
$EndComp
Text GLabel 3100 6450 1    51   Input ~ 0
Reset
Text GLabel 4900 4550 0    51   Input ~ 0
Reset
$Comp
L power:GND #PWR07
U 1 1 5B6BB4EC
P 1600 7400
F 0 "#PWR07" H 1600 7150 50  0001 C CNN
F 1 "GND" H 1600 7250 50  0000 C CNN
F 2 "" H 1600 7400 50  0001 C CNN
F 3 "" H 1600 7400 50  0001 C CNN
	1    1600 7400
	1    0    0    -1  
$EndComp
$Comp
L Micro18_V3-rescue:STM32F103C8T6TR IC1
U 1 1 5B6BB802
P 4900 3950
F 0 "IC1" H 5650 2750 50  0000 L CNN
F 1 "STM32F103C8T6TR" H 5350 2650 50  0000 L CNN
F 2 "STM32F103C8T6TR:QFP50P900X900X160-48N" H 6450 2200 50  0001 L CNN
F 3 "http://media.digikey.com/pdf/Data Sheets/ST Microelectronics PDFS/STM32F103x8,B.pdf" H 6450 2100 50  0001 L CNN
F 4 "ARM Microcontrollers - MCU 32BIT Cortex M3 USB 7 TIMERS 2 ADCS CAN" H 6450 2000 50  0001 L CNN "Description"
F 5 "RS" H 6450 1900 50  0001 C CNN "Supplier_Name"
F 6 "" H 6450 1800 50  0001 C CNN "RS Part Number"
F 7 "STMicroelectronics" H 6450 1700 50  0001 C CNN "Manufacturer_Name"
F 8 "STM32F103C8T6TR" H 6450 1600 50  0001 C CNN "Manufacturer_Part_Number"
F 9 "" H 6450 1500 50  0001 C CNN "Allied_Number"
F 10 "" H 6450 1400 50  0001 C CNN "Other Part Number"
F 11 "1.6" H 6450 1300 50  0001 C CNN "Height"
	1    4900 3950
	1    0    0    -1  
$EndComp
$Comp
L Micro18_V3-rescue:ABM7-8.000MHZ-D2Y-T Y2
U 1 1 5B6BBB6B
P 1850 3900
F 0 "Y2" H 2200 4050 50  0000 C CNN
F 1 "ABM7-8.000MHZ-D2Y-T" H 2200 3750 50  0000 C CNN
F 2 "ABM7-8.000MHZ-D2Y-T:ABM7-8.000MHZ-D2Y-T" H 2200 3650 50  0001 C CNN
F 3 "http://www.abracon.com/Resonators/abm7.pdf" H 2200 3550 50  0001 C CNN
F 4 "ABRACON - ABM7-8.000MHZ-D2Y-T - CRYSTAL, 8MHZ, 18PF, SMD" H 2200 3450 50  0001 C CNN "Description"
F 5 "RS" H 2200 3350 50  0001 C CNN "Supplier_Name"
F 6 "" H 2200 3250 50  0001 C CNN "RS Part Number"
F 7 "ABRACON" H 2200 3150 50  0001 C CNN "Manufacturer_Name"
F 8 "ABM7-8.000MHZ-D2Y-T" H 2200 3050 50  0001 C CNN "Manufacturer_Part_Number"
F 9 "" H 2200 2950 50  0001 C CNN "Allied_Number"
F 10 "" H 2200 2850 50  0001 C CNN "Other Part Number"
F 11 "" H 2400 2750 50  0001 C CNN "Height"
	1    1850 3900
	0    1    1    0   
$EndComp
$Comp
L power:GND #PWR032
U 1 1 5B6BD700
P 10050 2050
F 0 "#PWR032" H 10050 1800 50  0001 C CNN
F 1 "GND" H 10050 1900 50  0000 C CNN
F 2 "" H 10050 2050 50  0001 C CNN
F 3 "" H 10050 2050 50  0001 C CNN
	1    10050 2050
	1    0    0    -1  
$EndComp
$Comp
L power:GND #PWR029
U 1 1 5B6BD762
P 9700 2050
F 0 "#PWR029" H 9700 1800 50  0001 C CNN
F 1 "GND" H 9700 1900 50  0000 C CNN
F 2 "" H 9700 2050 50  0001 C CNN
F 3 "" H 9700 2050 50  0001 C CNN
	1    9700 2050
	1    0    0    -1  
$EndComp
Text GLabel 6600 4250 2    51   Input ~ 0
PA12_D
Text GLabel 6600 4350 2    51   Input ~ 0
PA11_D
Text GLabel 6600 4450 2    51   Input ~ 0
PA10_D_PWM_RX1
Text GLabel 6600 4550 2    51   Input ~ 0
PA9_D_PWM_TX1
Text GLabel 6600 4650 2    51   Input ~ 0
PA8_D_PWM
Text GLabel 6600 4750 2    51   Input ~ 0
PB15_D
Text GLabel 5700 3250 1    51   Input ~ 0
PB7_D_SDA1_RX1
Text GLabel 5800 3250 1    51   Input ~ 0
PB6_D_SCL1_TX1
Text GLabel 5200 5750 3    51   Input ~ 0
PA3_A_PWM_RX2
Text GLabel 5300 5750 3    51   Input ~ 0
PA4_A
Text GLabel 5500 5750 3    51   Input ~ 0
PA6_A_PWM
Text GLabel 5600 5750 3    51   Input ~ 0
PA7_A_PWM
Text GLabel 5700 5750 3    51   Input ~ 0
PB0_A_PWM
Text GLabel 5800 5750 3    51   Input ~ 0
PB1_A_PWM
Text GLabel 4900 5050 0    51   Input ~ 0
PA2_A_PWM_TX2
Text GLabel 4900 4850 0    51   Input ~ 0
PA0_A_PWM_WKUP
Text GLabel 10500 4600 0    51   Input ~ 0
PA0_A_PWM_WKUP
Text GLabel 10500 4700 0    51   Input ~ 0
PA2_A_PWM_TX2
Text GLabel 10500 5000 0    51   Input ~ 0
PA3_A_PWM_RX2
Text GLabel 9350 5100 0    51   Input ~ 0
PA4_A
Text GLabel 10500 5200 0    51   Input ~ 0
PA6_A_PWM
Text GLabel 10500 5300 0    51   Input ~ 0
PA7_A_PWM
Text GLabel 10500 5400 0    51   Input ~ 0
PB0_A_PWM
Text GLabel 10500 5500 0    51   Input ~ 0
PB1_A_PWM
Text GLabel 10500 5600 0    51   Input ~ 0
PB15_D
Text GLabel 10500 5700 0    51   Input ~ 0
PA8_D_PWM
Text GLabel 10500 5800 0    51   Input ~ 0
PA9_D_PWM_TX1
Text GLabel 10500 5900 0    51   Input ~ 0
PA10_D_PWM_RX1
Text GLabel 10500 6000 0    51   Input ~ 0
PA11_D
Text GLabel 10500 6100 0    51   Input ~ 0
PA12_D
Text GLabel 10500 4900 0    51   Input ~ 0
PB6_D_SCL1_TX1
Text GLabel 10500 4800 0    51   Input ~ 0
PB7_D_SDA1_RX1
$Comp
L power:GND #PWR031
U 1 1 5B6C64A4
P 9950 4350
F 0 "#PWR031" H 9950 4100 50  0001 C CNN
F 1 "GND" H 9950 4200 50  0000 C CNN
F 2 "" H 9950 4350 50  0001 C CNN
F 3 "" H 9950 4350 50  0001 C CNN
	1    9950 4350
	1    0    0    -1  
$EndComp
$Comp
L power:+3.3V #PWR030
U 1 1 5B6C6895
P 9950 3950
F 0 "#PWR030" H 9950 3800 50  0001 C CNN
F 1 "+3.3V" H 9950 4090 50  0000 C CNN
F 2 "" H 9950 3950 50  0001 C CNN
F 3 "" H 9950 3950 50  0001 C CNN
	1    9950 3950
	1    0    0    -1  
$EndComp
Text Notes 800  5350 0    118  ~ 0
LEDs
Text Notes 1500 2600 0    118  ~ 0
Oszillators
Text Notes 3200 850  0    118  ~ 0
Power Supply
Text Notes 8700 800  0    118  ~ 0
CAN BUS
Text Notes 7700 2900 0    118  ~ 0
Connectors
$Comp
L Micro18_V3-rescue:PE-1812ACC110STS L1
U 1 1 5B6C5A83
P 8800 1350
F 0 "L1" H 9200 1100 50  0000 L CNN
F 1 "PE-1812ACC110STS" H 8800 1500 50  0000 L CNN
F 2 "PE-1812ACC110STS:PE1812ACC110STS" H 9450 1450 50  0001 L CNN
F 3 "http://productfinder.pulseeng.com/products/datasheets/W717.pdf" H 9450 1350 50  0001 L CNN
F 4 "Common Mode Chokes / Filters AEC-Q200 Chip Choke 11uH .5Ohms Q200" H 9450 1250 50  0001 L CNN "Description"
F 5 "3" H 9450 1150 50  0001 L CNN "Height"
F 6 "Pulse" H 9450 1050 50  0001 L CNN "Manufacturer_Name"
F 7 "PE-1812ACC110STS" H 9450 950 50  0001 L CNN "Manufacturer_Part_Number"
F 8 "" H 9450 850 50  0001 L CNN "RS Part Number"
F 9 "" H 9450 750 50  0001 L CNN "RS Price/Stock"
F 10 "PE-1812ACC110STS" H 9450 650 50  0001 L CNN "Arrow Part Number"
F 11 "https://www.arrow.com/en/products/pe-1812acc110sts/pulse-electronics-corporation" H 9450 550 50  0001 L CNN "Arrow Price/Stock"
	1    8800 1350
	1    0    0    -1  
$EndComp
$Comp
L power:+24V #PWR03
U 1 1 5B72E131
P 1300 650
F 0 "#PWR03" H 1300 500 50  0001 C CNN
F 1 "+24V" H 1300 790 50  0000 C CNN
F 2 "" H 1300 650 50  0001 C CNN
F 3 "" H 1300 650 50  0001 C CNN
	1    1300 650 
	1    0    0    -1  
$EndComp
$Comp
L power:GND #PWR04
U 1 1 5B72E1CC
P 1300 2100
F 0 "#PWR04" H 1300 1850 50  0001 C CNN
F 1 "GND" H 1300 1950 50  0000 C CNN
F 2 "" H 1300 2100 50  0001 C CNN
F 3 "" H 1300 2100 50  0001 C CNN
	1    1300 2100
	1    0    0    -1  
$EndComp
Wire Wire Line
	5200 3100 5200 3200
Wire Wire Line
	5200 3200 5200 3250
Wire Wire Line
	5300 2600 5300 3250
Wire Wire Line
	4100 4750 4900 4750
Wire Wire Line
	3550 4650 4900 4650
Wire Wire Line
	6300 5850 6300 5750
Wire Wire Line
	6300 6350 6300 6450
Wire Wire Line
	6300 6350 6200 6350
Wire Wire Line
	6200 6350 6200 5750
Wire Wire Line
	6600 3950 6700 3950
Wire Wire Line
	6700 3950 6900 3950
Wire Wire Line
	7400 3950 7400 4050
Wire Wire Line
	7400 4050 7400 4100
Wire Wire Line
	7400 4050 6600 4050
Wire Wire Line
	6700 3800 6700 3950
Connection ~ 6700 3950
Wire Wire Line
	4800 3200 5200 3200
Connection ~ 5200 3200
Wire Wire Line
	3950 4950 4100 4950
Wire Wire Line
	4100 4950 4100 4750
Connection ~ 4100 4750
Wire Wire Line
	6700 5850 6300 5850
Connection ~ 1850 3900
Connection ~ 1850 4600
Wire Wire Line
	1850 2750 2700 2750
Wire Wire Line
	1850 3450 2700 3450
Connection ~ 1850 3450
Connection ~ 1850 2750
Wire Wire Line
	850  2750 850  3050
Wire Wire Line
	850  3050 850  3450
Wire Wire Line
	850  3900 850  4250
Wire Wire Line
	850  4250 850  4600
Wire Wire Line
	700  3050 850  3050
Connection ~ 850  3050
Wire Wire Line
	700  4250 850  4250
Connection ~ 850  4250
Wire Wire Line
	4000 1100 4000 1300
Wire Wire Line
	4000 1300 4350 1300
Wire Wire Line
	4350 1300 4600 1300
Wire Wire Line
	4600 1500 4350 1500
Wire Wire Line
	4350 1500 4350 1300
Connection ~ 4350 1300
Wire Wire Line
	4000 1800 4000 1850
Wire Wire Line
	4000 1850 4000 1950
Wire Wire Line
	4600 1400 4450 1400
Wire Wire Line
	4450 1400 4450 1850
Wire Wire Line
	4450 1850 4000 1850
Connection ~ 4000 1850
Wire Wire Line
	5600 1400 5700 1400
Wire Wire Line
	5700 1400 5800 1400
Wire Wire Line
	5800 1900 5800 1950
Wire Wire Line
	5800 1950 5800 2050
Wire Wire Line
	5600 1300 6250 1300
Wire Wire Line
	6250 1800 6250 1950
Wire Wire Line
	6250 1950 5800 1950
Connection ~ 5800 1950
Wire Wire Line
	5700 1150 5700 1400
Connection ~ 5700 1400
Wire Wire Line
	8250 850  8250 950 
Wire Wire Line
	8250 950  8250 1000
Wire Wire Line
	8250 1800 8250 2350
Wire Wire Line
	8250 2350 8250 2400
Wire Wire Line
	7250 950  8250 950 
Connection ~ 8250 950 
Connection ~ 7700 2350
Wire Wire Line
	7250 2350 7700 2350
Wire Wire Line
	7700 2350 8250 2350
Connection ~ 8250 2350
Wire Wire Line
	7700 1600 7750 1600
Wire Wire Line
	9600 1350 10050 1350
Wire Wire Line
	9600 1450 9700 1450
Wire Wire Line
	950  6450 950  6600
Wire Wire Line
	950  5700 950  5850
Wire Wire Line
	1600 5700 1600 5850
Wire Wire Line
	1600 6450 1600 6600
Wire Wire Line
	2800 5750 2800 5850
Wire Wire Line
	2800 6600 2800 6700
Connection ~ 2800 6600
Connection ~ 9700 1450
Connection ~ 10050 1350
Wire Wire Line
	9700 2000 9700 2050
Wire Wire Line
	10050 2000 10050 2050
Wire Wire Line
	10100 4350 9950 4350
Connection ~ 10100 4350
Wire Wire Line
	10100 3950 9950 3950
Connection ~ 10100 3950
Wire Notes Line
	550  5150 4250 5150
Wire Notes Line
	4250 5150 4250 7650
Wire Wire Line
	8750 1300 8800 1300
Wire Wire Line
	8800 1300 8800 1350
Wire Wire Line
	8750 1500 8800 1500
Wire Wire Line
	8800 1500 8800 1450
Wire Notes Line
	500  2300 6700 2300
$Comp
L power:GND #PWR022
U 1 1 5B730DBA
P 7400 4100
F 0 "#PWR022" H 7400 3850 50  0001 C CNN
F 1 "GND" H 7400 3950 50  0000 C CNN
F 2 "" H 7400 4100 50  0001 C CNN
F 3 "" H 7400 4100 50  0001 C CNN
	1    7400 4100
	1    0    0    -1  
$EndComp
Connection ~ 7400 4050
Wire Notes Line
	3300 5150 3300 2300
Wire Notes Line
	6700 2600 11050 2600
$Comp
L Connector:DB25_Female_MountingHoles J3
U 1 1 5BCD3BA1
P 10800 4900
F 0 "J3" H 10980 4903 50  0000 L CNN
F 1 "DB25_Female_MountingHoles" V 11150 4400 50  0000 L CNN
F 2 "1-106507-2:11065072" H 10800 4900 50  0001 C CNN
F 3 " ~" H 10800 4900 50  0001 C CNN
	1    10800 4900
	1    0    0    1   
$EndComp
$Comp
L power:GND #PWR0106
U 1 1 5BCEEF52
P 10900 3500
F 0 "#PWR0106" H 10900 3250 50  0001 C CNN
F 1 "GND" H 10900 3350 50  0000 C CNN
F 2 "" H 10900 3500 50  0001 C CNN
F 3 "" H 10900 3500 50  0001 C CNN
	1    10900 3500
	1    0    0    -1  
$EndComp
Wire Notes Line
	6700 2600 6700 600 
$Comp
L Cure_Symbol:TL3305AF160QG S1
U 1 1 5BEDAE67
P 3150 6600
F 0 "S1" H 3550 6865 50  0000 C CNN
F 1 "TL3305AF160QG" H 3550 6774 50  0000 C CNN
F 2 "TL3305AF160QG:TL3305AF160QG" H 3800 6700 50  0001 L CNN
F 3 "http://spec_sheets.e-switch.com/specs/P010468.pdf" H 3800 6600 50  0001 L CNN
F 4 "Tactile Switches 50mA 12VDC SPST, NO 3.8mm Act 160gf" H 3800 6500 50  0001 L CNN "Description"
F 5 "" H 3800 6400 50  0001 L CNN "Height"
F 6 "E-Switch" H 3800 6300 50  0001 L CNN "Manufacturer_Name"
F 7 "TL3305AF160QG" H 3800 6200 50  0001 L CNN "Manufacturer_Part_Number"
F 8 "" H 3800 6100 50  0001 L CNN "RS Part Number"
F 9 "" H 3800 6000 50  0001 L CNN "RS Price/Stock"
F 10 "TL3305AF160QG" H 3800 5900 50  0001 L CNN "Arrow Part Number"
F 11 "" H 3800 5800 50  0001 L CNN "Arrow Price/Stock"
	1    3150 6600
	1    0    0    -1  
$EndComp
Wire Wire Line
	2800 6600 3100 6600
Wire Wire Line
	3100 6450 3100 6600
Connection ~ 3100 6600
Wire Wire Line
	3100 6600 3150 6600
Wire Wire Line
	3950 6600 4050 6600
Wire Wire Line
	4050 6600 4050 7300
Wire Wire Line
	4050 7300 2800 7300
Connection ~ 2800 7300
Wire Wire Line
	2800 7300 2800 7450
Text Notes 2750 5350 0    118  ~ 0
Reset
Wire Notes Line
	2250 5150 2250 7650
Wire Notes Line
	7550 2600 7550 6400
Connection ~ 1300 1100
Wire Wire Line
	1300 1100 1300 1450
Wire Wire Line
	1300 2000 1300 2050
Connection ~ 1300 2050
Wire Wire Line
	1300 2050 1300 2100
Wire Wire Line
	1850 1450 1300 1450
Connection ~ 1300 1450
$Comp
L power:GND #PWR0114
U 1 1 5BD55695
P 1850 1100
F 0 "#PWR0114" H 1850 850 50  0001 C CNN
F 1 "GND" H 1850 950 50  0000 C CNN
F 2 "" H 1850 1100 50  0001 C CNN
F 3 "" H 1850 1100 50  0001 C CNN
	1    1850 1100
	1    0    0    -1  
$EndComp
Wire Wire Line
	1850 1100 1800 1100
$Comp
L power:GND #PWR027
U 1 1 5BE19389
P 6350 7100
F 0 "#PWR027" H 6350 6850 50  0001 C CNN
F 1 "GND" H 6350 6950 50  0000 C CNN
F 2 "" H 6350 7100 50  0001 C CNN
F 3 "" H 6350 7100 50  0001 C CNN
	1    6350 7100
	1    0    0    -1  
$EndComp
Wire Wire Line
	6350 7000 6350 7100
Text GLabel 4950 7000 0    51   Input ~ 0
24V_after_Fuse
Wire Wire Line
	5650 6400 5400 6400
Wire Wire Line
	5400 6400 5400 5750
Wire Wire Line
	5650 6400 5650 7000
$Comp
L Cure_Symbol:P6SMB30AT3G D1
U 1 1 5BE9039E
P 1200 1100
F 0 "D1" H 1600 1300 50  0000 C CNN
F 1 "P6SMB30AT3G" H 1750 1200 50  0000 C CNN
F 2 "P6SMB30AT3G:DIOM5436X247N" H 1650 1100 50  0001 L CNN
F 3 "http://www.onsemi.com/pub/Collateral/P6SMB6.8AT3-D.PDF" H 1650 1000 50  0001 L CNN
F 4 "600 Watt Peak Power Zener Transient Voltage Suppressors" H 1650 900 50  0001 L CNN "Description"
F 5 "2.47" H 1650 800 50  0001 L CNN "Height"
F 6 "ON Semiconductor" H 1650 700 50  0001 L CNN "Manufacturer_Name"
F 7 "P6SMB30AT3G" H 1650 600 50  0001 L CNN "Manufacturer_Part_Number"
F 8 "8079919" H 1650 500 50  0001 L CNN "RS Part Number"
F 9 "" H 1650 400 50  0001 L CNN "RS Price/Stock"
F 10 "70467610" H 1650 300 50  0001 L CNN "Allied_Number"
F 11 "http://www.alliedelec.com/on-semiconductor-p6smb30at3g/70467610/" H 1650 200 50  0001 L CNN "Allied Price/Stock"
F 12 "P6SMB30AT3G" H 1650 100 50  0001 L CNN "Arrow Part Number"
F 13 "" H 1650 0   50  0001 L CNN "Arrow Price/Stock"
	1    1200 1100
	1    0    0    -1  
$EndComp
$Comp
L Cure_Symbol:RXEF005 F1
U 1 1 5BEBDBF1
P 1300 400
F 0 "F1" H 1800 200 50  0000 L CNN
F 1 "RXEF010" H 1650 300 50  0000 L CNN
F 2 "RXEF005:HDRV2W60P0X505_1X2_800X300X830P" H 1950 500 50  0001 L CNN
F 3 "https://componentsearchengine.com/Datasheets/2/RXEF005.pdf" H 1950 400 50  0001 L CNN
F 4 "LITTELFUSE - RXEF005 - POLYSWITCH, RADIAL, 0.05A" H 1950 300 50  0001 L CNN "Description"
F 5 "8.3" H 1950 200 50  0001 L CNN "Height"
F 6 "LITTELFUSE" H 1950 100 50  0001 L CNN "Manufacturer_Name"
F 7 "RXEF005" H 1950 0   50  0001 L CNN "Manufacturer_Part_Number"
F 8 "5176556P" H 1950 -100 50  0001 L CNN "RS Part Number"
F 9 "http://uk.rs-online.com/web/p/products/5176556P" H 1950 -200 50  0001 L CNN "RS Price/Stock"
F 10 "70059852" H 1950 -300 50  0001 L CNN "Allied_Number"
F 11 "https://www.alliedelec.com/te-connectivity-rxef005/70059852/" H 1950 -400 50  0001 L CNN "Allied Price/Stock"
F 12 "RXEF005" H 1950 -500 50  0001 L CNN "Arrow Part Number"
F 13 "https://www.arrow.com/en/products/rxef005/littelfuse" H 1950 -600 50  0001 L CNN "Arrow Price/Stock"
	1    1300 400 
	0    1    1    0   
$EndComp
Wire Wire Line
	9700 1450 10350 1450
Wire Wire Line
	10050 1350 10250 1350
Text GLabel 1300 1300 0    51   Input ~ 0
24V_after_Fuse
Wire Wire Line
	4950 7000 5100 7000
Wire Wire Line
	5400 7000 5650 7000
Connection ~ 5650 7000
Wire Wire Line
	6350 7000 6200 7000
Wire Wire Line
	10100 4350 10100 4400
Wire Wire Line
	10100 3800 10100 3900
Wire Wire Line
	10100 3950 10100 4000
Wire Wire Line
	10100 4200 10100 4300
Wire Wire Line
	10100 3800 10500 3800
Wire Wire Line
	10100 4100 10500 4100
Wire Wire Line
	10500 3900 10100 3900
Connection ~ 10100 3900
Wire Wire Line
	10100 3900 10100 3950
Wire Wire Line
	10500 4000 10100 4000
Connection ~ 10100 4000
Wire Wire Line
	10100 4000 10100 4100
Wire Wire Line
	10500 4200 10100 4200
Wire Wire Line
	10500 4300 10100 4300
Connection ~ 10100 4300
Wire Wire Line
	10100 4300 10100 4350
Wire Wire Line
	10500 4400 10100 4400
Connection ~ 10100 4400
Wire Wire Line
	10100 4400 10100 4500
Wire Wire Line
	10500 4500 10100 4500
Wire Wire Line
	10800 3500 10900 3500
$Comp
L Device:C C1
U 1 1 5BFD0BDA
P 1000 2750
F 0 "C1" V 748 2750 50  0000 C CNN
F 1 "C 20pF" V 839 2750 50  0000 C CNN
F 2 "Capacitors_SMD:C_1206_HandSoldering" H 1038 2600 50  0001 C CNN
F 3 "~" H 1000 2750 50  0001 C CNN
	1    1000 2750
	0    1    1    0   
$EndComp
Wire Wire Line
	1150 2750 1850 2750
$Comp
L Device:C C2
U 1 1 5BFE54B6
P 1000 3450
F 0 "C2" V 748 3450 50  0000 C CNN
F 1 "C 20pF" V 839 3450 50  0000 C CNN
F 2 "Capacitors_SMD:C_1206_HandSoldering" H 1038 3300 50  0001 C CNN
F 3 "~" H 1000 3450 50  0001 C CNN
	1    1000 3450
	0    1    1    0   
$EndComp
Wire Wire Line
	1150 3450 1850 3450
$Comp
L Device:C C3
U 1 1 5BFECAF1
P 1000 3900
F 0 "C3" V 748 3900 50  0000 C CNN
F 1 "C 20pF" V 839 3900 50  0000 C CNN
F 2 "Capacitors_SMD:C_1206_HandSoldering" H 1038 3750 50  0001 C CNN
F 3 "~" H 1000 3900 50  0001 C CNN
	1    1000 3900
	0    1    1    0   
$EndComp
$Comp
L Device:C C4
U 1 1 5BFECB5F
P 1000 4600
F 0 "C4" V 748 4600 50  0000 C CNN
F 1 "C 20pF" V 839 4600 50  0000 C CNN
F 2 "Capacitors_SMD:C_1206_HandSoldering" H 1038 4450 50  0001 C CNN
F 3 "~" H 1000 4600 50  0001 C CNN
	1    1000 4600
	0    1    1    0   
$EndComp
Wire Wire Line
	1150 4600 1850 4600
Wire Wire Line
	1150 3900 1850 3900
$Comp
L Device:C C5
U 1 1 5BFFB09D
P 1300 1850
F 0 "C5" H 1415 1896 50  0000 L CNN
F 1 "C 1µF" H 1415 1805 50  0000 L CNN
F 2 "Capacitors_SMD:C_1206_HandSoldering" H 1338 1700 50  0001 C CNN
F 3 "~" H 1300 1850 50  0001 C CNN
	1    1300 1850
	1    0    0    -1  
$EndComp
Wire Wire Line
	1300 1450 1300 1700
$Comp
L Device:C C8
U 1 1 5C002AB5
P 4000 1650
F 0 "C8" H 4115 1696 50  0000 L CNN
F 1 "C 1µF" H 4115 1605 50  0000 L CNN
F 2 "Capacitors_SMD:C_1206_HandSoldering" H 4038 1500 50  0001 C CNN
F 3 "~" H 4000 1650 50  0001 C CNN
	1    4000 1650
	1    0    0    -1  
$EndComp
Wire Wire Line
	4000 1500 4000 1300
Connection ~ 4000 1300
$Comp
L Device:C C10
U 1 1 5C009C6D
P 5800 1750
F 0 "C10" H 5915 1796 50  0000 L CNN
F 1 "C 1µF" H 5915 1705 50  0000 L CNN
F 2 "Capacitors_SMD:C_1206_HandSoldering" H 5838 1600 50  0001 C CNN
F 3 "~" H 5800 1750 50  0001 C CNN
	1    5800 1750
	1    0    0    -1  
$EndComp
Wire Wire Line
	5800 1400 5800 1600
$Comp
L Device:C C11
U 1 1 5C010FB1
P 6250 1650
F 0 "C11" H 6365 1696 50  0000 L CNN
F 1 "C 22nF" H 6365 1605 50  0000 L CNN
F 2 "Capacitors_SMD:C_1206_HandSoldering" H 6288 1500 50  0001 C CNN
F 3 "~" H 6250 1650 50  0001 C CNN
	1    6250 1650
	1    0    0    -1  
$EndComp
Wire Wire Line
	6250 1300 6250 1500
$Comp
L Device:C C14
U 1 1 5C01902F
P 7250 1450
F 0 "C14" H 7365 1496 50  0000 L CNN
F 1 "C 100nF" H 7365 1405 50  0000 L CNN
F 2 "Capacitors_SMD:C_1206_HandSoldering" H 7288 1300 50  0001 C CNN
F 3 "~" H 7250 1450 50  0001 C CNN
	1    7250 1450
	1    0    0    -1  
$EndComp
Wire Wire Line
	7250 950  7250 1300
Wire Wire Line
	7250 1600 7250 2350
$Comp
L Device:C C15
U 1 1 5C027AB3
P 9700 1850
F 0 "C15" H 9500 1900 50  0000 L CNN
F 1 "C 5.6pF" H 9300 1800 50  0000 L CNN
F 2 "Capacitors_SMD:C_1206_HandSoldering" H 9738 1700 50  0001 C CNN
F 3 "~" H 9700 1850 50  0001 C CNN
	1    9700 1850
	1    0    0    -1  
$EndComp
$Comp
L Device:C C16
U 1 1 5C027B37
P 10050 1850
F 0 "C16" H 10165 1896 50  0000 L CNN
F 1 "C 5.6pF" H 10165 1805 50  0000 L CNN
F 2 "Capacitors_SMD:C_1206_HandSoldering" H 10088 1700 50  0001 C CNN
F 3 "~" H 10050 1850 50  0001 C CNN
	1    10050 1850
	1    0    0    -1  
$EndComp
Wire Wire Line
	9700 1450 9700 1700
Wire Wire Line
	10050 1350 10050 1700
Wire Wire Line
	3550 4650 3550 4750
Wire Wire Line
	4800 2600 5200 2600
$Comp
L Device:C C9
U 1 1 5C0378A2
P 5200 2950
F 0 "C9" H 5000 3050 50  0000 L CNN
F 1 "C 100nF" H 4800 2950 50  0000 L CNN
F 2 "Capacitors_SMD:C_1206_HandSoldering" H 5238 2800 50  0001 C CNN
F 3 "~" H 5200 2950 50  0001 C CNN
	1    5200 2950
	1    0    0    -1  
$EndComp
Wire Wire Line
	5200 2800 5200 2600
Connection ~ 5200 2600
Wire Wire Line
	5200 2600 5300 2600
$Comp
L Device:C C13
U 1 1 5C03EF3C
P 7050 3950
F 0 "C13" V 6800 3900 50  0000 L CNN
F 1 "C 100nF" V 6900 3800 50  0000 L CNN
F 2 "Capacitors_SMD:C_1206_HandSoldering" H 7088 3800 50  0001 C CNN
F 3 "~" H 7050 3950 50  0001 C CNN
	1    7050 3950
	0    1    1    0   
$EndComp
Wire Wire Line
	7200 3950 7400 3950
$Comp
L Device:C C12
U 1 1 5C046F38
P 6300 6000
F 0 "C12" H 6100 6100 50  0000 L CNN
F 1 "C 100nF" H 5900 6000 50  0000 L CNN
F 2 "Capacitors_SMD:C_1206_HandSoldering" H 6338 5850 50  0001 C CNN
F 3 "~" H 6300 6000 50  0001 C CNN
	1    6300 6000
	-1   0    0    1   
$EndComp
Connection ~ 6300 5850
Wire Wire Line
	6300 6150 6300 6350
Connection ~ 6300 6350
$Comp
L Device:C C7
U 1 1 5C04E818
P 3750 4750
F 0 "C7" V 3900 4700 50  0000 L CNN
F 1 "C 100nF" V 4000 4650 50  0000 L CNN
F 2 "Capacitors_SMD:C_1206_HandSoldering" H 3788 4600 50  0001 C CNN
F 3 "~" H 3750 4750 50  0001 C CNN
	1    3750 4750
	0    1    1    0   
$EndComp
Wire Wire Line
	3550 4750 3600 4750
Connection ~ 3550 4750
Wire Wire Line
	3550 4750 3550 4800
Wire Wire Line
	3900 4750 4100 4750
$Comp
L Device:C C6
U 1 1 5C067520
P 2800 6850
F 0 "C6" H 2915 6896 50  0000 L CNN
F 1 "C 1µF" H 2915 6805 50  0000 L CNN
F 2 "Capacitors_SMD:C_1206_HandSoldering" H 2838 6700 50  0001 C CNN
F 3 "~" H 2800 6850 50  0001 C CNN
	1    2800 6850
	1    0    0    -1  
$EndComp
Wire Wire Line
	2800 7000 2800 7300
$Comp
L Device:R R3
U 1 1 5C078C5B
P 2450 4250
F 0 "R3" H 2520 4296 50  0000 L CNN
F 1 "R 1MOhm" H 2520 4205 50  0000 L CNN
F 2 "Resistors_SMD:R_1206_HandSoldering" V 2380 4250 50  0001 C CNN
F 3 "~" H 2450 4250 50  0001 C CNN
	1    2450 4250
	1    0    0    -1  
$EndComp
Wire Wire Line
	1850 3900 2450 3900
Wire Wire Line
	1850 4600 2450 4600
Wire Wire Line
	2450 4100 2450 3900
Connection ~ 2450 3900
Wire Wire Line
	2450 3900 2700 3900
Wire Wire Line
	2450 4400 2450 4600
Connection ~ 2450 4600
Wire Wire Line
	2450 4600 2700 4600
$Comp
L Device:R R4
U 1 1 5C09142A
P 2800 6000
F 0 "R4" H 2870 6046 50  0000 L CNN
F 1 "R 10kOhm" H 2870 5955 50  0000 L CNN
F 2 "Resistors_SMD:R_1206_HandSoldering" V 2730 6000 50  0001 C CNN
F 3 "~" H 2800 6000 50  0001 C CNN
	1    2800 6000
	1    0    0    -1  
$EndComp
Wire Wire Line
	2800 6150 2800 6600
$Comp
L Device:R R1
U 1 1 5C0999CC
P 950 6750
F 0 "R1" H 1020 6796 50  0000 L CNN
F 1 "R 68Ohm" H 1020 6705 50  0000 L CNN
F 2 "Resistors_SMD:R_1206_HandSoldering" V 880 6750 50  0001 C CNN
F 3 "~" H 950 6750 50  0001 C CNN
	1    950  6750
	1    0    0    -1  
$EndComp
$Comp
L Device:R R2
U 1 1 5C0A1E16
P 1600 6750
F 0 "R2" H 1670 6796 50  0000 L CNN
F 1 "R 68Ohm" H 1670 6705 50  0000 L CNN
F 2 "Resistors_SMD:R_1206_HandSoldering" V 1530 6750 50  0001 C CNN
F 3 "~" H 1600 6750 50  0001 C CNN
	1    1600 6750
	1    0    0    -1  
$EndComp
Wire Wire Line
	950  6900 950  7400
Wire Wire Line
	1600 6900 1600 7400
$Comp
L Device:R R6
U 1 1 5C0B2788
P 6050 7000
F 0 "R6" V 5843 7000 50  0000 C CNN
F 1 "R 510Ohm" V 5934 7000 50  0000 C CNN
F 2 "Resistors_SMD:R_1206_HandSoldering" V 5980 7000 50  0001 C CNN
F 3 "~" H 6050 7000 50  0001 C CNN
	1    6050 7000
	0    1    1    0   
$EndComp
$Comp
L Device:R R5
U 1 1 5C0B2826
P 5250 7000
F 0 "R5" V 5043 7000 50  0000 C CNN
F 1 "R 4,7kOhm" V 5134 7000 50  0000 C CNN
F 2 "Resistors_SMD:R_1206_HandSoldering" V 5180 7000 50  0001 C CNN
F 3 "~" H 5250 7000 50  0001 C CNN
	1    5250 7000
	0    1    1    0   
$EndComp
Wire Wire Line
	5650 7000 5900 7000
$Comp
L Device:R R7
U 1 1 5C0D607F
P 7700 2000
F 0 "R7" V 7493 2000 50  0000 C CNN
F 1 "R 120Ohm" V 7584 2000 50  0000 C CNN
F 2 "Resistors_SMD:R_1206_HandSoldering" V 7630 2000 50  0001 C CNN
F 3 "~" H 7700 2000 50  0001 C CNN
	1    7700 2000
	-1   0    0    1   
$EndComp
Wire Wire Line
	7700 1600 7700 1850
Wire Wire Line
	7700 2150 7700 2350
$Comp
L power:+5V #PWR0102
U 1 1 5C12B49F
P 10100 3700
F 0 "#PWR0102" H 10100 3550 50  0001 C CNN
F 1 "+5V" H 10115 3873 50  0000 C CNN
F 2 "" H 10100 3700 50  0001 C CNN
F 3 "" H 10100 3700 50  0001 C CNN
	1    10100 3700
	1    0    0    -1  
$EndComp
Wire Wire Line
	10100 3700 10500 3700
Wire Wire Line
	9700 5100 10500 5100
Wire Wire Line
	9350 5100 9400 5100
Wire Wire Line
	9400 5150 9400 5100
$Comp
L power:GND #PWR0107
U 1 1 5C1A2786
P 9400 5450
F 0 "#PWR0107" H 9400 5200 50  0001 C CNN
F 1 "GND" H 9400 5300 50  0000 C CNN
F 2 "" H 9400 5450 50  0001 C CNN
F 3 "" H 9400 5450 50  0001 C CNN
	1    9400 5450
	1    0    0    -1  
$EndComp
Wire Wire Line
	1850 2050 1850 1550
Wire Wire Line
	1300 2050 1850 2050
$Comp
L power:+5V #PWR0108
U 1 1 5BF690C7
P 3300 1300
F 0 "#PWR0108" H 3300 1150 50  0001 C CNN
F 1 "+5V" H 3300 1440 50  0000 C CNN
F 2 "" H 3300 1300 50  0001 C CNN
F 3 "" H 3300 1300 50  0001 C CNN
	1    3300 1300
	1    0    0    -1  
$EndComp
Wire Wire Line
	3300 1450 3300 1300
Text GLabel 1200 700  0    51   Input ~ 0
24V_before_Fuse
Wire Wire Line
	1300 650  1300 700 
Wire Wire Line
	1200 700  1300 700 
Connection ~ 1300 700 
Text GLabel 2100 5900 1    51   Input ~ 0
24V_before_Fuse
$Comp
L Micro18_V3-rescue:SML-D13DWT86A LED3
U 1 1 5BFA242C
P 2100 6600
F 0 "LED3" H 2350 6400 50  0000 L BNN
F 1 "SML-D13DWT86A" H 2100 6850 50  0000 L BNN
F 2 "SML-D13DWT86A:LEDC1608X65N" H 2600 6750 50  0001 L BNN
F 3 "https://docs-emea.rs-online.com/webdocs/156b/0900766b8156b2c9.pdf" H 2600 6650 50  0001 L BNN
F 4 "ROHM SML-D13DWT86A, SML 608 nm Orange LED, 1608 (0603) Milky White SMD package" H 2600 6550 50  0001 L BNN "Description"
F 5 "0.65" H 2600 6450 50  0001 L BNN "Height"
F 6 "ROHM Semiconductor" H 2600 6350 50  0001 L BNN "Manufacturer_Name"
F 7 "SML-D13DWT86A" H 2600 6250 50  0001 L BNN "Manufacturer_Part_Number"
F 8 "1332873P" H 2600 6150 50  0001 L BNN "RS Part Number"
F 9 "http://uk.rs-online.com/web/p/products/1332873P" H 2600 6050 50  0001 L BNN "RS Price/Stock"
F 10 "SML-D13DWT86A" H 2600 5950 50  0001 L BNN "Arrow Part Number"
F 11 "http://uk.rs-online.com/web/p/products/1332873P" H 2600 5850 50  0001 L BNN "Arrow Price/Stock"
	1    2100 6600
	0    -1   -1   0   
$EndComp
Wire Wire Line
	2100 5900 2100 6000
$Comp
L Device:R R14
U 1 1 5BFABD34
P 2100 6800
F 0 "R14" H 2170 6846 50  0000 L CNN
F 1 "R 1 kOhm" H 2170 6755 50  0000 L CNN
F 2 "Resistors_SMD:R_1206_HandSoldering" V 2030 6800 50  0001 C CNN
F 3 "~" H 2100 6800 50  0001 C CNN
	1    2100 6800
	1    0    0    -1  
$EndComp
Wire Wire Line
	2100 6600 2100 6650
$Comp
L power:GND #PWR0117
U 1 1 5BFB5808
P 2100 7400
F 0 "#PWR0117" H 2100 7150 50  0001 C CNN
F 1 "GND" H 2100 7250 50  0000 C CNN
F 2 "" H 2100 7400 50  0001 C CNN
F 3 "" H 2100 7400 50  0001 C CNN
	1    2100 7400
	1    0    0    -1  
$EndComp
Wire Wire Line
	2100 6950 2100 7400
$Comp
L cure_logo:LOGO #G1
U 1 1 5BFCA155
P 4050 3450
F 0 "#G1" H 4050 3126 60  0001 C CNN
F 1 "LOGO" H 4050 3774 60  0001 C CNN
F 2 "" H 4050 3450 50  0001 C CNN
F 3 "" H 4050 3450 50  0001 C CNN
	1    4050 3450
	1    0    0    -1  
$EndComp
$Comp
L Device:R R10
U 1 1 5BF55B13
P 9550 5100
F 0 "R10" V 9343 5100 50  0000 C CNN
F 1 "R 4,7kOhm" V 9434 5100 50  0000 C CNN
F 2 "Resistors_SMD:R_1206_HandSoldering" V 9480 5100 50  0001 C CNN
F 3 "~" H 9550 5100 50  0001 C CNN
	1    9550 5100
	0    1    1    0   
$EndComp
$Comp
L Device:R R8
U 1 1 5BF55BC7
P 9400 5300
F 0 "R8" H 9250 5300 50  0000 C CNN
F 1 "R 510Ohm" H 9150 5400 50  0000 C CNN
F 2 "Resistors_SMD:R_1206_HandSoldering" V 9330 5300 50  0001 C CNN
F 3 "~" H 9400 5300 50  0001 C CNN
	1    9400 5300
	-1   0    0    1   
$EndComp
Connection ~ 9400 5100
$Comp
L Cure_Symbol:R-78E5.0-0.5 U2
U 1 1 5BF7BACA
P 1850 1450
F 0 "U2" H 2450 1715 50  0000 C CNN
F 1 "R-78E5.0-0.5" H 2450 1624 50  0000 C CNN
F 2 "R-78E5.0-0.5:SHDRV3W100P0_254_1X3_1160X850X1040P" H 2900 1550 50  0001 L CNN
F 3 "http://docs-emea.rs-online.com/webdocs/10a2/0900766b810a2db7.pdf" H 2900 1450 50  0001 L CNN
F 4 "Switching Regulator,7-28Vin,5Vout 0.5A Switching Regulator, 7" H 2900 1350 50  0001 L CNN "Description"
F 5 "10.4" H 2900 1250 50  0001 L CNN "Height"
F 6 "RECOM Power" H 2900 1150 50  0001 L CNN "Manufacturer_Name"
F 7 "R-78E5.0-0.5" H 2900 1050 50  0001 L CNN "Manufacturer_Part_Number"
F 8 "1666675" H 2900 950 50  0001 L CNN "RS Part Number"
F 9 "http://uk.rs-online.com/web/p/products/1666675" H 2900 850 50  0001 L CNN "RS Price/Stock"
F 10 "R-78E5.0-0.5" H 2900 750 50  0001 L CNN "Arrow Part Number"
F 11 "https://www.arrow.com/en/products/r-78e5.0-0.5/recom-power" H 2900 650 50  0001 L CNN "Arrow Price/Stock"
	1    1850 1450
	1    0    0    -1  
$EndComp
Wire Wire Line
	3300 1450 3050 1450
$Comp
L Cure_Symbol:61900211121 J4
U 1 1 5BFA0C43
P 10250 1250
F 0 "J4" V 10590 1022 50  0000 R CNN
F 1 "61900211121" V 10499 1022 50  0000 R CNN
F 2 "61900211121:SHDR2W80P0X254_1X2_512X580X1175P" H 10900 1350 50  0001 L CNN
F 3 "http://katalog.we-online.de/em/datasheet/6190xx11121.pdf" H 10900 1250 50  0001 L CNN
F 4 "WR-WTB 2,54mm Vertical Locking Header 2p Wurth Elektronik WR-WTB Series, Series Number 6190, 2.54mm Pitch 2 Way 1 Row Straight PCB Header, Through Hole" H 10900 1150 50  0001 L CNN "Description"
F 5 "11.75" H 10900 1050 50  0001 L CNN "Height"
F 6 "Wurth Elektronik" H 10900 950 50  0001 L CNN "Manufacturer_Name"
F 7 "61900211121" H 10900 850 50  0001 L CNN "Manufacturer_Part_Number"
F 8 "1635323" H 10900 750 50  0001 L CNN "RS Part Number"
F 9 "http://uk.rs-online.com/web/p/products/1635323" H 10900 650 50  0001 L CNN "RS Price/Stock"
F 10 "61900211121" H 10900 550 50  0001 L CNN "Arrow Part Number"
F 11 "http://uk.rs-online.com/web/p/products/1635323" H 10900 450 50  0001 L CNN "Arrow Price/Stock"
	1    10250 1250
	0    -1   -1   0   
$EndComp
Wire Wire Line
	10250 1250 10250 1350
Connection ~ 10250 1350
Wire Wire Line
	10250 1350 10550 1350
Wire Wire Line
	10350 1250 10350 1450
Connection ~ 10350 1450
Wire Wire Line
	10350 1450 10550 1450
$Comp
L Cure_Symbol:1-406541-1 J1
U 1 1 5C273212
P 8100 3450
F 0 "J1" H 8500 3715 50  0000 C CNN
F 1 "1-406541-1" H 8500 3624 50  0000 C CNN
F 2 "1-406541-1_1" H 8750 3550 50  0001 L CNN
F 3 "http://uk.rs-online.com/web/p/products/7820823" H 8750 3450 50  0001 L CNN
F 4 "ModJack,RightAngle,8Position,Cat5 TE Connectivity Female Cat5 RJ45 Connector, Right Angle, Through Hole Mount," H 8750 3350 50  0001 L CNN "Description"
F 5 "" H 8750 3250 50  0001 L CNN "Height"
F 6 "TE Connectivity" H 8750 3150 50  0001 L CNN "Manufacturer_Name"
F 7 "1-406541-1" H 8750 3050 50  0001 L CNN "Manufacturer_Part_Number"
F 8 "2508293174" H 8750 2950 50  0001 L CNN "RS Part Number"
F 9 "http://uk.rs-online.com/web/p/products/2508293174" H 8750 2850 50  0001 L CNN "RS Price/Stock"
F 10 "70042871" H 8750 2750 50  0001 L CNN "Allied_Number"
F 11 "http://www.alliedelec.com/te-connectivity-1-406541-1/70042871/" H 8750 2650 50  0001 L CNN "Allied Price/Stock"
F 12 "571-1-406541-1" H 8750 2550 50  0001 L CNN "Mouser Part Number"
F 13 "https://www.mouser.com/Search/Refine.aspx?Keyword=571-1-406541-1" H 8750 2450 50  0001 L CNN "Mouser Price/Stock"
	1    8100 3450
	1    0    0    -1  
$EndComp
Text GLabel 8100 3450 0    51   Input ~ 0
CANH
Text GLabel 8900 3450 2    51   Input ~ 0
CANL
$Comp
L power:GND #PWR0101
U 1 1 5C28AFDD
P 7900 3550
F 0 "#PWR0101" H 7900 3300 50  0001 C CNN
F 1 "GND" H 7900 3400 50  0000 C CNN
F 2 "" H 7900 3550 50  0001 C CNN
F 3 "" H 7900 3550 50  0001 C CNN
	1    7900 3550
	0    1    1    0   
$EndComp
Text GLabel 8900 3550 2    51   Input ~ 0
SWCLK
Text GLabel 8100 3650 0    51   Input ~ 0
SWDIO
$Comp
L power:GND #PWR0103
U 1 1 5C29304F
P 9150 3650
F 0 "#PWR0103" H 9150 3400 50  0001 C CNN
F 1 "GND" H 9150 3500 50  0000 C CNN
F 2 "" H 9150 3650 50  0001 C CNN
F 3 "" H 9150 3650 50  0001 C CNN
	1    9150 3650
	0    -1   -1   0   
$EndComp
Wire Wire Line
	9150 3650 8900 3650
$Comp
L power:+24V #PWR0104
U 1 1 5C29B028
P 7900 3750
F 0 "#PWR0104" H 7900 3600 50  0001 C CNN
F 1 "+24V" H 7900 3890 50  0000 C CNN
F 2 "" H 7900 3750 50  0001 C CNN
F 3 "" H 7900 3750 50  0001 C CNN
	1    7900 3750
	0    -1   -1   0   
$EndComp
Wire Wire Line
	7900 3550 8100 3550
Wire Wire Line
	8100 3750 7900 3750
$Comp
L power:+24V #PWR0105
U 1 1 5C2AB265
P 9000 3750
F 0 "#PWR0105" H 9000 3600 50  0001 C CNN
F 1 "+24V" H 9000 3890 50  0000 C CNN
F 2 "" H 9000 3750 50  0001 C CNN
F 3 "" H 9000 3750 50  0001 C CNN
	1    9000 3750
	0    1    1    0   
$EndComp
Wire Wire Line
	9000 3750 8900 3750
$Comp
L Cure_Symbol:1-406541-1 J2
U 1 1 5C2C1603
P 8150 5850
F 0 "J2" H 8550 6115 50  0000 C CNN
F 1 "1-406541-1" H 8550 6024 50  0000 C CNN
F 2 "1-406541-1_1" H 8800 5950 50  0001 L CNN
F 3 "http://uk.rs-online.com/web/p/products/7820823" H 8800 5850 50  0001 L CNN
F 4 "ModJack,RightAngle,8Position,Cat5 TE Connectivity Female Cat5 RJ45 Connector, Right Angle, Through Hole Mount," H 8800 5750 50  0001 L CNN "Description"
F 5 "" H 8800 5650 50  0001 L CNN "Height"
F 6 "TE Connectivity" H 8800 5550 50  0001 L CNN "Manufacturer_Name"
F 7 "1-406541-1" H 8800 5450 50  0001 L CNN "Manufacturer_Part_Number"
F 8 "2508293174" H 8800 5350 50  0001 L CNN "RS Part Number"
F 9 "http://uk.rs-online.com/web/p/products/2508293174" H 8800 5250 50  0001 L CNN "RS Price/Stock"
F 10 "70042871" H 8800 5150 50  0001 L CNN "Allied_Number"
F 11 "http://www.alliedelec.com/te-connectivity-1-406541-1/70042871/" H 8800 5050 50  0001 L CNN "Allied Price/Stock"
F 12 "571-1-406541-1" H 8800 4950 50  0001 L CNN "Mouser Part Number"
F 13 "https://www.mouser.com/Search/Refine.aspx?Keyword=571-1-406541-1" H 8800 4850 50  0001 L CNN "Mouser Price/Stock"
	1    8150 5850
	1    0    0    -1  
$EndComp
Text GLabel 8150 5850 0    51   Input ~ 0
CANH
Text GLabel 8950 5850 2    51   Input ~ 0
CANL
$Comp
L power:GND #PWR0109
U 1 1 5C2C160C
P 7950 5950
F 0 "#PWR0109" H 7950 5700 50  0001 C CNN
F 1 "GND" H 7950 5800 50  0000 C CNN
F 2 "" H 7950 5950 50  0001 C CNN
F 3 "" H 7950 5950 50  0001 C CNN
	1    7950 5950
	0    1    1    0   
$EndComp
Text GLabel 8950 5950 2    51   Input ~ 0
SWCLK
Text GLabel 8150 6050 0    51   Input ~ 0
SWDIO
$Comp
L power:GND #PWR0110
U 1 1 5C2C1614
P 9200 6050
F 0 "#PWR0110" H 9200 5800 50  0001 C CNN
F 1 "GND" H 9200 5900 50  0000 C CNN
F 2 "" H 9200 6050 50  0001 C CNN
F 3 "" H 9200 6050 50  0001 C CNN
	1    9200 6050
	0    -1   -1   0   
$EndComp
Wire Wire Line
	9200 6050 8950 6050
$Comp
L power:+24V #PWR0111
U 1 1 5C2C161B
P 7950 6150
F 0 "#PWR0111" H 7950 6000 50  0001 C CNN
F 1 "+24V" H 7950 6290 50  0000 C CNN
F 2 "" H 7950 6150 50  0001 C CNN
F 3 "" H 7950 6150 50  0001 C CNN
	1    7950 6150
	0    -1   -1   0   
$EndComp
Wire Wire Line
	7950 5950 8150 5950
Wire Wire Line
	8150 6150 7950 6150
$Comp
L power:+24V #PWR0112
U 1 1 5C2C1623
P 9050 6150
F 0 "#PWR0112" H 9050 6000 50  0001 C CNN
F 1 "+24V" H 9050 6290 50  0000 C CNN
F 2 "" H 9050 6150 50  0001 C CNN
F 3 "" H 9050 6150 50  0001 C CNN
	1    9050 6150
	0    1    1    0   
$EndComp
Wire Wire Line
	9050 6150 8950 6150
$EndSCHEMATC
