%TF.GenerationSoftware,KiCad,Pcbnew,(5.0.0)*%
%TF.CreationDate,2018-11-26T23:41:00+01:00*%
%TF.ProjectId,Micro18_V3.2,4D6963726F31385F56332E322E6B6963,V3*%
%TF.SameCoordinates,Original*%
%TF.FileFunction,Paste,Top*%
%TF.FilePolarity,Positive*%
%FSLAX46Y46*%
G04 Gerber Fmt 4.6, Leading zero omitted, Abs format (unit mm)*
G04 Created by KiCad (PCBNEW (5.0.0)) date 11/26/18 23:41:00*
%MOMM*%
%LPD*%
G01*
G04 APERTURE LIST*
%ADD10C,0.150000*%
%ADD11R,2.150000X2.250000*%
%ADD12R,1.600000X2.000000*%
%ADD13R,2.000000X1.600000*%
%ADD14R,0.300000X1.475000*%
%ADD15R,1.475000X0.300000*%
%ADD16R,0.650000X1.250000*%
%ADD17R,1.350000X0.900000*%
%ADD18R,0.800000X0.800000*%
%ADD19R,0.850000X0.950000*%
%ADD20R,2.000000X1.700000*%
%ADD21R,1.700000X2.000000*%
%ADD22R,1.400000X1.600000*%
%ADD23R,1.500000X0.650000*%
%ADD24R,1.000000X1.800000*%
%ADD25R,1.900000X2.600000*%
%ADD26R,0.950000X0.850000*%
G04 APERTURE END LIST*
D10*
X170180000Y-53594000D02*
X170180000Y-123444000D01*
X105156000Y-53594000D02*
X170180000Y-53594000D01*
X105156000Y-123444000D02*
X105156000Y-53594000D01*
X170180000Y-123444000D02*
X105156000Y-123444000D01*
D11*
X119126000Y-94066000D03*
X119126000Y-98466000D03*
D12*
X115824000Y-107918000D03*
X115824000Y-103918000D03*
X118872000Y-103664000D03*
X118872000Y-107664000D03*
X134620000Y-109252000D03*
X134620000Y-113252000D03*
X137414000Y-113335001D03*
X137414000Y-109335001D03*
X139954000Y-112046000D03*
X139954000Y-116046000D03*
X144018000Y-116046000D03*
X144018000Y-112046000D03*
X115316000Y-94266000D03*
X115316000Y-98266000D03*
X150114000Y-109506000D03*
X150114000Y-113506000D03*
D13*
X144812000Y-101854000D03*
X148812000Y-101854000D03*
D12*
X128016000Y-102584000D03*
X128016000Y-98584000D03*
X135890000Y-101060000D03*
X135890000Y-97060000D03*
X149606000Y-89122000D03*
X149606000Y-85122000D03*
D13*
X141160000Y-85090000D03*
X137160000Y-85090000D03*
X127794000Y-75946000D03*
X131794000Y-75946000D03*
X153702000Y-75438000D03*
X157702000Y-75438000D03*
X157702000Y-77978000D03*
X153702000Y-77978000D03*
D14*
X140252000Y-97964000D03*
X140752000Y-97964000D03*
X141252000Y-97964000D03*
X141752000Y-97964000D03*
X142252000Y-97964000D03*
X142752000Y-97964000D03*
X143252000Y-97964000D03*
X143752000Y-97964000D03*
X144252000Y-97964000D03*
X144752000Y-97964000D03*
X145252000Y-97964000D03*
X145752000Y-97964000D03*
D15*
X147240000Y-96476000D03*
X147240000Y-95976000D03*
X147240000Y-95476000D03*
X147240000Y-94976000D03*
X147240000Y-94476000D03*
X147240000Y-93976000D03*
X147240000Y-93476000D03*
X147240000Y-92976000D03*
X147240000Y-92476000D03*
X147240000Y-91976000D03*
X147240000Y-91476000D03*
X147240000Y-90976000D03*
D14*
X145752000Y-89488000D03*
X145252000Y-89488000D03*
X144752000Y-89488000D03*
X144252000Y-89488000D03*
X143752000Y-89488000D03*
X143252000Y-89488000D03*
X142752000Y-89488000D03*
X142252000Y-89488000D03*
X141752000Y-89488000D03*
X141252000Y-89488000D03*
X140752000Y-89488000D03*
X140252000Y-89488000D03*
D15*
X138764000Y-90976000D03*
X138764000Y-91476000D03*
X138764000Y-91976000D03*
X138764000Y-92476000D03*
X138764000Y-92976000D03*
X138764000Y-93476000D03*
X138764000Y-93976000D03*
X138764000Y-94476000D03*
X138764000Y-94976000D03*
X138764000Y-95476000D03*
X138764000Y-95976000D03*
X138764000Y-96476000D03*
D16*
X125146000Y-98064000D03*
X124206000Y-98064000D03*
X123266000Y-98064000D03*
X123266000Y-100564000D03*
X125146000Y-100564000D03*
D17*
X145045000Y-75692000D03*
X145045000Y-78232000D03*
X149595000Y-78232000D03*
X149595000Y-75692000D03*
D18*
X123381000Y-104394000D03*
X125031000Y-104394000D03*
D19*
X128232000Y-114554000D03*
X129832000Y-114554000D03*
D20*
X123222000Y-107950000D03*
X127222000Y-107950000D03*
X121444000Y-114554000D03*
X125444000Y-114554000D03*
X143986000Y-109220000D03*
X139986000Y-109220000D03*
X150146000Y-105918000D03*
X154146000Y-105918000D03*
D21*
X128016000Y-95218000D03*
X128016000Y-91218000D03*
D20*
X140938000Y-75184000D03*
X136938000Y-75184000D03*
D21*
X133604000Y-61436000D03*
X133604000Y-57436000D03*
X159512000Y-61246000D03*
X159512000Y-65246000D03*
D22*
X152678000Y-109176000D03*
X152678000Y-116376000D03*
X155678000Y-109176000D03*
X155678000Y-116376000D03*
D23*
X135984000Y-77851000D03*
X135984000Y-79121000D03*
X135984000Y-80391000D03*
X135984000Y-81661000D03*
X141384000Y-81661000D03*
X141384000Y-80391000D03*
X141384000Y-79121000D03*
X141384000Y-77851000D03*
D24*
X134894000Y-106172000D03*
X137394000Y-106172000D03*
D25*
X139836000Y-105918000D03*
X144136000Y-105918000D03*
D26*
X111252000Y-78016000D03*
X111252000Y-76416000D03*
D21*
X114046000Y-75470000D03*
X114046000Y-79470000D03*
D20*
X157448000Y-94996000D03*
X153448000Y-94996000D03*
X154464000Y-92202000D03*
X158464000Y-92202000D03*
X121190000Y-91186000D03*
X125190000Y-91186000D03*
M02*
