EESchema Schematic File Version 2
LIBS:power
LIBS:device
LIBS:switches
LIBS:relays
LIBS:motors
LIBS:transistors
LIBS:conn
LIBS:linear
LIBS:regul
LIBS:74xx
LIBS:cmos4000
LIBS:adc-dac
LIBS:memory
LIBS:xilinx
LIBS:microcontrollers
LIBS:dsp
LIBS:microchip
LIBS:analog_switches
LIBS:motorola
LIBS:texas
LIBS:intel
LIBS:audio
LIBS:interface
LIBS:digital-audio
LIBS:philips
LIBS:display
LIBS:cypress
LIBS:siliconi
LIBS:opto
LIBS:atmel
LIBS:contrib
LIBS:valves
LIBS:1-179277-5
LIBS:1N4148WS-7-F
LIBS:1N5817
LIBS:74xgxx
LIBS:0805B105K160CT
LIBS:1591-7020
LIBS:3350-4275-126
LIBS:3350-4275-246
LIBS:06033C223KAT2A
LIBS:7090.9010.03
LIBS:68001-202HLF
LIBS:70553-0038
LIBS:150060RS75000
LIBS:744227
LIBS:ABLS-8.000MHZ-B4-T
LIBS:ABM7-8.000MHZ-D2Y-T
LIBS:ac-dc
LIBS:actel
LIBS:allegro
LIBS:Altera
LIBS:analog_devices
LIBS:battery_management
LIBS:bbd
LIBS:BC848B_235
LIBS:BLM18KG471SH1D
LIBS:bosch
LIBS:brooktre
LIBS:BSS83P_H6327
LIBS:C0402C103J5RACTU
LIBS:C0402C222K5RACTU
LIBS:C0402C223K4RACTU
LIBS:C0603C104K4RACTU
LIBS:C0603C200K4GAC7867
LIBS:C0805C106K8PACTU
LIBS:CBR06C101F5GAC
LIBS:CGA3E1X7R1C105K080AC
LIBS:CGA4J3X5R1A106K125AB
LIBS:cmos_ieee
LIBS:CRCW12061K00JNEAHP
LIBS:dc-dc
LIBS:diode
LIBS:EEEFK1V471SP
LIBS:elec-unifil
LIBS:ESD_Protection
LIBS:FC-135_32.7680KA-AC
LIBS:ftdi
LIBS:gennum
LIBS:graphic_symbols
LIBS:hc11
LIBS:HEF4027BT
LIBS:infineon
LIBS:intersil
LIBS:ir
LIBS:L78L05ACD13TR
LIBS:L78S05CV-DG
LIBS:L78S12CV
LIBS:Lattice
LIBS:leds
LIBS:LEM
LIBS:LM358AMX
LIBS:logic_programmable
LIBS:LTST-C191KGKT
LIBS:LTST-C191KRKT
LIBS:maxim
LIBS:MC-146_32.7680KA-A0_ROHS
LIBS:MCMR06X103_JTL
LIBS:MCP2551-I_SN
LIBS:MCSR04X1004FTL
LIBS:MCSR06X39R0FTL
LIBS:MCSR06X1003FTL
LIBS:mechanical
LIBS:MF50_100R
LIBS:microchip_dspic33dsc
LIBS:microchip_pic10mcu
LIBS:microchip_pic12mcu
LIBS:microchip_pic16mcu
LIBS:microchip_pic18mcu
LIBS:microchip_pic24mcu
LIBS:microchip_pic32mcu
LIBS:modules
LIBS:motor_drivers
LIBS:MPU-6050
LIBS:msp430
LIBS:MX23A18NF1
LIBS:MX34032NF2
LIBS:MX44006NF1
LIBS:N2540-6002RB
LIBS:nordicsemi
LIBS:nxp
LIBS:nxp_armmcu
LIBS:onsemi
LIBS:Oscillators
LIBS:Power_Management
LIBS:powerint
LIBS:pspice
LIBS:RC0402FR-071ML
LIBS:RC0603FR-075K6L
LIBS:RC0603JR-071KL
LIBS:RC0603JR-134K7L
LIBS:RC0603JR-0710KL
LIBS:RC0603JR-0722RL
LIBS:RC0603JR-07510RL
LIBS:references
LIBS:rfcom
LIBS:RFSolutions
LIBS:RT9193-33GB
LIBS:sensors
LIBS:silabs
LIBS:SN74AHCT1G08DBVR
LIBS:SN74LVC2G32DCUR
LIBS:stm8
LIBS:stm32
LIBS:STM32F103C8T6
LIBS:STM32F103C8T6TR
LIBS:supertex
LIBS:SZNUP2105LT3G
LIBS:transf
LIBS:triac_thyristor
LIBS:ttl_ieee
LIBS:video
LIBS:wiznet
LIBS:Worldsemi
LIBS:Xicor
LIBS:zetex
LIBS:Zilog
LIBS:RC0603FR-071ML
LIBS:C0603C102K1GECTU
LIBS:C0603C105Z8VACTU
LIBS:C0603C223K5RACTU
LIBS:RC0603FR-07120RL
LIBS:SML-D13DWT86A
LIBS:SML-D13FWT86
LIBS:C0603C569D5GACTU
LIBS:PE-1812ACC110STS
LIBS:MX34003NF1
LIBS:MX34005NF1
LIBS:RC0603JR-0768RL
LIBS:R-78E5.0-0.5
LIBS:RC0603JR-071ML
LIBS:Micro18_V3-cache
EELAYER 25 0
EELAYER END
$Descr A4 11693 8268
encoding utf-8
Sheet 1 1
Title "Microcontroller"
Date "2018-08-08"
Rev "V3"
Comp "Cure Mannheim e.V."
Comment1 "Autor: Lukas Neumann"
Comment2 ""
Comment3 ""
Comment4 ""
$EndDescr
$Comp
L C0603C104K4RACTU C7
U 1 1 5B6B0EE4
P 6300 5850
F 0 "C7" H 6550 6000 50  0000 C CNN
F 1 "C0603C104K4RACTU" H 6550 5700 50  0000 C CNN
F 2 "CAPC1608X87N" H 6550 5600 50  0001 C CNN
F 3 "http://www.kemet.com/Lists/ProductCatalog/Attachments/53/KEM_C1002_X7R_SMD.pdf" H 6550 5500 50  0001 C CNN
F 4 "0603 X7R ceramic capacitor, 16V 100nF Kemet 0603 0.1??F Ceramic Multilayer Capacitor, 16V dc X7R Dielectric ??10% SMD" H 6550 5400 50  0001 C CNN "Description"
F 5 "RS" H 6550 5300 50  0001 C CNN "Supplier_Name"
F 6 "2644630" H 6550 5200 50  0001 C CNN "RS Part Number"
F 7 "Kemet" H 6550 5100 50  0001 C CNN "Manufacturer_Name"
F 8 "C0603C104K4RACTU" H 6550 5000 50  0001 C CNN "Manufacturer_Part_Number"
F 9 "" H 6550 4900 50  0001 C CNN "Allied_Number"
F 10 "" H 6550 4800 50  0001 C CNN "Other Part Number"
F 11 "0.87" H 6550 4700 50  0001 C CNN "Height"
	1    6300 5850
	0    1    1    0   
$EndComp
$Comp
L C0603C104K4RACTU C5
U 1 1 5B6B10AC
P 4050 4750
F 0 "C5" H 4300 4900 50  0000 C CNN
F 1 "C0603C104K4RACTU" H 4300 4600 50  0000 C CNN
F 2 "CAPC1608X87N" H 4300 4500 50  0001 C CNN
F 3 "http://www.kemet.com/Lists/ProductCatalog/Attachments/53/KEM_C1002_X7R_SMD.pdf" H 4300 4400 50  0001 C CNN
F 4 "0603 X7R ceramic capacitor, 16V 100nF Kemet 0603 0.1??F Ceramic Multilayer Capacitor, 16V dc X7R Dielectric ??10% SMD" H 4300 4300 50  0001 C CNN "Description"
F 5 "RS" H 4300 4200 50  0001 C CNN "Supplier_Name"
F 6 "2644630" H 4300 4100 50  0001 C CNN "RS Part Number"
F 7 "Kemet" H 4300 4000 50  0001 C CNN "Manufacturer_Name"
F 8 "C0603C104K4RACTU" H 4300 3900 50  0001 C CNN "Manufacturer_Part_Number"
F 9 "" H 4300 3800 50  0001 C CNN "Allied_Number"
F 10 "" H 4300 3700 50  0001 C CNN "Other Part Number"
F 11 "0.87" H 4300 3600 50  0001 C CNN "Height"
	1    4050 4750
	-1   0    0    1   
$EndComp
$Comp
L C0603C104K4RACTU C8
U 1 1 5B6B110E
P 7400 3950
F 0 "C8" H 7650 4100 50  0000 C CNN
F 1 "C0603C104K4RACTU" H 7650 3800 50  0000 C CNN
F 2 "CAPC1608X87N" H 7650 3700 50  0001 C CNN
F 3 "http://www.kemet.com/Lists/ProductCatalog/Attachments/53/KEM_C1002_X7R_SMD.pdf" H 7650 3600 50  0001 C CNN
F 4 "0603 X7R ceramic capacitor, 16V 100nF Kemet 0603 0.1??F Ceramic Multilayer Capacitor, 16V dc X7R Dielectric ??10% SMD" H 7650 3500 50  0001 C CNN "Description"
F 5 "RS" H 7650 3400 50  0001 C CNN "Supplier_Name"
F 6 "2644630" H 7650 3300 50  0001 C CNN "RS Part Number"
F 7 "Kemet" H 7650 3200 50  0001 C CNN "Manufacturer_Name"
F 8 "C0603C104K4RACTU" H 7650 3100 50  0001 C CNN "Manufacturer_Part_Number"
F 9 "" H 7650 3000 50  0001 C CNN "Allied_Number"
F 10 "" H 7650 2900 50  0001 C CNN "Other Part Number"
F 11 "0.87" H 7650 2800 50  0001 C CNN "Height"
	1    7400 3950
	-1   0    0    1   
$EndComp
$Comp
L C0603C104K4RACTU C6
U 1 1 5B6B114D
P 5200 3100
F 0 "C6" H 5450 3250 50  0000 C CNN
F 1 "C0603C104K4RACTU" H 5550 3350 50  0000 C CNN
F 2 "CAPC1608X87N" H 5450 2850 50  0001 C CNN
F 3 "http://www.kemet.com/Lists/ProductCatalog/Attachments/53/KEM_C1002_X7R_SMD.pdf" H 5450 2750 50  0001 C CNN
F 4 "0603 X7R ceramic capacitor, 16V 100nF Kemet 0603 0.1??F Ceramic Multilayer Capacitor, 16V dc X7R Dielectric ??10% SMD" H 5450 2650 50  0001 C CNN "Description"
F 5 "RS" H 5450 2550 50  0001 C CNN "Supplier_Name"
F 6 "2644630" H 5450 2450 50  0001 C CNN "RS Part Number"
F 7 "Kemet" H 5450 2350 50  0001 C CNN "Manufacturer_Name"
F 8 "C0603C104K4RACTU" H 5450 2250 50  0001 C CNN "Manufacturer_Part_Number"
F 9 "" H 5450 2150 50  0001 C CNN "Allied_Number"
F 10 "" H 5450 2050 50  0001 C CNN "Other Part Number"
F 11 "0.87" H 5450 1950 50  0001 C CNN "Height"
	1    5200 3100
	0    -1   -1   0   
$EndComp
$Comp
L GND #PWR13
U 1 1 5B6B1193
P 3550 4800
F 0 "#PWR13" H 3550 4550 50  0001 C CNN
F 1 "GND" H 3550 4650 50  0000 C CNN
F 2 "" H 3550 4800 50  0001 C CNN
F 3 "" H 3550 4800 50  0001 C CNN
	1    3550 4800
	1    0    0    -1  
$EndComp
$Comp
L GND #PWR19
U 1 1 5B6B11B4
P 6300 6450
F 0 "#PWR19" H 6300 6200 50  0001 C CNN
F 1 "GND" H 6300 6300 50  0000 C CNN
F 2 "" H 6300 6450 50  0001 C CNN
F 3 "" H 6300 6450 50  0001 C CNN
	1    6300 6450
	1    0    0    -1  
$EndComp
$Comp
L GND #PWR15
U 1 1 5B6B11E8
P 4800 2600
F 0 "#PWR15" H 4800 2350 50  0001 C CNN
F 1 "GND" H 4800 2450 50  0000 C CNN
F 2 "" H 4800 2600 50  0001 C CNN
F 3 "" H 4800 2600 50  0001 C CNN
	1    4800 2600
	1    0    0    -1  
$EndComp
$Comp
L +3.3V #PWR20
U 1 1 5B6B12BB
P 6700 3800
F 0 "#PWR20" H 6700 3650 50  0001 C CNN
F 1 "+3.3V" H 6700 3940 50  0000 C CNN
F 2 "" H 6700 3800 50  0001 C CNN
F 3 "" H 6700 3800 50  0001 C CNN
	1    6700 3800
	1    0    0    -1  
$EndComp
$Comp
L +3.3V #PWR16
U 1 1 5B6B12DC
P 4800 3200
F 0 "#PWR16" H 4800 3050 50  0001 C CNN
F 1 "+3.3V" H 4800 3340 50  0000 C CNN
F 2 "" H 4800 3200 50  0001 C CNN
F 3 "" H 4800 3200 50  0001 C CNN
	1    4800 3200
	1    0    0    -1  
$EndComp
$Comp
L +3.3V #PWR14
U 1 1 5B6B12F6
P 3950 4950
F 0 "#PWR14" H 3950 4800 50  0001 C CNN
F 1 "+3.3V" H 3950 5090 50  0000 C CNN
F 2 "" H 3950 4950 50  0001 C CNN
F 3 "" H 3950 4950 50  0001 C CNN
	1    3950 4950
	1    0    0    -1  
$EndComp
$Comp
L +3.3V #PWR21
U 1 1 5B6B1310
P 6700 5850
F 0 "#PWR21" H 6700 5700 50  0001 C CNN
F 1 "+3.3V" H 6700 5990 50  0000 C CNN
F 2 "" H 6700 5850 50  0001 C CNN
F 3 "" H 6700 5850 50  0001 C CNN
	1    6700 5850
	1    0    0    -1  
$EndComp
$Comp
L FC-135_32.7680KA-AC Y1
U 1 1 5B6B1512
P 1850 2750
F 0 "Y1" H 2200 2900 50  0000 C CNN
F 1 "FC-135_32.7680KA-AC" H 2200 2600 50  0000 C CNN
F 2 "FC-135_1" H 2200 2500 50  0001 C CNN
F 3 "http://www5.epsondevice.com/en/products/khz_range/fc135.html - .pdf" H 2200 2400 50  0001 C CNN
F 4 "Crystals 32.768KHz 9pF 20ppm" H 2200 2300 50  0001 C CNN "Description"
F 5 "RS" H 2200 2200 50  0001 C CNN "Supplier_Name"
F 6 "" H 2200 2100 50  0001 C CNN "RS Part Number"
F 7 "Epson Timing" H 2200 2000 50  0001 C CNN "Manufacturer_Name"
F 8 "FC-135 32.7680KA-AC" H 2200 1900 50  0001 C CNN "Manufacturer_Part_Number"
F 9 "" H 2200 1800 50  0001 C CNN "Allied_Number"
F 10 "" H 2200 1700 50  0001 C CNN "Other Part Number"
F 11 "" H 2400 1600 50  0001 C CNN "Height"
	1    1850 2750
	0    1    1    0   
$EndComp
$Comp
L C0603C200K4GAC7867 C1
U 1 1 5B6B15C3
P 850 2750
F 0 "C1" H 1100 2900 50  0000 C CNN
F 1 "C0603C200K4GAC7867" H 1100 2600 50  0000 C CNN
F 2 "CAPC1608X87N" H 1100 2500 50  0001 C CNN
F 3 "https://search.kemet.com/component-edge/download/datasheet/C0603C200K4GACTU.pdf" H 1100 2400 50  0001 C CNN
F 4 "20pF 10% 16V Ceramic Capacitor C0G, NP0 0603 (1608 Metric)" H 1100 2300 50  0001 C CNN "Description"
F 5 "RS" H 1100 2200 50  0001 C CNN "Supplier_Name"
F 6 "" H 1100 2100 50  0001 C CNN "RS Part Number"
F 7 "Kemet" H 1100 2000 50  0001 C CNN "Manufacturer_Name"
F 8 "C0603C200K4GAC7867" H 1100 1900 50  0001 C CNN "Manufacturer_Part_Number"
F 9 "" H 1100 1800 50  0001 C CNN "Allied_Number"
F 10 "" H 1100 1700 50  0001 C CNN "Other Part Number"
F 11 "0.87" H 1100 1600 50  0001 C CNN "Height"
	1    850  2750
	1    0    0    -1  
$EndComp
$Comp
L C0603C200K4GAC7867 C2
U 1 1 5B6B165A
P 850 3450
F 0 "C2" H 1100 3600 50  0000 C CNN
F 1 "C0603C200K4GAC7867" H 1100 3300 50  0000 C CNN
F 2 "CAPC1608X87N" H 1100 3200 50  0001 C CNN
F 3 "https://search.kemet.com/component-edge/download/datasheet/C0603C200K4GACTU.pdf" H 1100 3100 50  0001 C CNN
F 4 "20pF 10% 16V Ceramic Capacitor C0G, NP0 0603 (1608 Metric)" H 1100 3000 50  0001 C CNN "Description"
F 5 "RS" H 1100 2900 50  0001 C CNN "Supplier_Name"
F 6 "" H 1100 2800 50  0001 C CNN "RS Part Number"
F 7 "Kemet" H 1100 2700 50  0001 C CNN "Manufacturer_Name"
F 8 "C0603C200K4GAC7867" H 1100 2600 50  0001 C CNN "Manufacturer_Part_Number"
F 9 "" H 1100 2500 50  0001 C CNN "Allied_Number"
F 10 "" H 1100 2400 50  0001 C CNN "Other Part Number"
F 11 "0.87" H 1100 2300 50  0001 C CNN "Height"
	1    850  3450
	1    0    0    -1  
$EndComp
$Comp
L C0603C200K4GAC7867 C3
U 1 1 5B6B169F
P 850 3900
F 0 "C3" H 1100 4050 50  0000 C CNN
F 1 "C0603C200K4GAC7867" H 1100 3750 50  0000 C CNN
F 2 "CAPC1608X87N" H 1100 3650 50  0001 C CNN
F 3 "https://search.kemet.com/component-edge/download/datasheet/C0603C200K4GACTU.pdf" H 1100 3550 50  0001 C CNN
F 4 "20pF 10% 16V Ceramic Capacitor C0G, NP0 0603 (1608 Metric)" H 1100 3450 50  0001 C CNN "Description"
F 5 "RS" H 1100 3350 50  0001 C CNN "Supplier_Name"
F 6 "" H 1100 3250 50  0001 C CNN "RS Part Number"
F 7 "Kemet" H 1100 3150 50  0001 C CNN "Manufacturer_Name"
F 8 "C0603C200K4GAC7867" H 1100 3050 50  0001 C CNN "Manufacturer_Part_Number"
F 9 "" H 1100 2950 50  0001 C CNN "Allied_Number"
F 10 "" H 1100 2850 50  0001 C CNN "Other Part Number"
F 11 "0.87" H 1100 2750 50  0001 C CNN "Height"
	1    850  3900
	1    0    0    -1  
$EndComp
$Comp
L C0603C200K4GAC7867 C4
U 1 1 5B6B16E3
P 850 4600
F 0 "C4" H 1100 4750 50  0000 C CNN
F 1 "C0603C200K4GAC7867" H 1100 4450 50  0000 C CNN
F 2 "CAPC1608X87N" H 1100 4350 50  0001 C CNN
F 3 "https://search.kemet.com/component-edge/download/datasheet/C0603C200K4GACTU.pdf" H 1100 4250 50  0001 C CNN
F 4 "20pF 10% 16V Ceramic Capacitor C0G, NP0 0603 (1608 Metric)" H 1100 4150 50  0001 C CNN "Description"
F 5 "RS" H 1100 4050 50  0001 C CNN "Supplier_Name"
F 6 "" H 1100 3950 50  0001 C CNN "RS Part Number"
F 7 "Kemet" H 1100 3850 50  0001 C CNN "Manufacturer_Name"
F 8 "C0603C200K4GAC7867" H 1100 3750 50  0001 C CNN "Manufacturer_Part_Number"
F 9 "" H 1100 3650 50  0001 C CNN "Allied_Number"
F 10 "" H 1100 3550 50  0001 C CNN "Other Part Number"
F 11 "0.87" H 1100 3450 50  0001 C CNN "Height"
	1    850  4600
	1    0    0    -1  
$EndComp
Text GLabel 2700 2750 2    51   Input ~ 0
OSC32_IN
Text GLabel 4900 4150 0    51   Input ~ 0
OSC32_IN
Text GLabel 2700 3450 2    51   Input ~ 0
OSC32_OUT
Text GLabel 4900 4250 0    51   Input ~ 0
OSC32_OUT
$Comp
L GND #PWR2
U 1 1 5B6B1D43
P 700 4250
F 0 "#PWR2" H 700 4000 50  0001 C CNN
F 1 "GND" H 700 4100 50  0000 C CNN
F 2 "" H 700 4250 50  0001 C CNN
F 3 "" H 700 4250 50  0001 C CNN
	1    700  4250
	1    0    0    -1  
$EndComp
$Comp
L GND #PWR1
U 1 1 5B6B1D72
P 700 3050
F 0 "#PWR1" H 700 2800 50  0001 C CNN
F 1 "GND" H 700 2900 50  0000 C CNN
F 2 "" H 700 3050 50  0001 C CNN
F 3 "" H 700 3050 50  0001 C CNN
	1    700  3050
	1    0    0    -1  
$EndComp
Text GLabel 2700 4600 2    51   Input ~ 0
OSC8_OUT
Text GLabel 4900 4450 0    51   Input ~ 0
OSC8_OUT
Text GLabel 2700 3900 2    51   Input ~ 0
OSC8_IN
Text GLabel 4900 4350 0    51   Input ~ 0
OSC8_IN
$Comp
L RT9193-33GB IC2
U 1 1 5B6B2228
P 4100 1300
F 0 "IC2" H 4600 1450 50  0000 C CNN
F 1 "RT9193-33GB" H 4600 950 50  0000 C CNN
F 2 "SOT94P279X130-5N" H 4600 850 50  0001 C CNN
F 3 "http://www.richtek.com/assets/product_file/RT9193/DS9193-17.pdf" H 4600 750 50  0001 C CNN
F 4 "300mA, Ultra-Low Noise, Ultra-Fast CMOS LDO Regulator" H 4600 650 50  0001 C CNN "Description"
F 5 "RS" H 4600 550 50  0001 C CNN "Supplier_Name"
F 6 "" H 4600 450 50  0001 C CNN "RS Part Number"
F 7 "Richtek USA Inc." H 4600 350 50  0001 C CNN "Manufacturer_Name"
F 8 "RT9193-33GB" H 4600 250 50  0001 C CNN "Manufacturer_Part_Number"
F 9 "" H 4600 150 50  0001 C CNN "Allied_Number"
F 10 "" H 4600 50  50  0001 C CNN "Other Part Number"
F 11 "1.295" H 4950 -50 50  0001 C CNN "Height"
	1    4100 1300
	1    0    0    -1  
$EndComp
$Comp
L +5V #PWR11
U 1 1 5B6B2529
P 3500 1100
F 0 "#PWR11" H 3500 950 50  0001 C CNN
F 1 "+5V" H 3500 1240 50  0000 C CNN
F 2 "" H 3500 1100 50  0001 C CNN
F 3 "" H 3500 1100 50  0001 C CNN
	1    3500 1100
	1    0    0    -1  
$EndComp
$Comp
L GND #PWR12
U 1 1 5B6B261B
P 3500 1950
F 0 "#PWR12" H 3500 1700 50  0001 C CNN
F 1 "GND" H 3500 1800 50  0000 C CNN
F 2 "" H 3500 1950 50  0001 C CNN
F 3 "" H 3500 1950 50  0001 C CNN
	1    3500 1950
	1    0    0    -1  
$EndComp
$Comp
L C0603C105Z8VACTU C9
U 1 1 5B6B27D6
P 3500 1300
F 0 "C9" H 3700 1450 50  0000 L CNN
F 1 "C0603C105Z8VACTU" H 3450 1100 50  0000 L CNN
F 2 "CAPC1608X90N" H 3850 1350 50  0001 L CNN
F 3 "https://search.kemet.com/component-edge/download/specsheet/C0603C105Z8VACTU.pdf" H 3850 1250 50  0001 L CNN
F 4 "KEMET - C0603C105Z8VACTU - CAP, MLCC, Y5V, 1UF, 10V, 0603" H 3850 1150 50  0001 L CNN "Description"
F 5 "0.9" H 3850 1050 50  0001 L CNN "Height"
F 6 "Kemet" H 3850 950 50  0001 L CNN "Manufacturer_Name"
F 7 "C0603C105Z8VACTU" H 3850 850 50  0001 L CNN "Manufacturer_Part_Number"
F 8 "" H 3850 750 50  0001 L CNN "RS Part Number"
F 9 "" H 3850 650 50  0001 L CNN "RS Price/Stock"
F 10 "70096976" H 3850 550 50  0001 L CNN "Allied_Number"
F 11 "https://www.alliedelec.com/kemet-c0603c105z8vactu/70096976/" H 3850 450 50  0001 L CNN "Allied Price/Stock"
F 12 "C0603C105Z8VACTU" H 3850 350 50  0001 L CNN "Arrow Part Number"
F 13 "https://www.arrow.com/en/products/c0603c105z8vactu/kemet-corporation" H 3850 250 50  0001 L CNN "Arrow Price/Stock"
	1    3500 1300
	0    1    1    0   
$EndComp
$Comp
L C0603C105Z8VACTU C10
U 1 1 5B6B287D
P 5300 1400
F 0 "C10" H 5500 1550 50  0000 L CNN
F 1 "C0603C105Z8VACTU" H 5350 1250 50  0000 L CNN
F 2 "CAPC1608X90N" H 5650 1450 50  0001 L CNN
F 3 "https://search.kemet.com/component-edge/download/specsheet/C0603C105Z8VACTU.pdf" H 5650 1350 50  0001 L CNN
F 4 "KEMET - C0603C105Z8VACTU - CAP, MLCC, Y5V, 1UF, 10V, 0603" H 5650 1250 50  0001 L CNN "Description"
F 5 "0.9" H 5650 1150 50  0001 L CNN "Height"
F 6 "Kemet" H 5650 1050 50  0001 L CNN "Manufacturer_Name"
F 7 "C0603C105Z8VACTU" H 5650 950 50  0001 L CNN "Manufacturer_Part_Number"
F 8 "" H 5650 850 50  0001 L CNN "RS Part Number"
F 9 "" H 5650 750 50  0001 L CNN "RS Price/Stock"
F 10 "70096976" H 5650 650 50  0001 L CNN "Allied_Number"
F 11 "https://www.alliedelec.com/kemet-c0603c105z8vactu/70096976/" H 5650 550 50  0001 L CNN "Allied Price/Stock"
F 12 "C0603C105Z8VACTU" H 5650 450 50  0001 L CNN "Arrow Part Number"
F 13 "https://www.arrow.com/en/products/c0603c105z8vactu/kemet-corporation" H 5650 350 50  0001 L CNN "Arrow Price/Stock"
	1    5300 1400
	0    1    1    0   
$EndComp
$Comp
L GND #PWR18
U 1 1 5B6B29F4
P 5300 2050
F 0 "#PWR18" H 5300 1800 50  0001 C CNN
F 1 "GND" H 5300 1900 50  0000 C CNN
F 2 "" H 5300 2050 50  0001 C CNN
F 3 "" H 5300 2050 50  0001 C CNN
	1    5300 2050
	1    0    0    -1  
$EndComp
$Comp
L C0603C223K5RACTU C11
U 1 1 5B6B2A81
P 5750 1300
F 0 "C11" H 5950 1450 50  0000 L CNN
F 1 "C0603C223K5RACTU" H 5800 1150 50  0000 L CNN
F 2 "CAPC1608X87N" H 6100 1350 50  0001 L CNN
F 3 "http://docs-europe.electrocomponents.com/webdocs/134c/0900766b8134ce68.pdf" H 6100 1250 50  0001 L CNN
F 4 "0603 X7R ceramic capacitor, 50V 22nF Kemet 0603 22nF Ceramic Multilayer Capacitor, 50V dc, 125C, X7R Dielectric, 10% SMD" H 6100 1150 50  0001 L CNN "Description"
F 5 "0.87" H 6100 1050 50  0001 L CNN "Height"
F 6 "Kemet" H 6100 950 50  0001 L CNN "Manufacturer_Name"
F 7 "C0603C223K5RACTU" H 6100 850 50  0001 L CNN "Manufacturer_Part_Number"
F 8 "2644602P" H 6100 750 50  0001 L CNN "RS Part Number"
F 9 "http://uk.rs-online.com/web/p/products/2644602P" H 6100 650 50  0001 L CNN "RS Price/Stock"
F 10 "70096988" H 6100 550 50  0001 L CNN "Allied_Number"
F 11 "https://www.alliedelec.com/kemet-c0603c223k5ractu/70096988/" H 6100 450 50  0001 L CNN "Allied Price/Stock"
F 12 "C0603C223K5RACTU" H 6100 350 50  0001 L CNN "Arrow Part Number"
F 13 "https://www.arrow.com/en/products/c0603c223k5ractu/kemet-corporation" H 6100 250 50  0001 L CNN "Arrow Price/Stock"
	1    5750 1300
	0    1    1    0   
$EndComp
$Comp
L +3.3V #PWR17
U 1 1 5B6B2BA4
P 5200 1150
F 0 "#PWR17" H 5200 1000 50  0001 C CNN
F 1 "+3.3V" H 5200 1290 50  0000 C CNN
F 2 "" H 5200 1150 50  0001 C CNN
F 3 "" H 5200 1150 50  0001 C CNN
	1    5200 1150
	1    0    0    -1  
$EndComp
Text GLabel 5400 3250 1    51   Input ~ 0
CAN_TX
Text GLabel 7750 1200 0    51   Input ~ 0
CAN_TX
Text GLabel 7750 1300 0    51   Input ~ 0
CAN_RX
Text GLabel 5500 3250 1    51   Input ~ 0
CAN_RX
$Comp
L MCP2551-I/SN U1
U 1 1 5B6B3958
P 8250 1400
F 0 "U1" H 7850 1750 50  0000 L CNN
F 1 "MCP2551-I/SN" H 8350 1750 50  0000 L CNN
F 2 "Housings_SOIC:SOIC-8_3.9x4.9mm_Pitch1.27mm" H 8250 900 50  0001 C CIN
F 3 "" H 8250 1400 50  0001 C CNN
	1    8250 1400
	1    0    0    -1  
$EndComp
$Comp
L +5V #PWR23
U 1 1 5B6B39A7
P 8250 850
F 0 "#PWR23" H 8250 700 50  0001 C CNN
F 1 "+5V" H 8250 990 50  0000 C CNN
F 2 "" H 8250 850 50  0001 C CNN
F 3 "" H 8250 850 50  0001 C CNN
	1    8250 850 
	1    0    0    -1  
$EndComp
$Comp
L C0603C104K4RACTU C12
U 1 1 5B6B3B4D
P 7250 1750
F 0 "C12" H 7500 1900 50  0000 C CNN
F 1 "C0603C104K4RACTU" H 7600 2000 50  0000 C CNN
F 2 "CAPC1608X87N" H 7500 1500 50  0001 C CNN
F 3 "http://www.kemet.com/Lists/ProductCatalog/Attachments/53/KEM_C1002_X7R_SMD.pdf" H 7500 1400 50  0001 C CNN
F 4 "0603 X7R ceramic capacitor, 16V 100nF Kemet 0603 0.1??F Ceramic Multilayer Capacitor, 16V dc X7R Dielectric ??10% SMD" H 7500 1300 50  0001 C CNN "Description"
F 5 "RS" H 7500 1200 50  0001 C CNN "Supplier_Name"
F 6 "2644630" H 7500 1100 50  0001 C CNN "RS Part Number"
F 7 "Kemet" H 7500 1000 50  0001 C CNN "Manufacturer_Name"
F 8 "C0603C104K4RACTU" H 7500 900 50  0001 C CNN "Manufacturer_Part_Number"
F 9 "" H 7500 800 50  0001 C CNN "Allied_Number"
F 10 "" H 7500 700 50  0001 C CNN "Other Part Number"
F 11 "0.87" H 7500 600 50  0001 C CNN "Height"
	1    7250 1750
	0    -1   -1   0   
$EndComp
$Comp
L RC0603FR-07120RL R5
U 1 1 5B6B3D15
P 7700 1600
F 0 "R5" H 8050 1750 50  0000 L CNN
F 1 "RC0603FR-07120RL" H 7650 1450 50  0000 L CNN
F 2 "RESC1608X55N" H 8250 1650 50  0001 L CNN
F 3 "http://www.yageo.com/documents/recent/PYu-RC0603_51_RoHS_L_v5.pdf" H 8250 1550 50  0001 L CNN
F 4 "YAGEO (PHYCOMP) - RC0603FR-07120RL - RES, THICK FILM, 120R, 1%, 0.1W, 0603" H 8250 1450 50  0001 L CNN "Description"
F 5 "0.55" H 8250 1350 50  0001 L CNN "Height"
F 6 "YAGEO (PHYCOMP)" H 8250 1250 50  0001 L CNN "Manufacturer_Name"
F 7 "RC0603FR-07120RL" H 8250 1150 50  0001 L CNN "Manufacturer_Part_Number"
F 8 "5049195" H 8250 1050 50  0001 L CNN "RS Part Number"
F 9 "http://uk.rs-online.com/web/p/products/5049195" H 8250 950 50  0001 L CNN "RS Price/Stock"
F 10 "RC0603FR-07120RL" H 8250 850 50  0001 L CNN "Arrow Part Number"
F 11 "https://www.arrow.com/en/products/rc0603fr-07120rl/yageo" H 8250 750 50  0001 L CNN "Arrow Price/Stock"
	1    7700 1600
	0    1    1    0   
$EndComp
$Comp
L GND #PWR24
U 1 1 5B6B39FD
P 8250 2400
F 0 "#PWR24" H 8250 2150 50  0001 C CNN
F 1 "GND" H 8250 2250 50  0000 C CNN
F 2 "" H 8250 2400 50  0001 C CNN
F 3 "" H 8250 2400 50  0001 C CNN
	1    8250 2400
	1    0    0    -1  
$EndComp
$Comp
L SZNUP2105L D1
U 1 1 5B6B422D
P 10050 1050
F 0 "D1" H 10250 1050 50  0000 L CNN
F 1 "SZNUP2105L" H 10100 850 50  0000 L CNN
F 2 "TO_SOT_Packages_SMD:SOT-23" H 10275 1000 50  0001 L CNN
F 3 "" H 10175 1175 50  0001 C CNN
	1    10050 1050
	-1   0    0    1   
$EndComp
Text GLabel 10550 1350 2    51   Input ~ 0
CANH
Text GLabel 10550 1450 2    51   Input ~ 0
CANL
$Comp
L GND #PWR33
U 1 1 5B6B45CD
P 10250 700
F 0 "#PWR33" H 10250 450 50  0001 C CNN
F 1 "GND" H 10250 550 50  0000 C CNN
F 2 "" H 10250 700 50  0001 C CNN
F 3 "" H 10250 700 50  0001 C CNN
	1    10250 700 
	1    0    0    -1  
$EndComp
$Comp
L SML-D13DWT86A LED2
U 1 1 5B6B466A
P 2300 6500
F 0 "LED2" H 2550 6300 50  0000 L BNN
F 1 "SML-D13DWT86A" H 2300 6750 50  0000 L BNN
F 2 "LEDC1608X65N" H 2800 6650 50  0001 L BNN
F 3 "https://docs-emea.rs-online.com/webdocs/156b/0900766b8156b2c9.pdf" H 2800 6550 50  0001 L BNN
F 4 "ROHM SML-D13DWT86A, SML 608 nm Orange LED, 1608 (0603) Milky White SMD package" H 2800 6450 50  0001 L BNN "Description"
F 5 "0.65" H 2800 6350 50  0001 L BNN "Height"
F 6 "ROHM Semiconductor" H 2800 6250 50  0001 L BNN "Manufacturer_Name"
F 7 "SML-D13DWT86A" H 2800 6150 50  0001 L BNN "Manufacturer_Part_Number"
F 8 "1332873P" H 2800 6050 50  0001 L BNN "RS Part Number"
F 9 "http://uk.rs-online.com/web/p/products/1332873P" H 2800 5950 50  0001 L BNN "RS Price/Stock"
F 10 "SML-D13DWT86A" H 2800 5850 50  0001 L BNN "Arrow Part Number"
F 11 "http://uk.rs-online.com/web/p/products/1332873P" H 2800 5750 50  0001 L BNN "Arrow Price/Stock"
	1    2300 6500
	0    -1   -1   0   
$EndComp
$Comp
L SML-D13FWT86 LED1
U 1 1 5B6B4745
P 1650 6500
F 0 "LED1" H 1900 6300 50  0000 L BNN
F 1 "SML-D13FWT86" H 1650 6750 50  0000 L BNN
F 2 "SMLD15YWT86" H 2150 6650 50  0001 L BNN
F 3 "http://www.rohm.com/web/global/datasheet/SML-D13FW/sml-d13x-e" H 2150 6550 50  0001 L BNN
F 4 "ROHM SML-D13FWT86, SML 566 nm Green LED, 1608 (0603) Milky White SMD package" H 2150 6450 50  0001 L BNN "Description"
F 5 "" H 2150 6350 50  0001 L BNN "Height"
F 6 "ROHM Semiconductor" H 2150 6250 50  0001 L BNN "Manufacturer_Name"
F 7 "SML-D13FWT86" H 2150 6150 50  0001 L BNN "Manufacturer_Part_Number"
F 8 "1332874P" H 2150 6050 50  0001 L BNN "RS Part Number"
F 9 "http://uk.rs-online.com/web/p/products/1332874P" H 2150 5950 50  0001 L BNN "RS Price/Stock"
F 10 "SML-D13FWT86" H 2150 5850 50  0001 L BNN "Arrow Part Number"
F 11 "http://uk.rs-online.com/web/p/products/1332874P" H 2150 5750 50  0001 L BNN "Arrow Price/Stock"
	1    1650 6500
	0    -1   -1   0   
$EndComp
$Comp
L +3.3V #PWR5
U 1 1 5B6B5121
P 1650 5750
F 0 "#PWR5" H 1650 5600 50  0001 C CNN
F 1 "+3.3V" H 1650 5890 50  0000 C CNN
F 2 "" H 1650 5750 50  0001 C CNN
F 3 "" H 1650 5750 50  0001 C CNN
	1    1650 5750
	1    0    0    -1  
$EndComp
$Comp
L GND #PWR6
U 1 1 5B6B51E0
P 1650 7450
F 0 "#PWR6" H 1650 7200 50  0001 C CNN
F 1 "GND" H 1650 7300 50  0000 C CNN
F 2 "" H 1650 7450 50  0001 C CNN
F 3 "" H 1650 7450 50  0001 C CNN
	1    1650 7450
	1    0    0    -1  
$EndComp
Text GLabel 2300 5750 1    51   Input ~ 0
PC13-LED
Text GLabel 4900 4050 0    51   Input ~ 0
PC13-LED
Text GLabel 6600 4150 2    51   Input ~ 0
SWDIO
Text GLabel 6300 3250 1    51   Input ~ 0
SWCLK
$Comp
L RC0603JR-0710KL R4
U 1 1 5B6B5F9E
P 3200 5600
F 0 "R4" H 3550 5700 50  0000 C CNN
F 1 "RC0603JR-0710KL" H 3550 5500 50  0000 C CNN
F 2 "RESC1608X55N" H 3550 5400 50  0001 C CNN
F 3 "http://www.yageo.com/documents/recent/PYu-RC0603_51_RoHS_L_v5.pdf" H 3550 5300 50  0001 C CNN
F 4 "YAGEO (PHYCOMP) - RC0603JR-0710KL - RES, THICK FILM, 10K, 5%, 0.1W, 0603" H 3550 5200 50  0001 C CNN "Description"
F 5 "RS" H 3550 5100 50  0001 C CNN "Supplier_Name"
F 6 "" H 3550 5000 50  0001 C CNN "RS Part Number"
F 7 "YAGEO (PHYCOMP)" H 3550 4900 50  0001 C CNN "Manufacturer_Name"
F 8 "RC0603JR-0710KL" H 3550 4800 50  0001 C CNN "Manufacturer_Part_Number"
F 9 "" H 3550 4700 50  0001 C CNN "Allied_Number"
F 10 "" H 3550 4600 50  0001 C CNN "Other Part Number"
F 11 "0.55" H 3550 4500 50  0001 C CNN "Height"
	1    3200 5600
	0    1    1    0   
$EndComp
$Comp
L +3.3V #PWR9
U 1 1 5B6B604D
P 3200 5500
F 0 "#PWR9" H 3200 5350 50  0001 C CNN
F 1 "+3.3V" H 3200 5640 50  0000 C CNN
F 2 "" H 3200 5500 50  0001 C CNN
F 3 "" H 3200 5500 50  0001 C CNN
	1    3200 5500
	1    0    0    -1  
$EndComp
$Comp
L C0603C105Z8VACTU C13
U 1 1 5B6B616D
P 3200 6450
F 0 "C13" H 3400 6600 50  0000 L CNN
F 1 "C0603C105Z8VACTU" H 3250 6300 50  0000 L CNN
F 2 "CAPC1608X90N" H 3550 6500 50  0001 L CNN
F 3 "https://search.kemet.com/component-edge/download/specsheet/C0603C105Z8VACTU.pdf" H 3550 6400 50  0001 L CNN
F 4 "KEMET - C0603C105Z8VACTU - CAP, MLCC, Y5V, 1UF, 10V, 0603" H 3550 6300 50  0001 L CNN "Description"
F 5 "0.9" H 3550 6200 50  0001 L CNN "Height"
F 6 "Kemet" H 3550 6100 50  0001 L CNN "Manufacturer_Name"
F 7 "C0603C105Z8VACTU" H 3550 6000 50  0001 L CNN "Manufacturer_Part_Number"
F 8 "" H 3550 5900 50  0001 L CNN "RS Part Number"
F 9 "" H 3550 5800 50  0001 L CNN "RS Price/Stock"
F 10 "70096976" H 3550 5700 50  0001 L CNN "Allied_Number"
F 11 "https://www.alliedelec.com/kemet-c0603c105z8vactu/70096976/" H 3550 5600 50  0001 L CNN "Allied Price/Stock"
F 12 "C0603C105Z8VACTU" H 3550 5500 50  0001 L CNN "Arrow Part Number"
F 13 "https://www.arrow.com/en/products/c0603c105z8vactu/kemet-corporation" H 3550 5400 50  0001 L CNN "Arrow Price/Stock"
	1    3200 6450
	0    1    1    0   
$EndComp
$Comp
L GND #PWR10
U 1 1 5B6B61F4
P 3200 7200
F 0 "#PWR10" H 3200 6950 50  0001 C CNN
F 1 "GND" H 3200 7050 50  0000 C CNN
F 2 "" H 3200 7200 50  0001 C CNN
F 3 "" H 3200 7200 50  0001 C CNN
	1    3200 7200
	1    0    0    -1  
$EndComp
Text GLabel 3450 6350 2    51   Input ~ 0
Reset
Text GLabel 4900 4550 0    51   Input ~ 0
Reset
$Comp
L GND #PWR7
U 1 1 5B6BB4EC
P 2300 7450
F 0 "#PWR7" H 2300 7200 50  0001 C CNN
F 1 "GND" H 2300 7300 50  0000 C CNN
F 2 "" H 2300 7450 50  0001 C CNN
F 3 "" H 2300 7450 50  0001 C CNN
	1    2300 7450
	1    0    0    -1  
$EndComp
$Comp
L STM32F103C8T6TR IC1
U 1 1 5B6BB802
P 4900 3950
F 0 "IC1" H 5650 2750 50  0000 L CNN
F 1 "STM32F103C8T6TR" H 5350 2650 50  0000 L CNN
F 2 "QFP50P900X900X160-48N" H 6450 2200 50  0001 L CNN
F 3 "http://media.digikey.com/pdf/Data Sheets/ST Microelectronics PDFS/STM32F103x8,B.pdf" H 6450 2100 50  0001 L CNN
F 4 "ARM Microcontrollers - MCU 32BIT Cortex M3 USB 7 TIMERS 2 ADCS CAN" H 6450 2000 50  0001 L CNN "Description"
F 5 "RS" H 6450 1900 50  0001 C CNN "Supplier_Name"
F 6 "" H 6450 1800 50  0001 C CNN "RS Part Number"
F 7 "STMicroelectronics" H 6450 1700 50  0001 C CNN "Manufacturer_Name"
F 8 "STM32F103C8T6TR" H 6450 1600 50  0001 C CNN "Manufacturer_Part_Number"
F 9 "" H 6450 1500 50  0001 C CNN "Allied_Number"
F 10 "" H 6450 1400 50  0001 C CNN "Other Part Number"
F 11 "1.6" H 6450 1300 50  0001 C CNN "Height"
	1    4900 3950
	1    0    0    -1  
$EndComp
$Comp
L ABM7-8.000MHZ-D2Y-T Y2
U 1 1 5B6BBB6B
P 1850 3900
F 0 "Y2" H 2200 4050 50  0000 C CNN
F 1 "ABM7-8.000MHZ-D2Y-T" H 2200 3750 50  0000 C CNN
F 2 "ABM7-8.000MHZ-D2Y-T" H 2200 3650 50  0001 C CNN
F 3 "http://www.abracon.com/Resonators/abm7.pdf" H 2200 3550 50  0001 C CNN
F 4 "ABRACON - ABM7-8.000MHZ-D2Y-T - CRYSTAL, 8MHZ, 18PF, SMD" H 2200 3450 50  0001 C CNN "Description"
F 5 "RS" H 2200 3350 50  0001 C CNN "Supplier_Name"
F 6 "" H 2200 3250 50  0001 C CNN "RS Part Number"
F 7 "ABRACON" H 2200 3150 50  0001 C CNN "Manufacturer_Name"
F 8 "ABM7-8.000MHZ-D2Y-T" H 2200 3050 50  0001 C CNN "Manufacturer_Part_Number"
F 9 "" H 2200 2950 50  0001 C CNN "Allied_Number"
F 10 "" H 2200 2850 50  0001 C CNN "Other Part Number"
F 11 "" H 2400 2750 50  0001 C CNN "Height"
	1    1850 3900
	0    1    1    0   
$EndComp
$Comp
L C0603C569D5GACTU C14
U 1 1 5B6BD1FC
P 9700 1500
F 0 "C14" H 9900 1650 50  0000 L CNN
F 1 "C0603C569D5GACTU" H 9700 1350 50  0000 L CNN
F 2 "CAPC1608X87N" H 10050 1550 50  0001 L CNN
F 3 "https://content.kemet.com/datasheets/KEM_C1003_C0G_SMD.pdf" H 10050 1450 50  0001 L CNN
F 4 "C0G Dielectric, 10  250 VDC (Commercial Grade)" H 10050 1350 50  0001 L CNN "Description"
F 5 "0.87" H 10050 1250 50  0001 L CNN "Height"
F 6 "Kemet" H 10050 1150 50  0001 L CNN "Manufacturer_Name"
F 7 "C0603C569D5GACTU" H 10050 1050 50  0001 L CNN "Manufacturer_Part_Number"
F 8 "" H 10050 950 50  0001 L CNN "RS Part Number"
F 9 "" H 10050 850 50  0001 L CNN "RS Price/Stock"
F 10 "C0603C569D5GACTU" H 10050 750 50  0001 L CNN "Arrow Part Number"
F 11 "https://www.arrow.com/en/products/c0603c569d5gactu/kemet-corporation" H 10050 650 50  0001 L CNN "Arrow Price/Stock"
	1    9700 1500
	0    1    1    0   
$EndComp
$Comp
L C0603C569D5GACTU C15
U 1 1 5B6BD2B7
P 10050 1500
F 0 "C15" H 10250 1650 50  0000 L CNN
F 1 "C0603C569D5GACTU" H 10050 1400 50  0000 L CNN
F 2 "CAPC1608X87N" H 10400 1550 50  0001 L CNN
F 3 "https://content.kemet.com/datasheets/KEM_C1003_C0G_SMD.pdf" H 10400 1450 50  0001 L CNN
F 4 "C0G Dielectric, 10  250 VDC (Commercial Grade)" H 10400 1350 50  0001 L CNN "Description"
F 5 "0.87" H 10400 1250 50  0001 L CNN "Height"
F 6 "Kemet" H 10400 1150 50  0001 L CNN "Manufacturer_Name"
F 7 "C0603C569D5GACTU" H 10400 1050 50  0001 L CNN "Manufacturer_Part_Number"
F 8 "" H 10400 950 50  0001 L CNN "RS Part Number"
F 9 "" H 10400 850 50  0001 L CNN "RS Price/Stock"
F 10 "C0603C569D5GACTU" H 10400 750 50  0001 L CNN "Arrow Part Number"
F 11 "https://www.arrow.com/en/products/c0603c569d5gactu/kemet-corporation" H 10400 650 50  0001 L CNN "Arrow Price/Stock"
	1    10050 1500
	0    1    1    0   
$EndComp
$Comp
L GND #PWR32
U 1 1 5B6BD700
P 10050 2050
F 0 "#PWR32" H 10050 1800 50  0001 C CNN
F 1 "GND" H 10050 1900 50  0000 C CNN
F 2 "" H 10050 2050 50  0001 C CNN
F 3 "" H 10050 2050 50  0001 C CNN
	1    10050 2050
	1    0    0    -1  
$EndComp
$Comp
L GND #PWR29
U 1 1 5B6BD762
P 9700 2050
F 0 "#PWR29" H 9700 1800 50  0001 C CNN
F 1 "GND" H 9700 1900 50  0000 C CNN
F 2 "" H 9700 2050 50  0001 C CNN
F 3 "" H 9700 2050 50  0001 C CNN
	1    9700 2050
	1    0    0    -1  
$EndComp
Text GLabel 8350 4700 0    51   Input ~ 0
CANH
Text GLabel 8350 4900 0    51   Input ~ 0
CANL
$Comp
L +5V #PWR27
U 1 1 5B6C1E6D
P 8400 5500
F 0 "#PWR27" H 8400 5350 50  0001 C CNN
F 1 "+5V" H 8400 5640 50  0000 C CNN
F 2 "" H 8400 5500 50  0001 C CNN
F 3 "" H 8400 5500 50  0001 C CNN
	1    8400 5500
	1    0    0    -1  
$EndComp
Text GLabel 6600 4250 2    51   Input ~ 0
PA12_D
Text GLabel 6600 4350 2    51   Input ~ 0
PA11_D
Text GLabel 6600 4450 2    51   Input ~ 0
PA10_D_PWM_RX1
Text GLabel 6600 4550 2    51   Input ~ 0
PA9_D_PWM_TX1
Text GLabel 6600 4650 2    51   Input ~ 0
PA8_D_PWM
Text GLabel 6600 4750 2    51   Input ~ 0
PB15_D
Text GLabel 5700 3250 1    51   Input ~ 0
PB7_D_SDA1_RX1
Text GLabel 5800 3250 1    51   Input ~ 0
PB6_D_SCL1_TX1
Text GLabel 5200 5750 3    51   Input ~ 0
PA3_A_PWM_RX2
Text GLabel 5300 5750 3    51   Input ~ 0
PA4_A
Text GLabel 5500 5750 3    51   Input ~ 0
PA6_A_PWM
Text GLabel 5600 5750 3    51   Input ~ 0
PA7_A_PWM
Text GLabel 5700 5750 3    51   Input ~ 0
PB0_A_PWM
Text GLabel 5800 5750 3    51   Input ~ 0
PB1_A_PWM
Text GLabel 4900 5050 0    51   Input ~ 0
PA2_A_PWM_TX2
Text GLabel 4900 4850 0    51   Input ~ 0
PA0_A_PWM_WKUP
$Comp
L Conn_01x24 J4
U 1 1 5B6C5AB6
P 10650 4950
F 0 "J4" H 10650 6150 50  0000 C CNN
F 1 "Conn_01x24" H 10650 3650 50  0000 C CNN
F 2 "" H 10650 4950 50  0001 C CNN
F 3 "" H 10650 4950 50  0001 C CNN
	1    10650 4950
	1    0    0    -1  
$EndComp
Text GLabel 10450 6150 0    51   Input ~ 0
PA0_A_PWM_WKUP
Text GLabel 10450 6050 0    51   Input ~ 0
PA2_A_PWM_TX2
Text GLabel 10450 5950 0    51   Input ~ 0
PA3_A_PWM_RX2
Text GLabel 10450 5850 0    51   Input ~ 0
PA4_A
Text GLabel 10450 5750 0    51   Input ~ 0
PA6_A_PWM
Text GLabel 10450 5650 0    51   Input ~ 0
PA7_A_PWM
Text GLabel 10450 5550 0    51   Input ~ 0
PB0_A_PWM
Text GLabel 10450 5450 0    51   Input ~ 0
PB1_A_PWM
Text GLabel 10450 5350 0    51   Input ~ 0
PB15_D
Text GLabel 10450 5250 0    51   Input ~ 0
PA8_D_PWM
Text GLabel 10450 5150 0    51   Input ~ 0
PA9_D_PWM_TX1
Text GLabel 10450 5050 0    51   Input ~ 0
PA10_D_PWM_RX1
Text GLabel 10450 4950 0    51   Input ~ 0
PA11_D
Text GLabel 10450 4850 0    51   Input ~ 0
PA12_D
Text GLabel 10450 4750 0    51   Input ~ 0
PB6_D_SCL1_TX1
Text GLabel 10450 4650 0    51   Input ~ 0
PB7_D_SDA1_RX1
$Comp
L GND #PWR31
U 1 1 5B6C64A4
P 9900 4400
F 0 "#PWR31" H 9900 4150 50  0001 C CNN
F 1 "GND" H 9900 4250 50  0000 C CNN
F 2 "" H 9900 4400 50  0001 C CNN
F 3 "" H 9900 4400 50  0001 C CNN
	1    9900 4400
	1    0    0    -1  
$EndComp
$Comp
L +3.3V #PWR30
U 1 1 5B6C6895
P 9900 4000
F 0 "#PWR30" H 9900 3850 50  0001 C CNN
F 1 "+3.3V" H 9900 4140 50  0000 C CNN
F 2 "" H 9900 4000 50  0001 C CNN
F 3 "" H 9900 4000 50  0001 C CNN
	1    9900 4000
	1    0    0    -1  
$EndComp
Text Notes 1500 5400 0    118  ~ 0
LEDs
Text Notes 1500 2600 0    118  ~ 0
Oszillators
Text Notes 2700 800  0    118  ~ 0
Power Supply
Text Notes 8700 800  0    118  ~ 0
CAN BUS
Text Notes 9150 3350 0    118  ~ 0
Connectors
$Comp
L PE-1812ACC110STS L1
U 1 1 5B6C5A83
P 8800 1350
F 0 "L1" H 9200 1100 50  0000 L CNN
F 1 "PE-1812ACC110STS" H 8800 1500 50  0000 L CNN
F 2 "PE1812ACC110STS" H 9450 1450 50  0001 L CNN
F 3 "http://productfinder.pulseeng.com/products/datasheets/W717.pdf" H 9450 1350 50  0001 L CNN
F 4 "Common Mode Chokes / Filters AEC-Q200 Chip Choke 11uH .5Ohms Q200" H 9450 1250 50  0001 L CNN "Description"
F 5 "3" H 9450 1150 50  0001 L CNN "Height"
F 6 "Pulse" H 9450 1050 50  0001 L CNN "Manufacturer_Name"
F 7 "PE-1812ACC110STS" H 9450 950 50  0001 L CNN "Manufacturer_Part_Number"
F 8 "" H 9450 850 50  0001 L CNN "RS Part Number"
F 9 "" H 9450 750 50  0001 L CNN "RS Price/Stock"
F 10 "PE-1812ACC110STS" H 9450 650 50  0001 L CNN "Arrow Part Number"
F 11 "https://www.arrow.com/en/products/pe-1812acc110sts/pulse-electronics-corporation" H 9450 550 50  0001 L CNN "Arrow Price/Stock"
	1    8800 1350
	1    0    0    -1  
$EndComp
$Comp
L MX34003NF1 J1
U 1 1 5B6C5E8A
P 8350 3950
F 0 "J1" H 8750 3600 50  0000 L CNN
F 1 "MX34003NF1" H 8550 4150 50  0000 L CNN
F 2 "MX34003NF1" H 9000 4050 50  0001 L CNN
F 3 "https://www.jae.com/z-en/pdf_download_exec.cfm?param=SJ100824.pdf" H 9000 3950 50  0001 L CNN
F 4 "JAE MX34 Series, 2.2mm Pitch 3 Way 1 Row Right Angle PCB Header, Solder Termination, 3A" H 9000 3850 50  0001 L CNN "Description"
F 5 "11" H 9000 3750 50  0001 L CNN "Height"
F 6 "JAE Electronics" H 9000 3650 50  0001 L CNN "Manufacturer_Name"
F 7 "MX34003NF1" H 9000 3550 50  0001 L CNN "Manufacturer_Part_Number"
F 8 "6908931P" H 9000 3450 50  0001 L CNN "RS Part Number"
F 9 "http://uk.rs-online.com/web/p/products/6908931P" H 9000 3350 50  0001 L CNN "RS Price/Stock"
F 10 "MX34003NF1" H 9000 3250 50  0001 L CNN "Arrow Part Number"
F 11 "http://uk.rs-online.com/web/p/products/6908931P" H 9000 3150 50  0001 L CNN "Arrow Price/Stock"
	1    8350 3950
	1    0    0    -1  
$EndComp
$Comp
L MX34005NF1 J2
U 1 1 5B6C5F5B
P 8350 4700
F 0 "J2" H 8750 4250 50  0000 L CNN
F 1 "MX34005NF1" H 8550 4900 50  0000 L CNN
F 2 "MX34005NF1" H 9000 4800 50  0001 L CNN
F 3 "https://www.jae.com/z-en/pdf_download_exec.cfm?param=SJ100826.pdf" H 9000 4700 50  0001 L CNN
F 4 "JAE MX34 Series, 2.2mm Pitch 5 Way 1 Row Right Angle PCB Header, Solder Termination, 3A" H 9000 4600 50  0001 L CNN "Description"
F 5 "11" H 9000 4500 50  0001 L CNN "Height"
F 6 "JAE Electronics" H 9000 4400 50  0001 L CNN "Manufacturer_Name"
F 7 "MX34005NF1" H 9000 4300 50  0001 L CNN "Manufacturer_Part_Number"
F 8 "6908938P" H 9000 4200 50  0001 L CNN "RS Part Number"
F 9 "http://uk.rs-online.com/web/p/products/6908938P" H 9000 4100 50  0001 L CNN "RS Price/Stock"
F 10 "MX34005NF1" H 9000 4000 50  0001 L CNN "Arrow Part Number"
F 11 "http://uk.rs-online.com/web/p/products/6908938P" H 9000 3900 50  0001 L CNN "Arrow Price/Stock"
	1    8350 4700
	1    0    0    -1  
$EndComp
$Comp
L MX34005NF1 J3
U 1 1 5B6C743A
P 8400 5500
F 0 "J3" H 8800 5050 50  0000 L CNN
F 1 "MX34005NF1" H 8650 5700 50  0000 L CNN
F 2 "MX34005NF1" H 9050 5600 50  0001 L CNN
F 3 "https://www.jae.com/z-en/pdf_download_exec.cfm?param=SJ100826.pdf" H 9050 5500 50  0001 L CNN
F 4 "JAE MX34 Series, 2.2mm Pitch 5 Way 1 Row Right Angle PCB Header, Solder Termination, 3A" H 9050 5400 50  0001 L CNN "Description"
F 5 "11" H 9050 5300 50  0001 L CNN "Height"
F 6 "JAE Electronics" H 9050 5200 50  0001 L CNN "Manufacturer_Name"
F 7 "MX34005NF1" H 9050 5100 50  0001 L CNN "Manufacturer_Part_Number"
F 8 "6908938P" H 9050 5000 50  0001 L CNN "RS Part Number"
F 9 "http://uk.rs-online.com/web/p/products/6908938P" H 9050 4900 50  0001 L CNN "RS Price/Stock"
F 10 "MX34005NF1" H 9050 4800 50  0001 L CNN "Arrow Part Number"
F 11 "http://uk.rs-online.com/web/p/products/6908938P" H 9050 4700 50  0001 L CNN "Arrow Price/Stock"
	1    8400 5500
	1    0    0    -1  
$EndComp
$Comp
L GND #PWR26
U 1 1 5B6C7A50
P 8350 4050
F 0 "#PWR26" H 8350 3800 50  0001 C CNN
F 1 "GND" H 8350 3900 50  0000 C CNN
F 2 "" H 8350 4050 50  0001 C CNN
F 3 "" H 8350 4050 50  0001 C CNN
	1    8350 4050
	1    0    0    -1  
$EndComp
Text GLabel 9150 4700 2    51   Input ~ 0
CANH
Text GLabel 9150 4800 2    51   Input ~ 0
CANL
Text GLabel 8400 5600 0    51   Input ~ 0
SWCLK
Text GLabel 9200 5600 2    51   Input ~ 0
SWDIO
$Comp
L GND #PWR28
U 1 1 5B6C7E74
P 8400 5700
F 0 "#PWR28" H 8400 5450 50  0001 C CNN
F 1 "GND" H 8400 5550 50  0000 C CNN
F 2 "" H 8400 5700 50  0001 C CNN
F 3 "" H 8400 5700 50  0001 C CNN
	1    8400 5700
	1    0    0    -1  
$EndComp
$Comp
L RC0603JR-0768RL R2
U 1 1 5B6DA3AF
P 1650 6650
F 0 "R2" H 2000 6800 50  0000 L CNN
F 1 "RC0603JR-0768RL" H 1650 6500 50  0000 L CNN
F 2 "RESC1608X55N" H 2200 6700 50  0001 L CNN
F 3 "http://www.yageo.com/documents/recent/PYu-RC0603_51_RoHS_L_v5.pdf" H 2200 6600 50  0001 L CNN
F 4 "RESISTOR, 0603 68 Ohms 5% 1/10 W" H 2200 6500 50  0001 L CNN "Description"
F 5 "0.55" H 2200 6400 50  0001 L CNN "Height"
F 6 "YAGEO (PHYCOMP)" H 2200 6300 50  0001 L CNN "Manufacturer_Name"
F 7 "RC0603JR-0768RL" H 2200 6200 50  0001 L CNN "Manufacturer_Part_Number"
F 8 "" H 2200 6100 50  0001 L CNN "RS Part Number"
F 9 "" H 2200 6000 50  0001 L CNN "RS Price/Stock"
F 10 "RC0603JR-0768RL" H 2200 5900 50  0001 L CNN "Arrow Part Number"
F 11 "" H 2200 5800 50  0001 L CNN "Arrow Price/Stock"
	1    1650 6650
	0    1    1    0   
$EndComp
$Comp
L RC0603JR-0768RL R3
U 1 1 5B6DA4EC
P 2300 6650
F 0 "R3" H 2650 6800 50  0000 L CNN
F 1 "RC0603JR-0768RL" H 2300 6500 50  0000 L CNN
F 2 "RESC1608X55N" H 2850 6700 50  0001 L CNN
F 3 "http://www.yageo.com/documents/recent/PYu-RC0603_51_RoHS_L_v5.pdf" H 2850 6600 50  0001 L CNN
F 4 "RESISTOR, 0603 68 Ohms 5% 1/10 W" H 2850 6500 50  0001 L CNN "Description"
F 5 "0.55" H 2850 6400 50  0001 L CNN "Height"
F 6 "YAGEO (PHYCOMP)" H 2850 6300 50  0001 L CNN "Manufacturer_Name"
F 7 "RC0603JR-0768RL" H 2850 6200 50  0001 L CNN "Manufacturer_Part_Number"
F 8 "" H 2850 6100 50  0001 L CNN "RS Part Number"
F 9 "" H 2850 6000 50  0001 L CNN "RS Price/Stock"
F 10 "RC0603JR-0768RL" H 2850 5900 50  0001 L CNN "Arrow Part Number"
F 11 "" H 2850 5800 50  0001 L CNN "Arrow Price/Stock"
	1    2300 6650
	0    1    1    0   
$EndComp
$Comp
L R-78E5.0-0.5 U2
U 1 1 5B72D8F3
P 1150 1350
F 0 "U2" H 1700 1100 50  0000 L CNN
F 1 "R-78E5.0-0.5" H 1450 1500 50  0000 L CNN
F 2 "SHDRV3W100P0_254_1X3_1160X850X1040P" H 2200 1450 50  0001 L CNN
F 3 "http://docs-europe.electrocomponents.com/webdocs/10a2/0900766b810a2db7.pdf" H 2200 1350 50  0001 L CNN
F 4 "Switching Regulator,7-28Vin,5Vout 0.5A Switching Regulator, 7" H 2200 1250 50  0001 L CNN "Description"
F 5 "" H 2200 1150 50  0001 L CNN "Height"
F 6 "RECOM Power" H 2200 1050 50  0001 L CNN "Manufacturer_Name"
F 7 "R-78E5.0-0.5" H 2200 950 50  0001 L CNN "Manufacturer_Part_Number"
F 8 "1666675" H 2200 850 50  0001 L CNN "RS Part Number"
F 9 "http://uk.rs-online.com/web/p/products/1666675" H 2200 750 50  0001 L CNN "RS Price/Stock"
F 10 "R-78E5.0-0.5" H 2200 650 50  0001 L CNN "Arrow Part Number"
F 11 "https://www.arrow.com/en/products/r-78e5.0-0.5/recom-power" H 2200 550 50  0001 L CNN "Arrow Price/Stock"
	1    1150 1350
	1    0    0    -1  
$EndComp
$Comp
L +5V #PWR8
U 1 1 5B72DFDD
P 2450 1350
F 0 "#PWR8" H 2450 1200 50  0001 C CNN
F 1 "+5V" H 2450 1490 50  0000 C CNN
F 2 "" H 2450 1350 50  0001 C CNN
F 3 "" H 2450 1350 50  0001 C CNN
	1    2450 1350
	1    0    0    -1  
$EndComp
$Comp
L +24V #PWR3
U 1 1 5B72E131
P 900 1000
F 0 "#PWR3" H 900 850 50  0001 C CNN
F 1 "+24V" H 900 1140 50  0000 C CNN
F 2 "" H 900 1000 50  0001 C CNN
F 3 "" H 900 1000 50  0001 C CNN
	1    900  1000
	1    0    0    -1  
$EndComp
$Comp
L GND #PWR4
U 1 1 5B72E1CC
P 900 1700
F 0 "#PWR4" H 900 1450 50  0001 C CNN
F 1 "GND" H 900 1550 50  0000 C CNN
F 2 "" H 900 1700 50  0001 C CNN
F 3 "" H 900 1700 50  0001 C CNN
	1    900  1700
	1    0    0    -1  
$EndComp
$Comp
L C0603C105Z8VACTU C16
U 1 1 5B72E37D
P 900 1100
F 0 "C16" H 1100 1250 50  0000 L CNN
F 1 "C0603C105Z8VACTU" H 850 900 50  0000 L CNN
F 2 "CAPC1608X90N" H 1250 1150 50  0001 L CNN
F 3 "https://search.kemet.com/component-edge/download/specsheet/C0603C105Z8VACTU.pdf" H 1250 1050 50  0001 L CNN
F 4 "KEMET - C0603C105Z8VACTU - CAP, MLCC, Y5V, 1UF, 10V, 0603" H 1250 950 50  0001 L CNN "Description"
F 5 "0.9" H 1250 850 50  0001 L CNN "Height"
F 6 "Kemet" H 1250 750 50  0001 L CNN "Manufacturer_Name"
F 7 "C0603C105Z8VACTU" H 1250 650 50  0001 L CNN "Manufacturer_Part_Number"
F 8 "" H 1250 550 50  0001 L CNN "RS Part Number"
F 9 "" H 1250 450 50  0001 L CNN "RS Price/Stock"
F 10 "70096976" H 1250 350 50  0001 L CNN "Allied_Number"
F 11 "https://www.alliedelec.com/kemet-c0603c105z8vactu/70096976/" H 1250 250 50  0001 L CNN "Allied Price/Stock"
F 12 "C0603C105Z8VACTU" H 1250 150 50  0001 L CNN "Arrow Part Number"
F 13 "https://www.arrow.com/en/products/c0603c105z8vactu/kemet-corporation" H 1250 50  50  0001 L CNN "Arrow Price/Stock"
	1    900  1100
	0    1    1    0   
$EndComp
$Comp
L +24V #PWR25
U 1 1 5B72E6E7
P 8350 3950
F 0 "#PWR25" H 8350 3800 50  0001 C CNN
F 1 "+24V" H 8350 4090 50  0000 C CNN
F 2 "" H 8350 3950 50  0001 C CNN
F 3 "" H 8350 3950 50  0001 C CNN
	1    8350 3950
	1    0    0    -1  
$EndComp
Wire Wire Line
	5200 3100 5200 3200
Wire Wire Line
	5200 3200 5200 3250
Wire Wire Line
	4800 2600 5200 2600
Wire Wire Line
	5200 2600 5300 2600
Wire Wire Line
	5300 2600 5300 3250
Connection ~ 5200 2600
Wire Wire Line
	4050 4750 4100 4750
Wire Wire Line
	4100 4750 4900 4750
Wire Wire Line
	3550 4650 3550 4750
Wire Wire Line
	3550 4750 3550 4800
Wire Wire Line
	3550 4650 4900 4650
Connection ~ 3550 4750
Wire Wire Line
	6300 5850 6300 5750
Wire Wire Line
	6300 6350 6300 6450
Wire Wire Line
	6300 6350 6200 6350
Wire Wire Line
	6200 6350 6200 5750
Wire Wire Line
	6600 3950 6700 3950
Wire Wire Line
	6700 3950 6900 3950
Wire Wire Line
	7400 3950 7400 4050
Wire Wire Line
	7400 4050 7400 4100
Wire Wire Line
	7400 4050 6600 4050
Wire Wire Line
	6700 3800 6700 3950
Connection ~ 6700 3950
Wire Wire Line
	4800 3200 5200 3200
Connection ~ 5200 3200
Wire Wire Line
	3950 4950 4100 4950
Wire Wire Line
	4100 4950 4100 4750
Connection ~ 4100 4750
Wire Wire Line
	6700 5850 6300 5850
Wire Wire Line
	1350 3900 1850 3900
Wire Wire Line
	1850 3900 2400 3900
Wire Wire Line
	2400 3900 2700 3900
Connection ~ 1850 3900
Connection ~ 2400 3900
Wire Wire Line
	1350 4600 1850 4600
Wire Wire Line
	1850 4600 2400 4600
Wire Wire Line
	2400 4600 2700 4600
Connection ~ 2400 4600
Connection ~ 1850 4600
Wire Wire Line
	1350 2750 1850 2750
Wire Wire Line
	1850 2750 2700 2750
Wire Wire Line
	1350 3450 1850 3450
Wire Wire Line
	1850 3450 2700 3450
Connection ~ 1850 3450
Connection ~ 1850 2750
Wire Wire Line
	850  2750 850  3050
Wire Wire Line
	850  3050 850  3450
Wire Wire Line
	850  3900 850  4250
Wire Wire Line
	850  4250 850  4600
Wire Wire Line
	700  3050 850  3050
Connection ~ 850  3050
Wire Wire Line
	700  4250 850  4250
Connection ~ 850  4250
Wire Wire Line
	3500 1100 3500 1300
Wire Wire Line
	3500 1300 3850 1300
Wire Wire Line
	3850 1300 4100 1300
Wire Wire Line
	4100 1500 3850 1500
Wire Wire Line
	3850 1500 3850 1300
Connection ~ 3850 1300
Wire Wire Line
	3500 1800 3500 1850
Wire Wire Line
	3500 1850 3500 1950
Wire Wire Line
	4100 1400 3950 1400
Wire Wire Line
	3950 1400 3950 1850
Wire Wire Line
	3950 1850 3500 1850
Connection ~ 3500 1850
Wire Wire Line
	5100 1400 5200 1400
Wire Wire Line
	5200 1400 5300 1400
Wire Wire Line
	5300 1900 5300 1950
Wire Wire Line
	5300 1950 5300 2050
Wire Wire Line
	5100 1300 5750 1300
Wire Wire Line
	5750 1800 5750 1950
Wire Wire Line
	5750 1950 5300 1950
Connection ~ 5300 1950
Wire Wire Line
	5200 1150 5200 1400
Connection ~ 5200 1400
Wire Wire Line
	8250 850  8250 950 
Wire Wire Line
	8250 950  8250 1000
Wire Wire Line
	8250 1800 8250 2350
Wire Wire Line
	8250 2350 8250 2400
Wire Wire Line
	7250 1250 7250 950 
Wire Wire Line
	7250 950  8250 950 
Connection ~ 8250 950 
Wire Wire Line
	7250 1750 7250 2350
Wire Wire Line
	7700 2300 7700 2350
Connection ~ 7700 2350
Wire Wire Line
	7250 2350 7700 2350
Wire Wire Line
	7700 2350 8250 2350
Connection ~ 8250 2350
Wire Wire Line
	7700 1600 7750 1600
Wire Wire Line
	9600 1350 10050 1350
Wire Wire Line
	10050 1350 10150 1350
Wire Wire Line
	10150 1350 10550 1350
Wire Wire Line
	9600 1450 9700 1450
Wire Wire Line
	9700 1450 9950 1450
Wire Wire Line
	9950 1450 10550 1450
Wire Wire Line
	10050 850  10050 650 
Wire Wire Line
	10050 650  10250 650 
Wire Wire Line
	10250 650  10250 700 
Wire Wire Line
	1650 6500 1650 6650
Wire Wire Line
	1650 5750 1650 5900
Wire Wire Line
	1650 7350 1650 7450
Wire Wire Line
	2300 5750 2300 5900
Wire Wire Line
	2300 6500 2300 6650
Wire Wire Line
	3200 5500 3200 5600
Wire Wire Line
	3200 6950 3200 7200
Wire Wire Line
	3200 6300 3200 6350
Wire Wire Line
	3200 6350 3200 6450
Wire Wire Line
	3450 6350 3200 6350
Connection ~ 3200 6350
Wire Wire Line
	2300 7350 2300 7450
Wire Wire Line
	10150 1250 10150 1350
Connection ~ 10150 1350
Wire Wire Line
	9950 1250 9950 1450
Connection ~ 9950 1450
Wire Wire Line
	9700 1500 9700 1450
Connection ~ 9700 1450
Wire Wire Line
	10050 1500 10050 1350
Connection ~ 10050 1350
Wire Wire Line
	9700 2000 9700 2050
Wire Wire Line
	10050 2000 10050 2050
Wire Wire Line
	10450 4250 10050 4250
Wire Wire Line
	10050 4250 10050 4350
Wire Wire Line
	10050 4350 10050 4400
Wire Wire Line
	10050 4400 10050 4450
Wire Wire Line
	10050 4450 10050 4550
Wire Wire Line
	10050 4550 10450 4550
Wire Wire Line
	10450 4350 10050 4350
Connection ~ 10050 4350
Wire Wire Line
	10450 4450 10050 4450
Connection ~ 10050 4450
Wire Wire Line
	10050 4400 9900 4400
Connection ~ 10050 4400
Wire Wire Line
	10450 3850 10050 3850
Wire Wire Line
	10050 3850 10050 3950
Wire Wire Line
	10050 3950 10050 4000
Wire Wire Line
	10050 4000 10050 4050
Wire Wire Line
	10050 4050 10050 4150
Wire Wire Line
	10050 4150 10450 4150
Wire Wire Line
	10450 3950 10050 3950
Connection ~ 10050 3950
Wire Wire Line
	10450 4050 10050 4050
Connection ~ 10050 4050
Wire Wire Line
	10050 4000 9900 4000
Connection ~ 10050 4000
Wire Notes Line
	550  5150 4250 5150
Wire Notes Line
	4250 5150 4250 7650
Wire Notes Line
	6700 600  6700 2950
Wire Notes Line
	6700 2950 10850 2950
Wire Notes Line
	10800 2950 11050 2950
Wire Notes Line
	8050 2950 8050 6450
Wire Wire Line
	8750 1300 8800 1300
Wire Wire Line
	8800 1300 8800 1350
Wire Wire Line
	8750 1500 8800 1500
Wire Wire Line
	8800 1500 8800 1450
Wire Wire Line
	2350 1350 2450 1350
Wire Wire Line
	900  1000 900  1050
Wire Wire Line
	900  1050 900  1100
Wire Wire Line
	900  1600 900  1650
Wire Wire Line
	900  1650 900  1700
Wire Wire Line
	900  1050 1150 1050
Wire Wire Line
	1150 1050 1150 1350
Connection ~ 900  1050
Wire Wire Line
	900  1650 1150 1650
Wire Wire Line
	1150 1650 1150 1450
Connection ~ 900  1650
Wire Notes Line
	500  2300 6700 2300
$Comp
L GND #PWR22
U 1 1 5B730DBA
P 7400 4100
F 0 "#PWR22" H 7400 3850 50  0001 C CNN
F 1 "GND" H 7400 3950 50  0000 C CNN
F 2 "" H 7400 4100 50  0001 C CNN
F 3 "" H 7400 4100 50  0001 C CNN
	1    7400 4100
	1    0    0    -1  
$EndComp
Connection ~ 7400 4050
Wire Notes Line
	3300 5150 3300 2300
$Comp
L RC0603JR-071ML R?
U 1 1 5B7C3982
P 2400 3900
F 0 "R?" H 2700 4000 50  0000 L CNN
F 1 "RC0603JR-071ML" H 2450 3800 50  0000 L CNN
F 2 "RESC1608X55N" H 2950 3950 50  0001 L CNN
F 3 "http://www.yageo.com/documents/recent/PYu-RC0603_51_RoHS_L_v5.pdf" H 2950 3850 50  0001 L CNN
F 4 "RESISTOR, 0603 1M Ohms 5% 1/10 W" H 2950 3750 50  0001 L CNN "Description"
F 5 "0.55" H 2950 3650 50  0001 L CNN "Height"
F 6 "YAGEO (PHYCOMP)" H 2950 3550 50  0001 L CNN "Manufacturer_Name"
F 7 "RC0603JR-071ML" H 2950 3450 50  0001 L CNN "Manufacturer_Part_Number"
F 8 "" H 2950 3350 50  0001 L CNN "RS Part Number"
F 9 "" H 2950 3250 50  0001 L CNN "RS Price/Stock"
F 10 "RC0603JR-071ML" H 2950 3150 50  0001 L CNN "Arrow Part Number"
F 11 "" H 2950 3050 50  0001 L CNN "Arrow Price/Stock"
	1    2400 3900
	0    1    1    0   
$EndComp
$EndSCHEMATC
