%TF.GenerationSoftware,KiCad,Pcbnew,(5.0.0)*%
%TF.CreationDate,2018-11-26T22:18:06+01:00*%
%TF.ProjectId,Micro18_V3.2,4D6963726F31385F56332E322E6B6963,V3*%
%TF.SameCoordinates,Original*%
%TF.FileFunction,Soldermask,Top*%
%TF.FilePolarity,Negative*%
%FSLAX46Y46*%
G04 Gerber Fmt 4.6, Leading zero omitted, Abs format (unit mm)*
G04 Created by KiCad (PCBNEW (5.0.0)) date 11/26/18 22:18:06*
%MOMM*%
%LPD*%
G01*
G04 APERTURE LIST*
%ADD10C,0.150000*%
%ADD11R,1.900000X1.900000*%
%ADD12C,1.900000*%
%ADD13R,1.800000X1.800000*%
%ADD14C,1.800000*%
%ADD15C,1.930000*%
%ADD16C,2.800000*%
%ADD17C,2.025000*%
%ADD18C,3.600000*%
%ADD19R,2.550000X2.650000*%
%ADD20R,2.000000X2.400000*%
%ADD21R,2.400000X2.000000*%
%ADD22R,1.600000X1.600000*%
%ADD23C,1.600000*%
%ADD24R,0.700000X1.875000*%
%ADD25R,1.875000X0.700000*%
%ADD26R,1.050000X1.650000*%
%ADD27C,1.700000*%
%ADD28C,5.200000*%
%ADD29R,1.750000X1.300000*%
%ADD30R,1.200000X1.200000*%
%ADD31R,1.250000X1.350000*%
%ADD32R,2.400000X2.100000*%
%ADD33R,2.100000X2.400000*%
%ADD34R,1.800000X2.000000*%
%ADD35R,1.900000X1.050000*%
%ADD36R,1.400000X2.200000*%
%ADD37R,2.300000X3.000000*%
%ADD38R,1.350000X1.250000*%
G04 APERTURE END LIST*
D10*
X170180000Y-53594000D02*
X170180000Y-123444000D01*
X105156000Y-53594000D02*
X170180000Y-53594000D01*
X105156000Y-123444000D02*
X105156000Y-53594000D01*
X170180000Y-123444000D02*
X105156000Y-123444000D01*
D11*
X121158000Y-85344000D03*
D12*
X123698000Y-85344000D03*
X126238000Y-85344000D03*
D13*
X152019000Y-68580000D03*
D14*
X150749000Y-71120000D03*
X149479000Y-68580000D03*
X148209000Y-71120000D03*
X146939000Y-68580000D03*
X145669000Y-71120000D03*
X144399000Y-68580000D03*
X143129000Y-71120000D03*
D15*
X154214000Y-58170000D03*
X151674000Y-58170000D03*
X143474000Y-58170000D03*
X140934000Y-58170000D03*
D16*
X155424000Y-65280000D03*
X139724000Y-65280000D03*
D17*
X153289000Y-62230000D03*
X141859000Y-62230000D03*
D18*
X165100000Y-58674000D03*
X110236000Y-118364000D03*
D19*
X119126000Y-94066000D03*
X119126000Y-98466000D03*
D20*
X115824000Y-107918000D03*
X115824000Y-103918000D03*
X118872000Y-103664000D03*
X118872000Y-107664000D03*
X134620000Y-109252000D03*
X134620000Y-113252000D03*
X137414000Y-113335001D03*
X137414000Y-109335001D03*
X139954000Y-112046000D03*
X139954000Y-116046000D03*
X144018000Y-116046000D03*
X144018000Y-112046000D03*
X115316000Y-94266000D03*
X115316000Y-98266000D03*
X150114000Y-109506000D03*
X150114000Y-113506000D03*
D21*
X144812000Y-101854000D03*
X148812000Y-101854000D03*
D20*
X128016000Y-102584000D03*
X128016000Y-98584000D03*
X135890000Y-101060000D03*
X135890000Y-97060000D03*
X149606000Y-89122000D03*
X149606000Y-85122000D03*
D21*
X141160000Y-85090000D03*
X137160000Y-85090000D03*
X127794000Y-75946000D03*
X131794000Y-75946000D03*
X153702000Y-75438000D03*
X157702000Y-75438000D03*
X157702000Y-77978000D03*
X153702000Y-77978000D03*
D22*
X123190000Y-75946000D03*
D23*
X118140000Y-75946000D03*
D24*
X140252000Y-97964000D03*
X140752000Y-97964000D03*
X141252000Y-97964000D03*
X141752000Y-97964000D03*
X142252000Y-97964000D03*
X142752000Y-97964000D03*
X143252000Y-97964000D03*
X143752000Y-97964000D03*
X144252000Y-97964000D03*
X144752000Y-97964000D03*
X145252000Y-97964000D03*
X145752000Y-97964000D03*
D25*
X147240000Y-96476000D03*
X147240000Y-95976000D03*
X147240000Y-95476000D03*
X147240000Y-94976000D03*
X147240000Y-94476000D03*
X147240000Y-93976000D03*
X147240000Y-93476000D03*
X147240000Y-92976000D03*
X147240000Y-92476000D03*
X147240000Y-91976000D03*
X147240000Y-91476000D03*
X147240000Y-90976000D03*
D24*
X145752000Y-89488000D03*
X145252000Y-89488000D03*
X144752000Y-89488000D03*
X144252000Y-89488000D03*
X143752000Y-89488000D03*
X143252000Y-89488000D03*
X142752000Y-89488000D03*
X142252000Y-89488000D03*
X141752000Y-89488000D03*
X141252000Y-89488000D03*
X140752000Y-89488000D03*
X140252000Y-89488000D03*
D25*
X138764000Y-90976000D03*
X138764000Y-91476000D03*
X138764000Y-91976000D03*
X138764000Y-92476000D03*
X138764000Y-92976000D03*
X138764000Y-93476000D03*
X138764000Y-93976000D03*
X138764000Y-94476000D03*
X138764000Y-94976000D03*
X138764000Y-95476000D03*
X138764000Y-95976000D03*
X138764000Y-96476000D03*
D26*
X125146000Y-98064000D03*
X124206000Y-98064000D03*
X123266000Y-98064000D03*
X123266000Y-100564000D03*
X125146000Y-100564000D03*
D17*
X114427000Y-62230000D03*
X125857000Y-62230000D03*
D16*
X112292000Y-65280000D03*
X127992000Y-65280000D03*
D15*
X113502000Y-58170000D03*
X116042000Y-58170000D03*
X124242000Y-58170000D03*
X126782000Y-58170000D03*
D14*
X115697000Y-71120000D03*
X116967000Y-68580000D03*
X118237000Y-71120000D03*
X119507000Y-68580000D03*
X120777000Y-71120000D03*
X122047000Y-68580000D03*
X123317000Y-71120000D03*
D13*
X124587000Y-68580000D03*
D27*
X163068000Y-77978000D03*
X163068000Y-80738000D03*
X163068000Y-83498000D03*
X163068000Y-86258000D03*
X163068000Y-89018000D03*
X163068000Y-91778000D03*
X163068000Y-94538000D03*
X163068000Y-97298000D03*
X163068000Y-100058000D03*
X163068000Y-102818000D03*
X163068000Y-105578000D03*
X163068000Y-108338000D03*
X163068000Y-111098000D03*
X165608000Y-79358000D03*
X165608000Y-82118000D03*
X165608000Y-84878000D03*
X165608000Y-87638000D03*
X165608000Y-90398000D03*
X165608000Y-93158000D03*
X165608000Y-95918000D03*
X165608000Y-98678000D03*
X165608000Y-101438000D03*
X165608000Y-104198000D03*
X165608000Y-106958000D03*
X165608000Y-109718000D03*
D28*
X164338000Y-118038000D03*
X164338000Y-71038000D03*
D29*
X145045000Y-75692000D03*
X145045000Y-78232000D03*
X149595000Y-78232000D03*
X149595000Y-75692000D03*
D30*
X123381000Y-104394000D03*
X125031000Y-104394000D03*
D31*
X128232000Y-114554000D03*
X129832000Y-114554000D03*
D32*
X123222000Y-107950000D03*
X127222000Y-107950000D03*
X121444000Y-114554000D03*
X125444000Y-114554000D03*
X143986000Y-109220000D03*
X139986000Y-109220000D03*
X150146000Y-105918000D03*
X154146000Y-105918000D03*
D33*
X128016000Y-95218000D03*
X128016000Y-91218000D03*
D32*
X140938000Y-75184000D03*
X136938000Y-75184000D03*
D33*
X133604000Y-61436000D03*
X133604000Y-57436000D03*
X159512000Y-61246000D03*
X159512000Y-65246000D03*
D34*
X152678000Y-109176000D03*
X152678000Y-116376000D03*
X155678000Y-109176000D03*
X155678000Y-116376000D03*
D35*
X135984000Y-77851000D03*
X135984000Y-79121000D03*
X135984000Y-80391000D03*
X135984000Y-81661000D03*
X141384000Y-81661000D03*
X141384000Y-80391000D03*
X141384000Y-79121000D03*
X141384000Y-77851000D03*
D36*
X134894000Y-106172000D03*
X137394000Y-106172000D03*
D37*
X139836000Y-105918000D03*
X144136000Y-105918000D03*
D38*
X111252000Y-78016000D03*
X111252000Y-76416000D03*
D33*
X114046000Y-75470000D03*
X114046000Y-79470000D03*
D32*
X157448000Y-94996000D03*
X153448000Y-94996000D03*
X154464000Y-92202000D03*
X158464000Y-92202000D03*
X121190000Y-91186000D03*
X125190000Y-91186000D03*
D11*
X132842000Y-68326000D03*
D12*
X135382000Y-68326000D03*
M02*
