%TF.GenerationSoftware,KiCad,Pcbnew,(5.0.0)*%
%TF.CreationDate,2018-11-20T22:55:38+01:00*%
%TF.ProjectId,Micro18_V3,4D6963726F31385F56332E6B69636164,V3*%
%TF.SameCoordinates,Original*%
%TF.FileFunction,Copper,L1,Top,Signal*%
%TF.FilePolarity,Positive*%
%FSLAX46Y46*%
G04 Gerber Fmt 4.6, Leading zero omitted, Abs format (unit mm)*
G04 Created by KiCad (PCBNEW (5.0.0)) date 11/20/18 22:55:38*
%MOMM*%
%LPD*%
G01*
G04 APERTURE LIST*
%ADD10C,0.150000*%
%ADD11R,2.000000X1.700000*%
%ADD12R,2.150000X2.250000*%
%ADD13R,1.600000X2.000000*%
%ADD14R,2.000000X1.600000*%
%ADD15R,1.200000X1.200000*%
%ADD16C,1.200000*%
%ADD17R,0.300000X1.475000*%
%ADD18R,1.475000X0.300000*%
%ADD19R,0.650000X1.250000*%
%ADD20C,1.625000*%
%ADD21C,2.400000*%
%ADD22C,1.530000*%
%ADD23C,1.400000*%
%ADD24R,1.400000X1.400000*%
%ADD25C,1.300000*%
%ADD26C,4.800000*%
%ADD27R,1.350000X0.900000*%
%ADD28R,0.800000X0.800000*%
%ADD29R,0.850000X0.950000*%
%ADD30C,1.260000*%
%ADD31R,1.700000X2.000000*%
%ADD32R,1.400000X1.600000*%
%ADD33R,1.500000X0.650000*%
%ADD34R,1.000000X1.800000*%
%ADD35R,1.900000X2.600000*%
%ADD36R,0.950000X0.850000*%
%ADD37C,0.600000*%
%ADD38C,0.250000*%
%ADD39C,0.500000*%
G04 APERTURE END LIST*
D10*
X170180000Y-53594000D02*
X170180000Y-123444000D01*
X105156000Y-53594000D02*
X170180000Y-53594000D01*
X105156000Y-123444000D02*
X105156000Y-53594000D01*
X170180000Y-123444000D02*
X105156000Y-123444000D01*
D11*
X120936000Y-91186000D03*
X124936000Y-91186000D03*
D12*
X119126000Y-94066000D03*
X119126000Y-98466000D03*
D13*
X115824000Y-107918000D03*
X115824000Y-103918000D03*
X118872000Y-103664000D03*
X118872000Y-107664000D03*
X134620000Y-109252000D03*
X134620000Y-113252000D03*
X137414000Y-113335001D03*
X137414000Y-109335001D03*
X139954000Y-112046000D03*
X139954000Y-116046000D03*
X144018000Y-116046000D03*
X144018000Y-112046000D03*
X115316000Y-94266000D03*
X115316000Y-98266000D03*
X150114000Y-109506000D03*
X150114000Y-113506000D03*
D14*
X144812000Y-101854000D03*
X148812000Y-101854000D03*
D13*
X128016000Y-102584000D03*
X128016000Y-98584000D03*
X135890000Y-101060000D03*
X135890000Y-97060000D03*
X149606000Y-89122000D03*
X149606000Y-85122000D03*
D14*
X141160000Y-85090000D03*
X137160000Y-85090000D03*
X126778000Y-79248000D03*
X130778000Y-79248000D03*
X153702000Y-75438000D03*
X157702000Y-75438000D03*
X157702000Y-77978000D03*
X153702000Y-77978000D03*
D15*
X123190000Y-75946000D03*
D16*
X118140000Y-75946000D03*
D17*
X140252000Y-97964000D03*
X140752000Y-97964000D03*
X141252000Y-97964000D03*
X141752000Y-97964000D03*
X142252000Y-97964000D03*
X142752000Y-97964000D03*
X143252000Y-97964000D03*
X143752000Y-97964000D03*
X144252000Y-97964000D03*
X144752000Y-97964000D03*
X145252000Y-97964000D03*
X145752000Y-97964000D03*
D18*
X147240000Y-96476000D03*
X147240000Y-95976000D03*
X147240000Y-95476000D03*
X147240000Y-94976000D03*
X147240000Y-94476000D03*
X147240000Y-93976000D03*
X147240000Y-93476000D03*
X147240000Y-92976000D03*
X147240000Y-92476000D03*
X147240000Y-91976000D03*
X147240000Y-91476000D03*
X147240000Y-90976000D03*
D17*
X145752000Y-89488000D03*
X145252000Y-89488000D03*
X144752000Y-89488000D03*
X144252000Y-89488000D03*
X143752000Y-89488000D03*
X143252000Y-89488000D03*
X142752000Y-89488000D03*
X142252000Y-89488000D03*
X141752000Y-89488000D03*
X141252000Y-89488000D03*
X140752000Y-89488000D03*
X140252000Y-89488000D03*
D18*
X138764000Y-90976000D03*
X138764000Y-91476000D03*
X138764000Y-91976000D03*
X138764000Y-92476000D03*
X138764000Y-92976000D03*
X138764000Y-93476000D03*
X138764000Y-93976000D03*
X138764000Y-94476000D03*
X138764000Y-94976000D03*
X138764000Y-95476000D03*
X138764000Y-95976000D03*
X138764000Y-96476000D03*
D19*
X125146000Y-98064000D03*
X124206000Y-98064000D03*
X123266000Y-98064000D03*
X123266000Y-100564000D03*
X125146000Y-100564000D03*
D20*
X114427000Y-62230000D03*
X125857000Y-62230000D03*
D21*
X112292000Y-65280000D03*
X127992000Y-65280000D03*
D22*
X113502000Y-58170000D03*
X116042000Y-58170000D03*
X124242000Y-58170000D03*
X126782000Y-58170000D03*
D23*
X115697000Y-71120000D03*
X116967000Y-68580000D03*
X118237000Y-71120000D03*
X119507000Y-68580000D03*
X120777000Y-71120000D03*
X122047000Y-68580000D03*
X123317000Y-71120000D03*
D24*
X124587000Y-68580000D03*
X152019000Y-68580000D03*
D23*
X150749000Y-71120000D03*
X149479000Y-68580000D03*
X148209000Y-71120000D03*
X146939000Y-68580000D03*
X145669000Y-71120000D03*
X144399000Y-68580000D03*
X143129000Y-71120000D03*
D22*
X154214000Y-58170000D03*
X151674000Y-58170000D03*
X143474000Y-58170000D03*
X140934000Y-58170000D03*
D21*
X155424000Y-65280000D03*
X139724000Y-65280000D03*
D20*
X153289000Y-62230000D03*
X141859000Y-62230000D03*
D25*
X163068000Y-77978000D03*
X163068000Y-80738000D03*
X163068000Y-83498000D03*
X163068000Y-86258000D03*
X163068000Y-89018000D03*
X163068000Y-91778000D03*
X163068000Y-94538000D03*
X163068000Y-97298000D03*
X163068000Y-100058000D03*
X163068000Y-102818000D03*
X163068000Y-105578000D03*
X163068000Y-108338000D03*
X163068000Y-111098000D03*
X165608000Y-79358000D03*
X165608000Y-82118000D03*
X165608000Y-84878000D03*
X165608000Y-87638000D03*
X165608000Y-90398000D03*
X165608000Y-93158000D03*
X165608000Y-95918000D03*
X165608000Y-98678000D03*
X165608000Y-101438000D03*
X165608000Y-104198000D03*
X165608000Y-106958000D03*
X165608000Y-109718000D03*
D26*
X164338000Y-118038000D03*
X164338000Y-71038000D03*
D27*
X145045000Y-75692000D03*
X145045000Y-78232000D03*
X149595000Y-78232000D03*
X149595000Y-75692000D03*
D28*
X123381000Y-104394000D03*
X125031000Y-104394000D03*
D29*
X128232000Y-114554000D03*
X129832000Y-114554000D03*
D30*
X115060000Y-83775000D03*
X117600000Y-83775000D03*
X122680000Y-83775000D03*
X127760000Y-83775000D03*
D11*
X123222000Y-107950000D03*
X127222000Y-107950000D03*
X121444000Y-114554000D03*
X125444000Y-114554000D03*
X143986000Y-109220000D03*
X139986000Y-109220000D03*
X150146000Y-105918000D03*
X154146000Y-105918000D03*
D31*
X128016000Y-95218000D03*
X128016000Y-91218000D03*
D11*
X140938000Y-75184000D03*
X136938000Y-75184000D03*
D31*
X133604000Y-61436000D03*
X133604000Y-57436000D03*
X159512000Y-60230000D03*
X159512000Y-64230000D03*
D11*
X153956000Y-94996000D03*
X157956000Y-94996000D03*
X153956000Y-92456000D03*
X157956000Y-92456000D03*
D32*
X152678000Y-109176000D03*
X152678000Y-116376000D03*
X155678000Y-109176000D03*
X155678000Y-116376000D03*
D33*
X135984000Y-77851000D03*
X135984000Y-79121000D03*
X135984000Y-80391000D03*
X135984000Y-81661000D03*
X141384000Y-81661000D03*
X141384000Y-80391000D03*
X141384000Y-79121000D03*
X141384000Y-77851000D03*
D34*
X134894000Y-106172000D03*
X137394000Y-106172000D03*
D35*
X139836000Y-105918000D03*
X144136000Y-105918000D03*
D36*
X111252000Y-78016000D03*
X111252000Y-76416000D03*
D31*
X114046000Y-75470000D03*
X114046000Y-79470000D03*
D37*
X143256000Y-84074000D03*
X160020000Y-93726000D03*
X147320000Y-103632000D03*
X156718000Y-107442000D03*
X116078000Y-78486000D03*
X151384000Y-87122000D03*
X135890000Y-94742000D03*
X124206000Y-96266000D03*
X130810000Y-103632000D03*
X113792000Y-100330000D03*
X156464000Y-67564000D03*
X135984000Y-79121000D03*
X159512000Y-79639000D03*
X159258000Y-85503000D03*
X141478000Y-92456000D03*
X135890000Y-92456000D03*
X139192000Y-73660000D03*
X139954000Y-68834000D03*
X142494000Y-94234000D03*
X149098000Y-98044000D03*
D38*
X141252000Y-98951500D02*
X141252000Y-97964000D01*
X141252000Y-99414000D02*
X141252000Y-98951500D01*
X134894000Y-105772000D02*
X141252000Y-99414000D01*
X134894000Y-106172000D02*
X134894000Y-105772000D01*
X134894000Y-108978000D02*
X134620000Y-109252000D01*
X134894000Y-106172000D02*
X134894000Y-108978000D01*
X137776500Y-95976000D02*
X138764000Y-95976000D01*
X136434000Y-95976000D02*
X137776500Y-95976000D01*
D39*
X135890000Y-96520000D02*
X136434000Y-95976000D01*
X135890000Y-97060000D02*
X135890000Y-96520000D01*
X149606000Y-90372000D02*
X149606000Y-89122000D01*
X148502000Y-91476000D02*
X149606000Y-90372000D01*
D38*
X147240000Y-91476000D02*
X148502000Y-91476000D01*
D39*
X141004000Y-116046000D02*
X144018000Y-116046000D01*
X139954000Y-116046000D02*
X141004000Y-116046000D01*
X137330999Y-113252000D02*
X137414000Y-113335001D01*
X134620000Y-113252000D02*
X137330999Y-113252000D01*
X144812000Y-100804000D02*
X144812000Y-101854000D01*
X143801990Y-99793990D02*
X144812000Y-100804000D01*
D38*
X143801990Y-99001490D02*
X143801990Y-99793990D01*
X143752000Y-98951500D02*
X143801990Y-99001490D01*
X143752000Y-97964000D02*
X143752000Y-98951500D01*
D39*
X140752000Y-85498000D02*
X141160000Y-85090000D01*
X140752000Y-89488000D02*
X140752000Y-85498000D01*
X135890000Y-96860000D02*
X135890000Y-97060000D01*
X134248000Y-95218000D02*
X135890000Y-96860000D01*
X128016000Y-95218000D02*
X134248000Y-95218000D01*
X164228000Y-100058000D02*
X165608000Y-101438000D01*
X163068000Y-100058000D02*
X164228000Y-100058000D01*
X165608000Y-101438000D02*
X165608000Y-104198000D01*
X164228000Y-102818000D02*
X165608000Y-104198000D01*
X163068000Y-102818000D02*
X164228000Y-102818000D01*
X163068000Y-100058000D02*
X163068000Y-102818000D01*
X157702000Y-77978000D02*
X157702000Y-75438000D01*
X157702000Y-74138000D02*
X157702000Y-75438000D01*
X157702000Y-66190000D02*
X157702000Y-74138000D01*
X159512000Y-64380000D02*
X157702000Y-66190000D01*
X159512000Y-64230000D02*
X159512000Y-64380000D01*
X122680000Y-83146000D02*
X122680000Y-83775000D01*
X126578000Y-79248000D02*
X122680000Y-83146000D01*
X126778000Y-79248000D02*
X126578000Y-79248000D01*
X121789046Y-83775000D02*
X117600000Y-83775000D01*
X122680000Y-83775000D02*
X121789046Y-83775000D01*
X126778000Y-77948000D02*
X126778000Y-79248000D01*
X129542000Y-75184000D02*
X126778000Y-77948000D01*
X136938000Y-75184000D02*
X129542000Y-75184000D01*
X134954000Y-61436000D02*
X136446000Y-59944000D01*
X133604000Y-61436000D02*
X134954000Y-61436000D01*
X136446000Y-59944000D02*
X154686000Y-59944000D01*
X154686000Y-59944000D02*
X156210000Y-61468000D01*
X159512000Y-64080000D02*
X159512000Y-64230000D01*
X156900000Y-61468000D02*
X159512000Y-64080000D01*
X156210000Y-61468000D02*
X156900000Y-61468000D01*
X141160000Y-85090000D02*
X142240000Y-85090000D01*
X142240000Y-85090000D02*
X143256000Y-84074000D01*
X118926000Y-98266000D02*
X119126000Y-98466000D01*
X115316000Y-98266000D02*
X118926000Y-98266000D01*
X128016000Y-107156000D02*
X127222000Y-107950000D01*
X128016000Y-102584000D02*
X128016000Y-107156000D01*
X118618000Y-107918000D02*
X118872000Y-107664000D01*
X115824000Y-107918000D02*
X118618000Y-107918000D01*
X121294000Y-114554000D02*
X121444000Y-114554000D01*
X118872000Y-112132000D02*
X121294000Y-114554000D01*
X118872000Y-107664000D02*
X118872000Y-112132000D01*
X121444000Y-113578000D02*
X121444000Y-114554000D01*
X127072000Y-107950000D02*
X121444000Y-113578000D01*
X127222000Y-107950000D02*
X127072000Y-107950000D01*
X137414000Y-113506000D02*
X139954000Y-116046000D01*
X137414000Y-113335001D02*
X137414000Y-113506000D01*
X150114000Y-113706000D02*
X150114000Y-113506000D01*
X147774000Y-116046000D02*
X150114000Y-113706000D01*
X144018000Y-116046000D02*
X147774000Y-116046000D01*
X155678000Y-109276000D02*
X155678000Y-109176000D01*
X151448000Y-113506000D02*
X155678000Y-109276000D01*
X150114000Y-113506000D02*
X151448000Y-113506000D01*
X157956000Y-94996000D02*
X158750000Y-94996000D01*
X158750000Y-94996000D02*
X160020000Y-93726000D01*
X144812000Y-101854000D02*
X145542000Y-101854000D01*
X145542000Y-101854000D02*
X147320000Y-103632000D01*
X155678000Y-109176000D02*
X155678000Y-108482000D01*
X155678000Y-108482000D02*
X156718000Y-107442000D01*
X114046000Y-75470000D02*
X114046000Y-76454000D01*
X114046000Y-76454000D02*
X116078000Y-78486000D01*
X149606000Y-89122000D02*
X149606000Y-88900000D01*
X149606000Y-88900000D02*
X151384000Y-87122000D01*
X135890000Y-97060000D02*
X135890000Y-94742000D01*
X124206000Y-98064000D02*
X124206000Y-96266000D01*
X128016000Y-102584000D02*
X129762000Y-102584000D01*
X129762000Y-102584000D02*
X130810000Y-103632000D01*
X115316000Y-98266000D02*
X115316000Y-98806000D01*
X115316000Y-98806000D02*
X113792000Y-100330000D01*
X159512000Y-64230000D02*
X159512000Y-64516000D01*
X159512000Y-64516000D02*
X156464000Y-67564000D01*
D38*
X141752000Y-98951500D02*
X141752000Y-97964000D01*
X141752000Y-100664000D02*
X141752000Y-98951500D01*
X137394000Y-105022000D02*
X141752000Y-100664000D01*
X137394000Y-106172000D02*
X137394000Y-105022000D01*
X137394000Y-109315001D02*
X137414000Y-109335001D01*
X137394000Y-106172000D02*
X137394000Y-109315001D01*
X142252000Y-98951500D02*
X142252000Y-97964000D01*
X142252000Y-101952000D02*
X142252000Y-98951500D01*
X139836000Y-104368000D02*
X142252000Y-101952000D01*
X139836000Y-105918000D02*
X139836000Y-104368000D01*
X139836000Y-109070000D02*
X139986000Y-109220000D01*
X139836000Y-105918000D02*
X139836000Y-109070000D01*
X139986000Y-112014000D02*
X139954000Y-112046000D01*
X139986000Y-109220000D02*
X139986000Y-112014000D01*
X142752000Y-98951500D02*
X142752000Y-97964000D01*
X142752000Y-104184000D02*
X142752000Y-98951500D01*
X144136000Y-105568000D02*
X142752000Y-104184000D01*
X144136000Y-105918000D02*
X144136000Y-105568000D01*
X144136000Y-109070000D02*
X143986000Y-109220000D01*
X144136000Y-105918000D02*
X144136000Y-109070000D01*
X143986000Y-112014000D02*
X144018000Y-112046000D01*
X143986000Y-109220000D02*
X143986000Y-112014000D01*
D39*
X141698999Y-57405001D02*
X140934000Y-58170000D01*
X142024001Y-57079999D02*
X141698999Y-57405001D01*
X150583999Y-57079999D02*
X142024001Y-57079999D01*
X151674000Y-58170000D02*
X150583999Y-57079999D01*
X125006999Y-57405001D02*
X124242000Y-58170000D01*
X126301001Y-56110999D02*
X125006999Y-57405001D01*
X138874999Y-56110999D02*
X126301001Y-56110999D01*
X140934000Y-58170000D02*
X138874999Y-56110999D01*
X114266999Y-57405001D02*
X113502000Y-58170000D01*
X114592001Y-57079999D02*
X114266999Y-57405001D01*
X123151999Y-57079999D02*
X114592001Y-57079999D01*
X124242000Y-58170000D02*
X123151999Y-57079999D01*
X125146000Y-104279000D02*
X125031000Y-104394000D01*
X125146000Y-100564000D02*
X125146000Y-104279000D01*
X138176500Y-96476000D02*
X138764000Y-96476000D01*
D38*
X137776500Y-96876000D02*
X138176500Y-96476000D01*
D39*
X137776500Y-97463500D02*
X137776500Y-96876000D01*
X135890000Y-99350000D02*
X137776500Y-97463500D01*
X135890000Y-101060000D02*
X135890000Y-99350000D01*
X147240000Y-90576000D02*
X147240000Y-90976000D01*
X147240000Y-88738000D02*
X147240000Y-90576000D01*
X149606000Y-86372000D02*
X147240000Y-88738000D01*
X149606000Y-85122000D02*
X149606000Y-86372000D01*
X163068000Y-105578000D02*
X163068000Y-108338000D01*
X164448000Y-109718000D02*
X165608000Y-109718000D01*
X163068000Y-108338000D02*
X164448000Y-109718000D01*
X165608000Y-109718000D02*
X165608000Y-106958000D01*
X164448000Y-106958000D02*
X163068000Y-105578000D01*
X165608000Y-106958000D02*
X164448000Y-106958000D01*
X118872000Y-103664000D02*
X120364000Y-103664000D01*
X120364000Y-103664000D02*
X121412000Y-102616000D01*
X125146000Y-100864000D02*
X125146000Y-100564000D01*
X123394000Y-102616000D02*
X125146000Y-100864000D01*
X121412000Y-102616000D02*
X123394000Y-102616000D01*
X135394000Y-100564000D02*
X135890000Y-101060000D01*
X125146000Y-100564000D02*
X135394000Y-100564000D01*
D38*
X143736502Y-96476000D02*
X144227001Y-96966499D01*
D39*
X138764000Y-96476000D02*
X143736502Y-96476000D01*
D38*
X144252000Y-96976500D02*
X144252000Y-97964000D01*
X144241999Y-96966499D02*
X144252000Y-96976500D01*
X144227001Y-96966499D02*
X144241999Y-96966499D01*
D39*
X150146000Y-104818000D02*
X151078000Y-103886000D01*
X150146000Y-105918000D02*
X150146000Y-104818000D01*
X161376000Y-103886000D02*
X163068000Y-105578000D01*
X151078000Y-103886000D02*
X161376000Y-103886000D01*
X144252000Y-99087910D02*
X145748090Y-100584000D01*
D38*
X144252000Y-97964000D02*
X144252000Y-99087910D01*
D39*
X147562000Y-101854000D02*
X148812000Y-101854000D01*
X146292000Y-100584000D02*
X147562000Y-101854000D01*
X145748090Y-100584000D02*
X146292000Y-100584000D01*
X149996000Y-105918000D02*
X150146000Y-105918000D01*
X148812000Y-104734000D02*
X149996000Y-105918000D01*
X148812000Y-101854000D02*
X148812000Y-104734000D01*
X159512000Y-78994000D02*
X159512000Y-79639000D01*
X149987000Y-85503000D02*
X149606000Y-85122000D01*
X159258000Y-85503000D02*
X149987000Y-85503000D01*
X137360000Y-85090000D02*
X137160000Y-85090000D01*
X140252000Y-87982000D02*
X137360000Y-85090000D01*
D38*
X140252000Y-89488000D02*
X140252000Y-87982000D01*
D39*
X138410000Y-85090000D02*
X137160000Y-85090000D01*
X139934000Y-83566000D02*
X138410000Y-85090000D01*
X142240000Y-83566000D02*
X139934000Y-83566000D01*
X145992010Y-79813990D02*
X142240000Y-83566000D01*
X158692010Y-79813990D02*
X145992010Y-79813990D01*
X159512000Y-78994000D02*
X158692010Y-79813990D01*
X166527238Y-106958000D02*
X167894000Y-105591238D01*
X165608000Y-106958000D02*
X166527238Y-106958000D01*
X167894000Y-105591238D02*
X167894000Y-78740000D01*
X167894000Y-78740000D02*
X164338000Y-75184000D01*
X160782000Y-75184000D02*
X159512000Y-73914000D01*
X164338000Y-75184000D02*
X160782000Y-75184000D01*
X159512000Y-73914000D02*
X159512000Y-78994000D01*
X159766000Y-66294000D02*
X159512000Y-66548000D01*
X152764001Y-57079999D02*
X159441999Y-57079999D01*
X159441999Y-57079999D02*
X161290000Y-58928000D01*
X159512000Y-66548000D02*
X159512000Y-73914000D01*
X161290000Y-58928000D02*
X161290000Y-65532000D01*
X161290000Y-65532000D02*
X160528000Y-66294000D01*
X151674000Y-58170000D02*
X152764001Y-57079999D01*
X160528000Y-66294000D02*
X159766000Y-66294000D01*
X127760000Y-83775000D02*
X125146000Y-86389000D01*
X125666000Y-98584000D02*
X125146000Y-98064000D01*
X128016000Y-98584000D02*
X125666000Y-98584000D01*
X123266000Y-88269000D02*
X127760000Y-83775000D01*
X130778000Y-80757000D02*
X127760000Y-83775000D01*
X130778000Y-79248000D02*
X130778000Y-80757000D01*
X130778000Y-78198000D02*
X132268000Y-76708000D01*
X130778000Y-79248000D02*
X130778000Y-78198000D01*
X136501002Y-76708000D02*
X137668000Y-77874998D01*
X132268000Y-76708000D02*
X136501002Y-76708000D01*
X136409000Y-80391000D02*
X135984000Y-80391000D01*
X137668000Y-79132000D02*
X136409000Y-80391000D01*
X137668000Y-77874998D02*
X137668000Y-79132000D01*
X125146000Y-94590000D02*
X123266000Y-92710000D01*
X125146000Y-98064000D02*
X125146000Y-94590000D01*
X123266000Y-98064000D02*
X123266000Y-92710000D01*
X123266000Y-92710000D02*
X123266000Y-88269000D01*
X163068000Y-113538000D02*
X163068000Y-111098000D01*
X155956000Y-120650000D02*
X163068000Y-113538000D01*
X124206000Y-120650000D02*
X155956000Y-120650000D01*
X123266000Y-98064000D02*
X122691000Y-98064000D01*
X122691000Y-98064000D02*
X119917000Y-100838000D01*
X119917000Y-100838000D02*
X115062000Y-100838000D01*
X115062000Y-100838000D02*
X113792000Y-102108000D01*
X113792000Y-102108000D02*
X113792000Y-110236000D01*
X113792000Y-110236000D02*
X124206000Y-120650000D01*
D38*
X115824000Y-102668000D02*
X116638000Y-101854000D01*
X115824000Y-103918000D02*
X115824000Y-102668000D01*
X122691000Y-100564000D02*
X123266000Y-100564000D01*
X121401000Y-101854000D02*
X122691000Y-100564000D01*
X116638000Y-101854000D02*
X121401000Y-101854000D01*
X150444000Y-109176000D02*
X150114000Y-109506000D01*
X152678000Y-109176000D02*
X150444000Y-109176000D01*
X153996000Y-105918000D02*
X154146000Y-105918000D01*
X152678000Y-107236000D02*
X153996000Y-105918000D01*
X152678000Y-109176000D02*
X152678000Y-107236000D01*
X143252000Y-102679002D02*
X144204998Y-103632000D01*
X143252000Y-97964000D02*
X143252000Y-102679002D01*
X144204998Y-103632000D02*
X145796000Y-103632000D01*
X145796000Y-103632000D02*
X147574000Y-105410000D01*
X147574000Y-105410000D02*
X147574000Y-108204000D01*
X148876000Y-109506000D02*
X150114000Y-109506000D01*
X147574000Y-108204000D02*
X148876000Y-109506000D01*
X150049001Y-70420001D02*
X150749000Y-71120000D01*
X149723999Y-70094999D02*
X150049001Y-70420001D01*
X124342001Y-70094999D02*
X149723999Y-70094999D01*
X123317000Y-71120000D02*
X124342001Y-70094999D01*
X153448000Y-75692000D02*
X153702000Y-75438000D01*
X149595000Y-75692000D02*
X153448000Y-75692000D01*
X153702000Y-74073000D02*
X150749000Y-71120000D01*
X153702000Y-75438000D02*
X153702000Y-74073000D01*
X152019000Y-67630000D02*
X151445000Y-67056000D01*
X152019000Y-68580000D02*
X152019000Y-67630000D01*
X125537000Y-68580000D02*
X124587000Y-68580000D01*
X127061000Y-67056000D02*
X125537000Y-68580000D01*
X151445000Y-67056000D02*
X127061000Y-67056000D01*
X153448000Y-78232000D02*
X153702000Y-77978000D01*
X149595000Y-78232000D02*
X153448000Y-78232000D01*
X154952000Y-77978000D02*
X155702000Y-77228000D01*
X153702000Y-77978000D02*
X154952000Y-77978000D01*
X152019000Y-69530000D02*
X152019000Y-68580000D01*
X155702000Y-73213000D02*
X152019000Y-69530000D01*
X155702000Y-77228000D02*
X155702000Y-73213000D01*
D39*
X120936000Y-92206000D02*
X120936000Y-91186000D01*
X119126000Y-94016000D02*
X120936000Y-92206000D01*
X119126000Y-94066000D02*
X119126000Y-94016000D01*
X120786000Y-91186000D02*
X120936000Y-91186000D01*
X115060000Y-85460000D02*
X120786000Y-91186000D01*
X115060000Y-83775000D02*
X115060000Y-85460000D01*
X115516000Y-94066000D02*
X115316000Y-94266000D01*
X119126000Y-94066000D02*
X115516000Y-94066000D01*
X115689999Y-83145001D02*
X115060000Y-83775000D01*
X117540001Y-81294999D02*
X115689999Y-83145001D01*
X117540001Y-76545999D02*
X117540001Y-81294999D01*
X118140000Y-75946000D02*
X117540001Y-76545999D01*
D38*
X140752000Y-98951500D02*
X135309500Y-104394000D01*
X140752000Y-97964000D02*
X140752000Y-98951500D01*
X135309500Y-104394000D02*
X133858000Y-104394000D01*
X129832000Y-108420000D02*
X129832000Y-114554000D01*
X133858000Y-104394000D02*
X129832000Y-108420000D01*
X144752000Y-98951500D02*
X145622500Y-99822000D01*
X144752000Y-97964000D02*
X144752000Y-98951500D01*
X145622500Y-99822000D02*
X161544000Y-99822000D01*
X162688000Y-98678000D02*
X165608000Y-98678000D01*
X161544000Y-99822000D02*
X162688000Y-98678000D01*
X146152000Y-97964000D02*
X147248000Y-99060000D01*
X145752000Y-97964000D02*
X146152000Y-97964000D01*
X161306000Y-99060000D02*
X163068000Y-97298000D01*
X147248000Y-99060000D02*
X161306000Y-99060000D01*
X164688762Y-93158000D02*
X165608000Y-93158000D01*
X162229002Y-93158000D02*
X164688762Y-93158000D01*
X158911002Y-96476000D02*
X162229002Y-93158000D01*
X147240000Y-96476000D02*
X158911002Y-96476000D01*
X153956000Y-93556000D02*
X153956000Y-94996000D01*
X153956000Y-92456000D02*
X153956000Y-93556000D01*
X152976000Y-95976000D02*
X153956000Y-94996000D01*
X147240000Y-95976000D02*
X152976000Y-95976000D01*
X142352912Y-92456000D02*
X141478000Y-92456000D01*
X147240000Y-95476000D02*
X145372912Y-95476000D01*
X145372912Y-95476000D02*
X142352912Y-92456000D01*
X127984000Y-91186000D02*
X128016000Y-91218000D01*
X124936000Y-91186000D02*
X127984000Y-91186000D01*
X128016000Y-91368000D02*
X128016000Y-91218000D01*
X129116000Y-92468000D02*
X128016000Y-91368000D01*
X129242000Y-92468000D02*
X129116000Y-92468000D01*
X129254000Y-92456000D02*
X129242000Y-92468000D01*
X135890000Y-92456000D02*
X129254000Y-92456000D01*
X164688762Y-90398000D02*
X165608000Y-90398000D01*
X153578998Y-90398000D02*
X164688762Y-90398000D01*
X149000998Y-94976000D02*
X153578998Y-90398000D01*
X147240000Y-94976000D02*
X149000998Y-94976000D01*
X148500320Y-94476000D02*
X152146000Y-90830320D01*
X147240000Y-94476000D02*
X148500320Y-94476000D01*
X162148762Y-89018000D02*
X163068000Y-89018000D01*
X153942998Y-89018000D02*
X162148762Y-89018000D01*
X152146000Y-90814998D02*
X153942998Y-89018000D01*
X152146000Y-90830320D02*
X152146000Y-90814998D01*
X148363910Y-93976000D02*
X151638000Y-90701910D01*
X147240000Y-93976000D02*
X148363910Y-93976000D01*
X151638000Y-90701910D02*
X151638000Y-89662000D01*
X153662000Y-87638000D02*
X165608000Y-87638000D01*
X151638000Y-89662000D02*
X153662000Y-87638000D01*
X153772000Y-86258000D02*
X163068000Y-86258000D01*
X151130000Y-88900000D02*
X153772000Y-86258000D01*
X151130000Y-90573500D02*
X151130000Y-88900000D01*
X147240000Y-93476000D02*
X148227500Y-93476000D01*
X148227500Y-93476000D02*
X151130000Y-90573500D01*
X148545999Y-83796999D02*
X154154999Y-83796999D01*
X144252000Y-89488000D02*
X144252000Y-88090998D01*
X144252000Y-88090998D02*
X148545999Y-83796999D01*
X155236000Y-84878000D02*
X165608000Y-84878000D01*
X154154999Y-83796999D02*
X155236000Y-84878000D01*
X143752000Y-89488000D02*
X143752000Y-87896000D01*
X162418001Y-82848001D02*
X163068000Y-83498000D01*
X148799999Y-82848001D02*
X162418001Y-82848001D01*
X143752000Y-87896000D02*
X148799999Y-82848001D01*
X143301990Y-88450510D02*
X143301990Y-87584010D01*
X143252000Y-89488000D02*
X143252000Y-88500500D01*
X143252000Y-88500500D02*
X143301990Y-88450510D01*
X148768000Y-82118000D02*
X165608000Y-82118000D01*
X143301990Y-87584010D02*
X148768000Y-82118000D01*
X142752000Y-89488000D02*
X142752000Y-87497590D01*
X161481172Y-81405590D02*
X148844000Y-81405590D01*
X162148762Y-80738000D02*
X161481172Y-81405590D01*
X163068000Y-80738000D02*
X162148762Y-80738000D01*
X142752000Y-87497590D02*
X148844000Y-81405590D01*
X142252000Y-87361180D02*
X148841180Y-80772000D01*
X142252000Y-89488000D02*
X142252000Y-87361180D01*
X148841180Y-80772000D02*
X161036000Y-80772000D01*
X162450000Y-79358000D02*
X165608000Y-79358000D01*
X161036000Y-80772000D02*
X162450000Y-79358000D01*
X141752000Y-87224770D02*
X148712770Y-80264000D01*
X141752000Y-89488000D02*
X141752000Y-87224770D01*
X160782000Y-80264000D02*
X163068000Y-77978000D01*
X148712770Y-80264000D02*
X160782000Y-80264000D01*
X120206999Y-69279999D02*
X119507000Y-68580000D01*
X120571989Y-69644989D02*
X120206999Y-69279999D01*
X146939000Y-68580000D02*
X145874011Y-69644989D01*
X140340725Y-69644989D02*
X140462000Y-69644989D01*
X139954000Y-69258264D02*
X140340725Y-69644989D01*
X139954000Y-68834000D02*
X139954000Y-69258264D01*
X145874011Y-69644989D02*
X140462000Y-69644989D01*
X140462000Y-69644989D02*
X120571989Y-69644989D01*
X139192000Y-82550000D02*
X139192000Y-73660000D01*
X138430000Y-83312000D02*
X139192000Y-82550000D01*
X136398000Y-83312000D02*
X138430000Y-83312000D01*
X135636000Y-84074000D02*
X136398000Y-83312000D01*
X135636000Y-86868000D02*
X135636000Y-84074000D01*
X141252000Y-90475500D02*
X140795500Y-90932000D01*
X140795500Y-90932000D02*
X140223498Y-90932000D01*
X140223498Y-90932000D02*
X137429498Y-88138000D01*
X137429498Y-88138000D02*
X136906000Y-88138000D01*
X141252000Y-89488000D02*
X141252000Y-90475500D01*
X136906000Y-88138000D02*
X135636000Y-86868000D01*
X121476999Y-71819999D02*
X120777000Y-71120000D01*
X122555000Y-72898000D02*
X121476999Y-71819999D01*
X148209000Y-71120000D02*
X146431000Y-72898000D01*
X146431000Y-72898000D02*
X140462000Y-72898000D01*
X138176500Y-90976000D02*
X135128000Y-87927500D01*
X138764000Y-90976000D02*
X138176500Y-90976000D01*
X135128000Y-87927500D02*
X135128000Y-83820000D01*
X136144000Y-82804000D02*
X137414000Y-82804000D01*
X135128000Y-83820000D02*
X136144000Y-82804000D01*
X137414000Y-82804000D02*
X138430000Y-81788000D01*
X138430000Y-73660000D02*
X137668000Y-72898000D01*
X138430000Y-81788000D02*
X138430000Y-73660000D01*
X140462000Y-72898000D02*
X137668000Y-72898000D01*
X137668000Y-72898000D02*
X122555000Y-72898000D01*
X142736502Y-93476000D02*
X146542502Y-97282000D01*
X138764000Y-93476000D02*
X142736502Y-93476000D01*
X160324000Y-97282000D02*
X163068000Y-94538000D01*
X146542502Y-97282000D02*
X160324000Y-97282000D01*
X138764000Y-93976000D02*
X142236000Y-93976000D01*
X142236000Y-93976000D02*
X142494000Y-94234000D01*
X149397999Y-98343999D02*
X160228001Y-98343999D01*
X149098000Y-98044000D02*
X149397999Y-98343999D01*
X162654000Y-95918000D02*
X165608000Y-95918000D01*
X160228001Y-98343999D02*
X162654000Y-95918000D01*
X135984000Y-82236000D02*
X134620000Y-83600000D01*
X135984000Y-81661000D02*
X135984000Y-82236000D01*
X137414000Y-91186000D02*
X134620000Y-88392000D01*
X137414000Y-94976000D02*
X137414000Y-91186000D01*
X134620000Y-83600000D02*
X134620000Y-88392000D01*
X137414000Y-94976000D02*
X138764000Y-94976000D01*
X134984000Y-77851000D02*
X134112000Y-78723000D01*
X135984000Y-77851000D02*
X134984000Y-77851000D01*
X136906000Y-91440000D02*
X134112000Y-88646000D01*
X136906000Y-95476000D02*
X136906000Y-91440000D01*
X134112000Y-78723000D02*
X134112000Y-88646000D01*
X136906000Y-95476000D02*
X138764000Y-95476000D01*
X132870000Y-58170000D02*
X133604000Y-57436000D01*
X126782000Y-58170000D02*
X132870000Y-58170000D01*
X156274000Y-60230000D02*
X159512000Y-60230000D01*
X154214000Y-58170000D02*
X156274000Y-60230000D01*
X143764000Y-75692000D02*
X145045000Y-75692000D01*
X143510000Y-75946000D02*
X143764000Y-75692000D01*
X143510000Y-77995000D02*
X143510000Y-75946000D01*
X141384000Y-79121000D02*
X142384000Y-79121000D01*
X142384000Y-79121000D02*
X143510000Y-77995000D01*
X145045000Y-78932000D02*
X145045000Y-78232000D01*
X143586000Y-80391000D02*
X145045000Y-78932000D01*
X141384000Y-80391000D02*
X143586000Y-80391000D01*
X123222000Y-104553000D02*
X123381000Y-104394000D01*
X123222000Y-107950000D02*
X123222000Y-104553000D01*
X127557000Y-114554000D02*
X125444000Y-114554000D01*
X128232000Y-114554000D02*
X127557000Y-114554000D01*
X162390000Y-92456000D02*
X163068000Y-91778000D01*
X157956000Y-92456000D02*
X162390000Y-92456000D01*
X141384000Y-75630000D02*
X140938000Y-75184000D01*
X141384000Y-77851000D02*
X141384000Y-75630000D01*
D39*
X116967000Y-69850000D02*
X115697000Y-71120000D01*
X116967000Y-68580000D02*
X116967000Y-69850000D01*
X111252000Y-75565000D02*
X115697000Y-71120000D01*
X111252000Y-76416000D02*
X111252000Y-75565000D01*
X120523000Y-75946000D02*
X123190000Y-75946000D01*
X115697000Y-71120000D02*
X120523000Y-75946000D01*
D38*
X112946000Y-79470000D02*
X114046000Y-79470000D01*
X112031000Y-79470000D02*
X112946000Y-79470000D01*
X111252000Y-78691000D02*
X112031000Y-79470000D01*
X111252000Y-78016000D02*
X111252000Y-78691000D01*
M02*
