%TF.GenerationSoftware,KiCad,Pcbnew,(5.0.0)*%
%TF.CreationDate,2018-11-26T22:18:06+01:00*%
%TF.ProjectId,Micro18_V3.2,4D6963726F31385F56332E322E6B6963,V3*%
%TF.SameCoordinates,Original*%
%TF.FileFunction,Legend,Bot*%
%TF.FilePolarity,Positive*%
%FSLAX46Y46*%
G04 Gerber Fmt 4.6, Leading zero omitted, Abs format (unit mm)*
G04 Created by KiCad (PCBNEW (5.0.0)) date 11/26/18 22:18:06*
%MOMM*%
%LPD*%
G01*
G04 APERTURE LIST*
%ADD10C,0.250000*%
%ADD11C,0.300000*%
%ADD12C,0.150000*%
%ADD13C,0.010000*%
G04 APERTURE END LIST*
D10*
X110196285Y-106956476D02*
X109529619Y-106956476D01*
X110196285Y-107385047D02*
X109672476Y-107385047D01*
X109577238Y-107337428D01*
X109529619Y-107242190D01*
X109529619Y-107099333D01*
X109577238Y-107004095D01*
X109624857Y-106956476D01*
X110529619Y-107337428D02*
X110482000Y-107289809D01*
X110434380Y-107337428D01*
X110482000Y-107385047D01*
X110529619Y-107337428D01*
X110434380Y-107337428D01*
X110529619Y-106956476D02*
X110482000Y-106908857D01*
X110434380Y-106956476D01*
X110482000Y-107004095D01*
X110529619Y-106956476D01*
X110434380Y-106956476D01*
X109529619Y-106480285D02*
X110529619Y-106480285D01*
X110148666Y-106480285D02*
X110196285Y-106385047D01*
X110196285Y-106194571D01*
X110148666Y-106099333D01*
X110101047Y-106051714D01*
X110005809Y-106004095D01*
X109720095Y-106004095D01*
X109624857Y-106051714D01*
X109577238Y-106099333D01*
X109529619Y-106194571D01*
X109529619Y-106385047D01*
X109577238Y-106480285D01*
X109577238Y-105194571D02*
X109529619Y-105289809D01*
X109529619Y-105480285D01*
X109577238Y-105575523D01*
X109672476Y-105623142D01*
X110053428Y-105623142D01*
X110148666Y-105575523D01*
X110196285Y-105480285D01*
X110196285Y-105289809D01*
X110148666Y-105194571D01*
X110053428Y-105146952D01*
X109958190Y-105146952D01*
X109862952Y-105623142D01*
X109529619Y-104718380D02*
X110196285Y-104718380D01*
X110005809Y-104718380D02*
X110101047Y-104670761D01*
X110148666Y-104623142D01*
X110196285Y-104527904D01*
X110196285Y-104432666D01*
X110196285Y-104099333D02*
X109196285Y-104099333D01*
X110148666Y-104099333D02*
X110196285Y-104004095D01*
X110196285Y-103813619D01*
X110148666Y-103718380D01*
X110101047Y-103670761D01*
X110005809Y-103623142D01*
X109720095Y-103623142D01*
X109624857Y-103670761D01*
X109577238Y-103718380D01*
X109529619Y-103813619D01*
X109529619Y-104004095D01*
X109577238Y-104099333D01*
X109529619Y-103194571D02*
X110196285Y-103194571D01*
X110005809Y-103194571D02*
X110101047Y-103146952D01*
X110148666Y-103099333D01*
X110196285Y-103004095D01*
X110196285Y-102908857D01*
X110196285Y-102146952D02*
X109529619Y-102146952D01*
X110196285Y-102575523D02*
X109672476Y-102575523D01*
X109577238Y-102527904D01*
X109529619Y-102432666D01*
X109529619Y-102289809D01*
X109577238Y-102194571D01*
X109624857Y-102146952D01*
X110529619Y-102527904D02*
X110482000Y-102480285D01*
X110434380Y-102527904D01*
X110482000Y-102575523D01*
X110529619Y-102527904D01*
X110434380Y-102527904D01*
X110529619Y-102146952D02*
X110482000Y-102099333D01*
X110434380Y-102146952D01*
X110482000Y-102194571D01*
X110529619Y-102146952D01*
X110434380Y-102146952D01*
X110196285Y-101813619D02*
X110196285Y-101432666D01*
X109529619Y-101670761D02*
X110386761Y-101670761D01*
X110482000Y-101623142D01*
X110529619Y-101527904D01*
X110529619Y-101432666D01*
X110196285Y-101242190D02*
X110196285Y-100861238D01*
X110529619Y-101099333D02*
X109672476Y-101099333D01*
X109577238Y-101051714D01*
X109529619Y-100956476D01*
X109529619Y-100861238D01*
X110196285Y-99861238D02*
X109529619Y-99623142D01*
X110196285Y-99385047D01*
X109529619Y-98861238D02*
X109577238Y-98956476D01*
X109624857Y-99004095D01*
X109720095Y-99051714D01*
X110005809Y-99051714D01*
X110101047Y-99004095D01*
X110148666Y-98956476D01*
X110196285Y-98861238D01*
X110196285Y-98718380D01*
X110148666Y-98623142D01*
X110101047Y-98575523D01*
X110005809Y-98527904D01*
X109720095Y-98527904D01*
X109624857Y-98575523D01*
X109577238Y-98623142D01*
X109529619Y-98718380D01*
X109529619Y-98861238D01*
X110196285Y-98099333D02*
X109529619Y-98099333D01*
X110101047Y-98099333D02*
X110148666Y-98051714D01*
X110196285Y-97956476D01*
X110196285Y-97813619D01*
X110148666Y-97718380D01*
X110053428Y-97670761D01*
X109529619Y-97670761D01*
X110529619Y-96575523D02*
X110529619Y-96004095D01*
X109529619Y-96289809D02*
X110529619Y-96289809D01*
X109529619Y-95670761D02*
X110196285Y-95670761D01*
X110005809Y-95670761D02*
X110101047Y-95623142D01*
X110148666Y-95575523D01*
X110196285Y-95480285D01*
X110196285Y-95385047D01*
X109529619Y-95051714D02*
X110196285Y-95051714D01*
X110529619Y-95051714D02*
X110482000Y-95099333D01*
X110434380Y-95051714D01*
X110482000Y-95004095D01*
X110529619Y-95051714D01*
X110434380Y-95051714D01*
X109577238Y-94623142D02*
X109529619Y-94527904D01*
X109529619Y-94337428D01*
X109577238Y-94242190D01*
X109672476Y-94194571D01*
X109720095Y-94194571D01*
X109815333Y-94242190D01*
X109862952Y-94337428D01*
X109862952Y-94480285D01*
X109910571Y-94575523D01*
X110005809Y-94623142D01*
X110053428Y-94623142D01*
X110148666Y-94575523D01*
X110196285Y-94480285D01*
X110196285Y-94337428D01*
X110148666Y-94242190D01*
X110196285Y-93908857D02*
X110196285Y-93527904D01*
X110529619Y-93766000D02*
X109672476Y-93766000D01*
X109577238Y-93718380D01*
X109529619Y-93623142D01*
X109529619Y-93527904D01*
X109529619Y-92766000D02*
X110053428Y-92766000D01*
X110148666Y-92813619D01*
X110196285Y-92908857D01*
X110196285Y-93099333D01*
X110148666Y-93194571D01*
X109577238Y-92766000D02*
X109529619Y-92861238D01*
X109529619Y-93099333D01*
X109577238Y-93194571D01*
X109672476Y-93242190D01*
X109767714Y-93242190D01*
X109862952Y-93194571D01*
X109910571Y-93099333D01*
X109910571Y-92861238D01*
X109958190Y-92766000D01*
X110196285Y-92289809D02*
X109529619Y-92289809D01*
X110101047Y-92289809D02*
X110148666Y-92242190D01*
X110196285Y-92146952D01*
X110196285Y-92004095D01*
X110148666Y-91908857D01*
X110053428Y-91861238D01*
X109529619Y-91861238D01*
X109577238Y-90670761D02*
X109529619Y-90527904D01*
X109529619Y-90289809D01*
X109577238Y-90194571D01*
X109624857Y-90146952D01*
X109720095Y-90099333D01*
X109815333Y-90099333D01*
X109910571Y-90146952D01*
X109958190Y-90194571D01*
X110005809Y-90289809D01*
X110053428Y-90480285D01*
X110101047Y-90575523D01*
X110148666Y-90623142D01*
X110243904Y-90670761D01*
X110339142Y-90670761D01*
X110434380Y-90623142D01*
X110482000Y-90575523D01*
X110529619Y-90480285D01*
X110529619Y-90242190D01*
X110482000Y-90099333D01*
X110196285Y-89813619D02*
X110196285Y-89432666D01*
X110529619Y-89670761D02*
X109672476Y-89670761D01*
X109577238Y-89623142D01*
X109529619Y-89527904D01*
X109529619Y-89432666D01*
X109529619Y-89099333D02*
X110196285Y-89099333D01*
X110005809Y-89099333D02*
X110101047Y-89051714D01*
X110148666Y-89004095D01*
X110196285Y-88908857D01*
X110196285Y-88813619D01*
X109529619Y-88051714D02*
X110053428Y-88051714D01*
X110148666Y-88099333D01*
X110196285Y-88194571D01*
X110196285Y-88385047D01*
X110148666Y-88480285D01*
X109577238Y-88051714D02*
X109529619Y-88146952D01*
X109529619Y-88385047D01*
X109577238Y-88480285D01*
X109672476Y-88527904D01*
X109767714Y-88527904D01*
X109862952Y-88480285D01*
X109910571Y-88385047D01*
X109910571Y-88146952D01*
X109958190Y-88051714D01*
X109529619Y-87575523D02*
X110529619Y-87575523D01*
X109529619Y-87146952D02*
X110053428Y-87146952D01*
X110148666Y-87194571D01*
X110196285Y-87289809D01*
X110196285Y-87432666D01*
X110148666Y-87527904D01*
X110101047Y-87575523D01*
X109529619Y-86527904D02*
X109577238Y-86623142D01*
X109672476Y-86670761D01*
X110529619Y-86670761D01*
X109577238Y-85766000D02*
X109529619Y-85861238D01*
X109529619Y-86051714D01*
X109577238Y-86146952D01*
X109672476Y-86194571D01*
X110053428Y-86194571D01*
X110148666Y-86146952D01*
X110196285Y-86051714D01*
X110196285Y-85861238D01*
X110148666Y-85766000D01*
X110053428Y-85718380D01*
X109958190Y-85718380D01*
X109862952Y-86194571D01*
X109529619Y-85289809D02*
X110196285Y-85289809D01*
X110005809Y-85289809D02*
X110101047Y-85242190D01*
X110148666Y-85194571D01*
X110196285Y-85099333D01*
X110196285Y-85004095D01*
D11*
X167925714Y-76116571D02*
X168782857Y-76116571D01*
X168354285Y-76116571D02*
X168354285Y-74616571D01*
X168497142Y-74830857D01*
X168640000Y-74973714D01*
X168782857Y-75045142D01*
X166640000Y-75116571D02*
X166640000Y-76116571D01*
X166997142Y-74545142D02*
X167354285Y-75616571D01*
X166425714Y-75616571D01*
X168274857Y-111843428D02*
X168203428Y-111772000D01*
X168060571Y-111700571D01*
X167703428Y-111700571D01*
X167560571Y-111772000D01*
X167489142Y-111843428D01*
X167417714Y-111986285D01*
X167417714Y-112129142D01*
X167489142Y-112343428D01*
X168346285Y-113200571D01*
X167417714Y-113200571D01*
X166060571Y-111700571D02*
X166774857Y-111700571D01*
X166846285Y-112414857D01*
X166774857Y-112343428D01*
X166632000Y-112272000D01*
X166274857Y-112272000D01*
X166132000Y-112343428D01*
X166060571Y-112414857D01*
X165989142Y-112557714D01*
X165989142Y-112914857D01*
X166060571Y-113057714D01*
X166132000Y-113129142D01*
X166274857Y-113200571D01*
X166632000Y-113200571D01*
X166774857Y-113129142D01*
X166846285Y-113057714D01*
D12*
X170180000Y-53594000D02*
X170180000Y-123444000D01*
X105156000Y-53594000D02*
X170180000Y-53594000D01*
X105156000Y-123444000D02*
X105156000Y-53594000D01*
X170180000Y-123444000D02*
X105156000Y-123444000D01*
D13*
G36*
X136728801Y-85255708D02*
X136727428Y-85264626D01*
X136726192Y-85280770D01*
X136725085Y-85304835D01*
X136724103Y-85337519D01*
X136723239Y-85379518D01*
X136722487Y-85431530D01*
X136721840Y-85494252D01*
X136721293Y-85568380D01*
X136720839Y-85654613D01*
X136720473Y-85753646D01*
X136720188Y-85866178D01*
X136719977Y-85992904D01*
X136719836Y-86134523D01*
X136719757Y-86291730D01*
X136719734Y-86452227D01*
X136719705Y-86593517D01*
X136719623Y-86730093D01*
X136719488Y-86861005D01*
X136719306Y-86985301D01*
X136719079Y-87102030D01*
X136718811Y-87210242D01*
X136718504Y-87308986D01*
X136718162Y-87397311D01*
X136717788Y-87474266D01*
X136717386Y-87538900D01*
X136716958Y-87590262D01*
X136716508Y-87627402D01*
X136716039Y-87649369D01*
X136715628Y-87655399D01*
X136708012Y-87651246D01*
X136686355Y-87639030D01*
X136651302Y-87619120D01*
X136603497Y-87591887D01*
X136543584Y-87557699D01*
X136472210Y-87516924D01*
X136390017Y-87469933D01*
X136297651Y-87417093D01*
X136195755Y-87358773D01*
X136084975Y-87295343D01*
X135965955Y-87227172D01*
X135839340Y-87154628D01*
X135705774Y-87078081D01*
X135565901Y-86997899D01*
X135420367Y-86914452D01*
X135269815Y-86828108D01*
X135114890Y-86739236D01*
X134992534Y-86669033D01*
X134834670Y-86578460D01*
X134680681Y-86490129D01*
X134531210Y-86404410D01*
X134386903Y-86321671D01*
X134248403Y-86242281D01*
X134116357Y-86166610D01*
X133991407Y-86095026D01*
X133874199Y-86027898D01*
X133765377Y-85965596D01*
X133665585Y-85908487D01*
X133575469Y-85856942D01*
X133495673Y-85811329D01*
X133426841Y-85772017D01*
X133369617Y-85739374D01*
X133324647Y-85713771D01*
X133292575Y-85695576D01*
X133274046Y-85685157D01*
X133269411Y-85682666D01*
X133268942Y-85690975D01*
X133268517Y-85715270D01*
X133268138Y-85754604D01*
X133267807Y-85808029D01*
X133267525Y-85874599D01*
X133267293Y-85953366D01*
X133267114Y-86043383D01*
X133266988Y-86143703D01*
X133266917Y-86253379D01*
X133266903Y-86371463D01*
X133266948Y-86497008D01*
X133267052Y-86629068D01*
X133267218Y-86766694D01*
X133267422Y-86895175D01*
X133269567Y-88107684D01*
X134992534Y-89096460D01*
X135150606Y-89187159D01*
X135304821Y-89275616D01*
X135454535Y-89361462D01*
X135599103Y-89444328D01*
X135737879Y-89523845D01*
X135870220Y-89599646D01*
X135995481Y-89671360D01*
X136113016Y-89738620D01*
X136222181Y-89801056D01*
X136322332Y-89858301D01*
X136412822Y-89909984D01*
X136493008Y-89955739D01*
X136562245Y-89995195D01*
X136619888Y-90027985D01*
X136665293Y-90053739D01*
X136697813Y-90072090D01*
X136716806Y-90082667D01*
X136721822Y-90085285D01*
X136722579Y-90076982D01*
X136723340Y-90052698D01*
X136724098Y-90013382D01*
X136724847Y-89959987D01*
X136725579Y-89893463D01*
X136726288Y-89814761D01*
X136726967Y-89724833D01*
X136727610Y-89624630D01*
X136728210Y-89515102D01*
X136728760Y-89397202D01*
X136729253Y-89271880D01*
X136729683Y-89140087D01*
X136730043Y-89002775D01*
X136730288Y-88883005D01*
X136732434Y-87680678D01*
X138444692Y-88663090D01*
X138602370Y-88753548D01*
X138756239Y-88841800D01*
X138905649Y-88927475D01*
X139049950Y-89010200D01*
X139188492Y-89089603D01*
X139320624Y-89165313D01*
X139445696Y-89236957D01*
X139563059Y-89304162D01*
X139672061Y-89366557D01*
X139772053Y-89423770D01*
X139862384Y-89475428D01*
X139942404Y-89521159D01*
X140011463Y-89560592D01*
X140068911Y-89593353D01*
X140114097Y-89619072D01*
X140146371Y-89637375D01*
X140165084Y-89647890D01*
X140169805Y-89650434D01*
X140171588Y-89649819D01*
X140173194Y-89646006D01*
X140174632Y-89638205D01*
X140175906Y-89625623D01*
X140177025Y-89607470D01*
X140177996Y-89582953D01*
X140178825Y-89551281D01*
X140179520Y-89511662D01*
X140180087Y-89463305D01*
X140180534Y-89405419D01*
X140180868Y-89337211D01*
X140181095Y-89257890D01*
X140181224Y-89166664D01*
X140181259Y-89062742D01*
X140181210Y-88945333D01*
X140181082Y-88813644D01*
X140180883Y-88666884D01*
X140180620Y-88504262D01*
X140180513Y-88442996D01*
X140178367Y-87230625D01*
X138459634Y-86244101D01*
X138301693Y-86153454D01*
X138147577Y-86065016D01*
X137997934Y-85979160D01*
X137853412Y-85896257D01*
X137714657Y-85816677D01*
X137582319Y-85740792D01*
X137457044Y-85668973D01*
X137339481Y-85601591D01*
X137230277Y-85539017D01*
X137130081Y-85481623D01*
X137039539Y-85429779D01*
X136959299Y-85383856D01*
X136890011Y-85344226D01*
X136832320Y-85311260D01*
X136786875Y-85285329D01*
X136754324Y-85266804D01*
X136735314Y-85256056D01*
X136730317Y-85253316D01*
X136728801Y-85255708D01*
X136728801Y-85255708D01*
G37*
X136728801Y-85255708D02*
X136727428Y-85264626D01*
X136726192Y-85280770D01*
X136725085Y-85304835D01*
X136724103Y-85337519D01*
X136723239Y-85379518D01*
X136722487Y-85431530D01*
X136721840Y-85494252D01*
X136721293Y-85568380D01*
X136720839Y-85654613D01*
X136720473Y-85753646D01*
X136720188Y-85866178D01*
X136719977Y-85992904D01*
X136719836Y-86134523D01*
X136719757Y-86291730D01*
X136719734Y-86452227D01*
X136719705Y-86593517D01*
X136719623Y-86730093D01*
X136719488Y-86861005D01*
X136719306Y-86985301D01*
X136719079Y-87102030D01*
X136718811Y-87210242D01*
X136718504Y-87308986D01*
X136718162Y-87397311D01*
X136717788Y-87474266D01*
X136717386Y-87538900D01*
X136716958Y-87590262D01*
X136716508Y-87627402D01*
X136716039Y-87649369D01*
X136715628Y-87655399D01*
X136708012Y-87651246D01*
X136686355Y-87639030D01*
X136651302Y-87619120D01*
X136603497Y-87591887D01*
X136543584Y-87557699D01*
X136472210Y-87516924D01*
X136390017Y-87469933D01*
X136297651Y-87417093D01*
X136195755Y-87358773D01*
X136084975Y-87295343D01*
X135965955Y-87227172D01*
X135839340Y-87154628D01*
X135705774Y-87078081D01*
X135565901Y-86997899D01*
X135420367Y-86914452D01*
X135269815Y-86828108D01*
X135114890Y-86739236D01*
X134992534Y-86669033D01*
X134834670Y-86578460D01*
X134680681Y-86490129D01*
X134531210Y-86404410D01*
X134386903Y-86321671D01*
X134248403Y-86242281D01*
X134116357Y-86166610D01*
X133991407Y-86095026D01*
X133874199Y-86027898D01*
X133765377Y-85965596D01*
X133665585Y-85908487D01*
X133575469Y-85856942D01*
X133495673Y-85811329D01*
X133426841Y-85772017D01*
X133369617Y-85739374D01*
X133324647Y-85713771D01*
X133292575Y-85695576D01*
X133274046Y-85685157D01*
X133269411Y-85682666D01*
X133268942Y-85690975D01*
X133268517Y-85715270D01*
X133268138Y-85754604D01*
X133267807Y-85808029D01*
X133267525Y-85874599D01*
X133267293Y-85953366D01*
X133267114Y-86043383D01*
X133266988Y-86143703D01*
X133266917Y-86253379D01*
X133266903Y-86371463D01*
X133266948Y-86497008D01*
X133267052Y-86629068D01*
X133267218Y-86766694D01*
X133267422Y-86895175D01*
X133269567Y-88107684D01*
X134992534Y-89096460D01*
X135150606Y-89187159D01*
X135304821Y-89275616D01*
X135454535Y-89361462D01*
X135599103Y-89444328D01*
X135737879Y-89523845D01*
X135870220Y-89599646D01*
X135995481Y-89671360D01*
X136113016Y-89738620D01*
X136222181Y-89801056D01*
X136322332Y-89858301D01*
X136412822Y-89909984D01*
X136493008Y-89955739D01*
X136562245Y-89995195D01*
X136619888Y-90027985D01*
X136665293Y-90053739D01*
X136697813Y-90072090D01*
X136716806Y-90082667D01*
X136721822Y-90085285D01*
X136722579Y-90076982D01*
X136723340Y-90052698D01*
X136724098Y-90013382D01*
X136724847Y-89959987D01*
X136725579Y-89893463D01*
X136726288Y-89814761D01*
X136726967Y-89724833D01*
X136727610Y-89624630D01*
X136728210Y-89515102D01*
X136728760Y-89397202D01*
X136729253Y-89271880D01*
X136729683Y-89140087D01*
X136730043Y-89002775D01*
X136730288Y-88883005D01*
X136732434Y-87680678D01*
X138444692Y-88663090D01*
X138602370Y-88753548D01*
X138756239Y-88841800D01*
X138905649Y-88927475D01*
X139049950Y-89010200D01*
X139188492Y-89089603D01*
X139320624Y-89165313D01*
X139445696Y-89236957D01*
X139563059Y-89304162D01*
X139672061Y-89366557D01*
X139772053Y-89423770D01*
X139862384Y-89475428D01*
X139942404Y-89521159D01*
X140011463Y-89560592D01*
X140068911Y-89593353D01*
X140114097Y-89619072D01*
X140146371Y-89637375D01*
X140165084Y-89647890D01*
X140169805Y-89650434D01*
X140171588Y-89649819D01*
X140173194Y-89646006D01*
X140174632Y-89638205D01*
X140175906Y-89625623D01*
X140177025Y-89607470D01*
X140177996Y-89582953D01*
X140178825Y-89551281D01*
X140179520Y-89511662D01*
X140180087Y-89463305D01*
X140180534Y-89405419D01*
X140180868Y-89337211D01*
X140181095Y-89257890D01*
X140181224Y-89166664D01*
X140181259Y-89062742D01*
X140181210Y-88945333D01*
X140181082Y-88813644D01*
X140180883Y-88666884D01*
X140180620Y-88504262D01*
X140180513Y-88442996D01*
X140178367Y-87230625D01*
X138459634Y-86244101D01*
X138301693Y-86153454D01*
X138147577Y-86065016D01*
X137997934Y-85979160D01*
X137853412Y-85896257D01*
X137714657Y-85816677D01*
X137582319Y-85740792D01*
X137457044Y-85668973D01*
X137339481Y-85601591D01*
X137230277Y-85539017D01*
X137130081Y-85481623D01*
X137039539Y-85429779D01*
X136959299Y-85383856D01*
X136890011Y-85344226D01*
X136832320Y-85311260D01*
X136786875Y-85285329D01*
X136754324Y-85266804D01*
X136735314Y-85256056D01*
X136730317Y-85253316D01*
X136728801Y-85255708D01*
G36*
X130733800Y-91888733D02*
X132139267Y-91888733D01*
X132139267Y-92345933D01*
X130784600Y-92345933D01*
X130784600Y-92718466D01*
X132139267Y-92718466D01*
X132139267Y-93201066D01*
X130674534Y-93201066D01*
X130674534Y-93573599D01*
X132664201Y-93573599D01*
X132664201Y-91507733D01*
X130733800Y-91507733D01*
X130733800Y-91888733D01*
X130733800Y-91888733D01*
G37*
X130733800Y-91888733D02*
X132139267Y-91888733D01*
X132139267Y-92345933D01*
X130784600Y-92345933D01*
X130784600Y-92718466D01*
X132139267Y-92718466D01*
X132139267Y-93201066D01*
X130674534Y-93201066D01*
X130674534Y-93573599D01*
X132664201Y-93573599D01*
X132664201Y-91507733D01*
X130733800Y-91507733D01*
X130733800Y-91888733D01*
G36*
X135278284Y-91507867D02*
X135165311Y-91507980D01*
X135055344Y-91508271D01*
X134949820Y-91508723D01*
X134850175Y-91509324D01*
X134757847Y-91510058D01*
X134674272Y-91510913D01*
X134600888Y-91511873D01*
X134539132Y-91512925D01*
X134490440Y-91514054D01*
X134456249Y-91515247D01*
X134441830Y-91516102D01*
X134365283Y-91525672D01*
X134289840Y-91541045D01*
X134220522Y-91560969D01*
X134162354Y-91584190D01*
X134155839Y-91587403D01*
X134075691Y-91637198D01*
X134006348Y-91699189D01*
X133948492Y-91772001D01*
X133902807Y-91854254D01*
X133869976Y-91944572D01*
X133850680Y-92041577D01*
X133845602Y-92143891D01*
X133849488Y-92205576D01*
X133866649Y-92303152D01*
X133896541Y-92392253D01*
X133938414Y-92471691D01*
X133991517Y-92540277D01*
X134055101Y-92596821D01*
X134121525Y-92636851D01*
X134155420Y-92651779D01*
X134196294Y-92667407D01*
X134239894Y-92682372D01*
X134281966Y-92695315D01*
X134318258Y-92704873D01*
X134344517Y-92709684D01*
X134350014Y-92710000D01*
X134363244Y-92714062D01*
X134366001Y-92719224D01*
X134361140Y-92727532D01*
X134347132Y-92748298D01*
X134324834Y-92780317D01*
X134295105Y-92822387D01*
X134258801Y-92873305D01*
X134216783Y-92931866D01*
X134169907Y-92996868D01*
X134119032Y-93067108D01*
X134065016Y-93141381D01*
X134061201Y-93146617D01*
X134007043Y-93220989D01*
X133955962Y-93291277D01*
X133908812Y-93356293D01*
X133866451Y-93414849D01*
X133829734Y-93465759D01*
X133799517Y-93507836D01*
X133776657Y-93539892D01*
X133762009Y-93560741D01*
X133756430Y-93569194D01*
X133756401Y-93569296D01*
X133764554Y-93570265D01*
X133787767Y-93571044D01*
X133824165Y-93571619D01*
X133871875Y-93571976D01*
X133929023Y-93572101D01*
X133993735Y-93571981D01*
X134064139Y-93571602D01*
X134066260Y-93571587D01*
X134376119Y-93569366D01*
X134645224Y-93162966D01*
X134914330Y-92756566D01*
X135207432Y-92754340D01*
X135500534Y-92752113D01*
X135500534Y-93573599D01*
X136017000Y-93573599D01*
X136017000Y-92380950D01*
X135500534Y-92380950D01*
X135032750Y-92378258D01*
X134931960Y-92377668D01*
X134846668Y-92377111D01*
X134775443Y-92376526D01*
X134716850Y-92375850D01*
X134669456Y-92375023D01*
X134631827Y-92373981D01*
X134602530Y-92372663D01*
X134580131Y-92371007D01*
X134563197Y-92368951D01*
X134550293Y-92366434D01*
X134539988Y-92363394D01*
X134530846Y-92359768D01*
X134523100Y-92356262D01*
X134473500Y-92329416D01*
X134436915Y-92299529D01*
X134409429Y-92263167D01*
X134402204Y-92250158D01*
X134390400Y-92224870D01*
X134383481Y-92201292D01*
X134380231Y-92173235D01*
X134379433Y-92134509D01*
X134379433Y-92134266D01*
X134384752Y-92067703D01*
X134401068Y-92012803D01*
X134429062Y-91967798D01*
X134452855Y-91943857D01*
X134467071Y-91931744D01*
X134480152Y-91921418D01*
X134493522Y-91912730D01*
X134508599Y-91905528D01*
X134526806Y-91899661D01*
X134549563Y-91894978D01*
X134578291Y-91891328D01*
X134614411Y-91888560D01*
X134659344Y-91886522D01*
X134714511Y-91885065D01*
X134781332Y-91884036D01*
X134861229Y-91883285D01*
X134955623Y-91882661D01*
X135032750Y-91882209D01*
X135500534Y-91879467D01*
X135500534Y-92380950D01*
X136017000Y-92380950D01*
X136017000Y-91507733D01*
X135278284Y-91507867D01*
X135278284Y-91507867D01*
G37*
X135278284Y-91507867D02*
X135165311Y-91507980D01*
X135055344Y-91508271D01*
X134949820Y-91508723D01*
X134850175Y-91509324D01*
X134757847Y-91510058D01*
X134674272Y-91510913D01*
X134600888Y-91511873D01*
X134539132Y-91512925D01*
X134490440Y-91514054D01*
X134456249Y-91515247D01*
X134441830Y-91516102D01*
X134365283Y-91525672D01*
X134289840Y-91541045D01*
X134220522Y-91560969D01*
X134162354Y-91584190D01*
X134155839Y-91587403D01*
X134075691Y-91637198D01*
X134006348Y-91699189D01*
X133948492Y-91772001D01*
X133902807Y-91854254D01*
X133869976Y-91944572D01*
X133850680Y-92041577D01*
X133845602Y-92143891D01*
X133849488Y-92205576D01*
X133866649Y-92303152D01*
X133896541Y-92392253D01*
X133938414Y-92471691D01*
X133991517Y-92540277D01*
X134055101Y-92596821D01*
X134121525Y-92636851D01*
X134155420Y-92651779D01*
X134196294Y-92667407D01*
X134239894Y-92682372D01*
X134281966Y-92695315D01*
X134318258Y-92704873D01*
X134344517Y-92709684D01*
X134350014Y-92710000D01*
X134363244Y-92714062D01*
X134366001Y-92719224D01*
X134361140Y-92727532D01*
X134347132Y-92748298D01*
X134324834Y-92780317D01*
X134295105Y-92822387D01*
X134258801Y-92873305D01*
X134216783Y-92931866D01*
X134169907Y-92996868D01*
X134119032Y-93067108D01*
X134065016Y-93141381D01*
X134061201Y-93146617D01*
X134007043Y-93220989D01*
X133955962Y-93291277D01*
X133908812Y-93356293D01*
X133866451Y-93414849D01*
X133829734Y-93465759D01*
X133799517Y-93507836D01*
X133776657Y-93539892D01*
X133762009Y-93560741D01*
X133756430Y-93569194D01*
X133756401Y-93569296D01*
X133764554Y-93570265D01*
X133787767Y-93571044D01*
X133824165Y-93571619D01*
X133871875Y-93571976D01*
X133929023Y-93572101D01*
X133993735Y-93571981D01*
X134064139Y-93571602D01*
X134066260Y-93571587D01*
X134376119Y-93569366D01*
X134645224Y-93162966D01*
X134914330Y-92756566D01*
X135207432Y-92754340D01*
X135500534Y-92752113D01*
X135500534Y-93573599D01*
X136017000Y-93573599D01*
X136017000Y-92380950D01*
X135500534Y-92380950D01*
X135032750Y-92378258D01*
X134931960Y-92377668D01*
X134846668Y-92377111D01*
X134775443Y-92376526D01*
X134716850Y-92375850D01*
X134669456Y-92375023D01*
X134631827Y-92373981D01*
X134602530Y-92372663D01*
X134580131Y-92371007D01*
X134563197Y-92368951D01*
X134550293Y-92366434D01*
X134539988Y-92363394D01*
X134530846Y-92359768D01*
X134523100Y-92356262D01*
X134473500Y-92329416D01*
X134436915Y-92299529D01*
X134409429Y-92263167D01*
X134402204Y-92250158D01*
X134390400Y-92224870D01*
X134383481Y-92201292D01*
X134380231Y-92173235D01*
X134379433Y-92134509D01*
X134379433Y-92134266D01*
X134384752Y-92067703D01*
X134401068Y-92012803D01*
X134429062Y-91967798D01*
X134452855Y-91943857D01*
X134467071Y-91931744D01*
X134480152Y-91921418D01*
X134493522Y-91912730D01*
X134508599Y-91905528D01*
X134526806Y-91899661D01*
X134549563Y-91894978D01*
X134578291Y-91891328D01*
X134614411Y-91888560D01*
X134659344Y-91886522D01*
X134714511Y-91885065D01*
X134781332Y-91884036D01*
X134861229Y-91883285D01*
X134955623Y-91882661D01*
X135032750Y-91882209D01*
X135500534Y-91879467D01*
X135500534Y-92380950D01*
X136017000Y-92380950D01*
X136017000Y-91507733D01*
X135278284Y-91507867D01*
G36*
X139054495Y-92178716D02*
X139053954Y-92305266D01*
X139053433Y-92416080D01*
X139052854Y-92512353D01*
X139052135Y-92595281D01*
X139051194Y-92666062D01*
X139049951Y-92725891D01*
X139048325Y-92775964D01*
X139046234Y-92817478D01*
X139043599Y-92851629D01*
X139040337Y-92879613D01*
X139036369Y-92902627D01*
X139031612Y-92921867D01*
X139025986Y-92938528D01*
X139019411Y-92953808D01*
X139011804Y-92968902D01*
X139003085Y-92985007D01*
X138999464Y-92991639D01*
X138962666Y-93043127D01*
X138911412Y-93090752D01*
X138848017Y-93133002D01*
X138774796Y-93168362D01*
X138694064Y-93195319D01*
X138684000Y-93197912D01*
X138640375Y-93205694D01*
X138584281Y-93211077D01*
X138519850Y-93214096D01*
X138451210Y-93214783D01*
X138382492Y-93213174D01*
X138317826Y-93209300D01*
X138261343Y-93203197D01*
X138217171Y-93194897D01*
X138214100Y-93194087D01*
X138122379Y-93162715D01*
X138044732Y-93122181D01*
X137980846Y-93072259D01*
X137930411Y-93012720D01*
X137903817Y-92966985D01*
X137875434Y-92909339D01*
X137873082Y-92208536D01*
X137870731Y-91507733D01*
X137346267Y-91507733D01*
X137346459Y-92144850D01*
X137346597Y-92283633D01*
X137346948Y-92406625D01*
X137347549Y-92514967D01*
X137348440Y-92609801D01*
X137349657Y-92692268D01*
X137351241Y-92763509D01*
X137353228Y-92824666D01*
X137355657Y-92876879D01*
X137358567Y-92921291D01*
X137361995Y-92959042D01*
X137365980Y-92991275D01*
X137370560Y-93019129D01*
X137375773Y-93043747D01*
X137376706Y-93047616D01*
X137401614Y-93123753D01*
X137438067Y-93200686D01*
X137483301Y-93273901D01*
X137534555Y-93338888D01*
X137585006Y-93387826D01*
X137678870Y-93455038D01*
X137785723Y-93512577D01*
X137904452Y-93560140D01*
X138033941Y-93597428D01*
X138173079Y-93624139D01*
X138320751Y-93639973D01*
X138475843Y-93644628D01*
X138531600Y-93643563D01*
X138683585Y-93633020D01*
X138825446Y-93611488D01*
X138956685Y-93579266D01*
X139076801Y-93536650D01*
X139185296Y-93483940D01*
X139281669Y-93421433D01*
X139365422Y-93349427D01*
X139436056Y-93268221D01*
X139493070Y-93178112D01*
X139535966Y-93079399D01*
X139549508Y-93035966D01*
X139552808Y-93023858D01*
X139555702Y-93012038D01*
X139558222Y-92999357D01*
X139560399Y-92984663D01*
X139562264Y-92966804D01*
X139563847Y-92944628D01*
X139565180Y-92916985D01*
X139566294Y-92882722D01*
X139567220Y-92840689D01*
X139567989Y-92789733D01*
X139568632Y-92728704D01*
X139569179Y-92656450D01*
X139569663Y-92571819D01*
X139570115Y-92473660D01*
X139570564Y-92360822D01*
X139571021Y-92237983D01*
X139573705Y-91507733D01*
X139057380Y-91507733D01*
X139054495Y-92178716D01*
X139054495Y-92178716D01*
G37*
X139054495Y-92178716D02*
X139053954Y-92305266D01*
X139053433Y-92416080D01*
X139052854Y-92512353D01*
X139052135Y-92595281D01*
X139051194Y-92666062D01*
X139049951Y-92725891D01*
X139048325Y-92775964D01*
X139046234Y-92817478D01*
X139043599Y-92851629D01*
X139040337Y-92879613D01*
X139036369Y-92902627D01*
X139031612Y-92921867D01*
X139025986Y-92938528D01*
X139019411Y-92953808D01*
X139011804Y-92968902D01*
X139003085Y-92985007D01*
X138999464Y-92991639D01*
X138962666Y-93043127D01*
X138911412Y-93090752D01*
X138848017Y-93133002D01*
X138774796Y-93168362D01*
X138694064Y-93195319D01*
X138684000Y-93197912D01*
X138640375Y-93205694D01*
X138584281Y-93211077D01*
X138519850Y-93214096D01*
X138451210Y-93214783D01*
X138382492Y-93213174D01*
X138317826Y-93209300D01*
X138261343Y-93203197D01*
X138217171Y-93194897D01*
X138214100Y-93194087D01*
X138122379Y-93162715D01*
X138044732Y-93122181D01*
X137980846Y-93072259D01*
X137930411Y-93012720D01*
X137903817Y-92966985D01*
X137875434Y-92909339D01*
X137873082Y-92208536D01*
X137870731Y-91507733D01*
X137346267Y-91507733D01*
X137346459Y-92144850D01*
X137346597Y-92283633D01*
X137346948Y-92406625D01*
X137347549Y-92514967D01*
X137348440Y-92609801D01*
X137349657Y-92692268D01*
X137351241Y-92763509D01*
X137353228Y-92824666D01*
X137355657Y-92876879D01*
X137358567Y-92921291D01*
X137361995Y-92959042D01*
X137365980Y-92991275D01*
X137370560Y-93019129D01*
X137375773Y-93043747D01*
X137376706Y-93047616D01*
X137401614Y-93123753D01*
X137438067Y-93200686D01*
X137483301Y-93273901D01*
X137534555Y-93338888D01*
X137585006Y-93387826D01*
X137678870Y-93455038D01*
X137785723Y-93512577D01*
X137904452Y-93560140D01*
X138033941Y-93597428D01*
X138173079Y-93624139D01*
X138320751Y-93639973D01*
X138475843Y-93644628D01*
X138531600Y-93643563D01*
X138683585Y-93633020D01*
X138825446Y-93611488D01*
X138956685Y-93579266D01*
X139076801Y-93536650D01*
X139185296Y-93483940D01*
X139281669Y-93421433D01*
X139365422Y-93349427D01*
X139436056Y-93268221D01*
X139493070Y-93178112D01*
X139535966Y-93079399D01*
X139549508Y-93035966D01*
X139552808Y-93023858D01*
X139555702Y-93012038D01*
X139558222Y-92999357D01*
X139560399Y-92984663D01*
X139562264Y-92966804D01*
X139563847Y-92944628D01*
X139565180Y-92916985D01*
X139566294Y-92882722D01*
X139567220Y-92840689D01*
X139567989Y-92789733D01*
X139568632Y-92728704D01*
X139569179Y-92656450D01*
X139569663Y-92571819D01*
X139570115Y-92473660D01*
X139570564Y-92360822D01*
X139571021Y-92237983D01*
X139573705Y-91507733D01*
X139057380Y-91507733D01*
X139054495Y-92178716D01*
G36*
X141864472Y-91449968D02*
X141782332Y-91452690D01*
X141702745Y-91457511D01*
X141630502Y-91464273D01*
X141571134Y-91472686D01*
X141422910Y-91506012D01*
X141285355Y-91551301D01*
X141158942Y-91608286D01*
X141044144Y-91676704D01*
X140941432Y-91756288D01*
X140851281Y-91846775D01*
X140807692Y-91900472D01*
X140786265Y-91930718D01*
X140764002Y-91965168D01*
X140742594Y-92000790D01*
X140723733Y-92034552D01*
X140709111Y-92063421D01*
X140700418Y-92084365D01*
X140699348Y-92094351D01*
X140699475Y-92094469D01*
X140708511Y-92096199D01*
X140732328Y-92099631D01*
X140768889Y-92104503D01*
X140816156Y-92110553D01*
X140872092Y-92117516D01*
X140934658Y-92125130D01*
X140970001Y-92129363D01*
X141036018Y-92137283D01*
X141097159Y-92144728D01*
X141151251Y-92151426D01*
X141196122Y-92157102D01*
X141229599Y-92161484D01*
X141249511Y-92164298D01*
X141253689Y-92165030D01*
X141269652Y-92162544D01*
X141284457Y-92145571D01*
X141285580Y-92143705D01*
X141312405Y-92104931D01*
X141348407Y-92061959D01*
X141388738Y-92020081D01*
X141428553Y-91984589D01*
X141438085Y-91977163D01*
X141523860Y-91921447D01*
X141614350Y-91880264D01*
X141711455Y-91853017D01*
X141817079Y-91839108D01*
X141884400Y-91836917D01*
X142002779Y-91844055D01*
X142112153Y-91865452D01*
X142212451Y-91901081D01*
X142303602Y-91950918D01*
X142385533Y-92014936D01*
X142389202Y-92018336D01*
X142462124Y-92096434D01*
X142519809Y-92180654D01*
X142562625Y-92271882D01*
X142590941Y-92371004D01*
X142605128Y-92478903D01*
X142607043Y-92540666D01*
X142599541Y-92655416D01*
X142577327Y-92761953D01*
X142540601Y-92859949D01*
X142489562Y-92949076D01*
X142424409Y-93029005D01*
X142345341Y-93099411D01*
X142252559Y-93159963D01*
X142219951Y-93177233D01*
X142141712Y-93211483D01*
X142062731Y-93235060D01*
X141978378Y-93248991D01*
X141884020Y-93254304D01*
X141871700Y-93254411D01*
X141753833Y-93248445D01*
X141646605Y-93229401D01*
X141549712Y-93197120D01*
X141462846Y-93151444D01*
X141385702Y-93092216D01*
X141317974Y-93019276D01*
X141263641Y-92939795D01*
X141222848Y-92870866D01*
X140674580Y-92870866D01*
X140687626Y-92915316D01*
X140729054Y-93028053D01*
X140784876Y-93132330D01*
X140855685Y-93229172D01*
X140894878Y-93273009D01*
X140991557Y-93363398D01*
X141097856Y-93440991D01*
X141214074Y-93505884D01*
X141340514Y-93558173D01*
X141477475Y-93597954D01*
X141625258Y-93625324D01*
X141784163Y-93640378D01*
X141954492Y-93643214D01*
X142041883Y-93640188D01*
X142185724Y-93626407D01*
X142323386Y-93600184D01*
X142453670Y-93562091D01*
X142575380Y-93512701D01*
X142687316Y-93452585D01*
X142788280Y-93382316D01*
X142877076Y-93302465D01*
X142952505Y-93213604D01*
X142961516Y-93201066D01*
X143024741Y-93097007D01*
X143075542Y-92983249D01*
X143113720Y-92861811D01*
X143139074Y-92734710D01*
X143151405Y-92603967D01*
X143150513Y-92471598D01*
X143136198Y-92339624D01*
X143108260Y-92210062D01*
X143070881Y-92096092D01*
X143024267Y-91997707D01*
X142962614Y-91903055D01*
X142887717Y-91814023D01*
X142801369Y-91732499D01*
X142705364Y-91660371D01*
X142601497Y-91599526D01*
X142596627Y-91597063D01*
X142510932Y-91559353D01*
X142412606Y-91525322D01*
X142305755Y-91496087D01*
X142194485Y-91472768D01*
X142082905Y-91456481D01*
X142078324Y-91455973D01*
X142017258Y-91451452D01*
X141944378Y-91449502D01*
X141864472Y-91449968D01*
X141864472Y-91449968D01*
G37*
X141864472Y-91449968D02*
X141782332Y-91452690D01*
X141702745Y-91457511D01*
X141630502Y-91464273D01*
X141571134Y-91472686D01*
X141422910Y-91506012D01*
X141285355Y-91551301D01*
X141158942Y-91608286D01*
X141044144Y-91676704D01*
X140941432Y-91756288D01*
X140851281Y-91846775D01*
X140807692Y-91900472D01*
X140786265Y-91930718D01*
X140764002Y-91965168D01*
X140742594Y-92000790D01*
X140723733Y-92034552D01*
X140709111Y-92063421D01*
X140700418Y-92084365D01*
X140699348Y-92094351D01*
X140699475Y-92094469D01*
X140708511Y-92096199D01*
X140732328Y-92099631D01*
X140768889Y-92104503D01*
X140816156Y-92110553D01*
X140872092Y-92117516D01*
X140934658Y-92125130D01*
X140970001Y-92129363D01*
X141036018Y-92137283D01*
X141097159Y-92144728D01*
X141151251Y-92151426D01*
X141196122Y-92157102D01*
X141229599Y-92161484D01*
X141249511Y-92164298D01*
X141253689Y-92165030D01*
X141269652Y-92162544D01*
X141284457Y-92145571D01*
X141285580Y-92143705D01*
X141312405Y-92104931D01*
X141348407Y-92061959D01*
X141388738Y-92020081D01*
X141428553Y-91984589D01*
X141438085Y-91977163D01*
X141523860Y-91921447D01*
X141614350Y-91880264D01*
X141711455Y-91853017D01*
X141817079Y-91839108D01*
X141884400Y-91836917D01*
X142002779Y-91844055D01*
X142112153Y-91865452D01*
X142212451Y-91901081D01*
X142303602Y-91950918D01*
X142385533Y-92014936D01*
X142389202Y-92018336D01*
X142462124Y-92096434D01*
X142519809Y-92180654D01*
X142562625Y-92271882D01*
X142590941Y-92371004D01*
X142605128Y-92478903D01*
X142607043Y-92540666D01*
X142599541Y-92655416D01*
X142577327Y-92761953D01*
X142540601Y-92859949D01*
X142489562Y-92949076D01*
X142424409Y-93029005D01*
X142345341Y-93099411D01*
X142252559Y-93159963D01*
X142219951Y-93177233D01*
X142141712Y-93211483D01*
X142062731Y-93235060D01*
X141978378Y-93248991D01*
X141884020Y-93254304D01*
X141871700Y-93254411D01*
X141753833Y-93248445D01*
X141646605Y-93229401D01*
X141549712Y-93197120D01*
X141462846Y-93151444D01*
X141385702Y-93092216D01*
X141317974Y-93019276D01*
X141263641Y-92939795D01*
X141222848Y-92870866D01*
X140674580Y-92870866D01*
X140687626Y-92915316D01*
X140729054Y-93028053D01*
X140784876Y-93132330D01*
X140855685Y-93229172D01*
X140894878Y-93273009D01*
X140991557Y-93363398D01*
X141097856Y-93440991D01*
X141214074Y-93505884D01*
X141340514Y-93558173D01*
X141477475Y-93597954D01*
X141625258Y-93625324D01*
X141784163Y-93640378D01*
X141954492Y-93643214D01*
X142041883Y-93640188D01*
X142185724Y-93626407D01*
X142323386Y-93600184D01*
X142453670Y-93562091D01*
X142575380Y-93512701D01*
X142687316Y-93452585D01*
X142788280Y-93382316D01*
X142877076Y-93302465D01*
X142952505Y-93213604D01*
X142961516Y-93201066D01*
X143024741Y-93097007D01*
X143075542Y-92983249D01*
X143113720Y-92861811D01*
X143139074Y-92734710D01*
X143151405Y-92603967D01*
X143150513Y-92471598D01*
X143136198Y-92339624D01*
X143108260Y-92210062D01*
X143070881Y-92096092D01*
X143024267Y-91997707D01*
X142962614Y-91903055D01*
X142887717Y-91814023D01*
X142801369Y-91732499D01*
X142705364Y-91660371D01*
X142601497Y-91599526D01*
X142596627Y-91597063D01*
X142510932Y-91559353D01*
X142412606Y-91525322D01*
X142305755Y-91496087D01*
X142194485Y-91472768D01*
X142082905Y-91456481D01*
X142078324Y-91455973D01*
X142017258Y-91451452D01*
X141944378Y-91449502D01*
X141864472Y-91449968D01*
M02*
